<?xml version="1.0" encoding="UTF-8"?>
<svg width="150px" height="202px" viewBox="0 0 150 202" version="1.1" xmlns="http://www.w3.org/2000/svg" xmlns:xlink="http://www.w3.org/1999/xlink">
    <!-- Generator: Sketch 60.1 (88133) - https://sketch.com -->
    <title>下行文单机关-通告</title>
    <desc>Created with Sketch.</desc>
    <g id="页面-1" stroke="none" stroke-width="1" fill="none" fill-rule="evenodd">
        <g id="编组-7备份-20">
            <g id="编组-2备份-2">
                <rect id="矩形" x="0" y="0" width="150" height="202" rx="4"></rect>
            </g>
            <rect id="矩形" stroke="none" fill="#FFFFFF" x="5.5" y="5.5" width="139" height="191" rx="4"></rect>
            <g id="编组-20" transform="translate(13.000000, 63.000000)">
                <path d="M32.21875,6.625 L32.5,6.34375 L30.25,4.125 L32.4375,1.875 L32.15625,1.625 L30,3.875 L27.75,1.625 L27.5,1.875 L29.75,4.125 L27.5,6.375 L27.75,6.625 L30,4.375 L32.21875,6.625 Z M40.21875,6.625 L40.5,6.34375 L38.25,4.125 L40.4375,1.875 L40.15625,1.625 L38,3.875 L35.75,1.625 L35.5,1.875 L37.75,4.125 L35.5,6.375 L35.75,6.625 L38,4.375 L40.21875,6.625 Z M48.375,7.375 L48.625,7.21875 L47.53125,6.09375 L47.53125,2.15625 L48.65625,1 L48.4375,0.8125 L47.21875,2.09375 L47.21875,6.15625 L48.375,7.375 Z M53.28125,7 L53.46875,5.65625 L53.28125,5.65625 C53.2395833,5.94791667 53.15625,6.16666667 53.03125,6.3125 C52.90625,6.45833333 52.75,6.53125 52.5625,6.53125 L52.5625,6.53125 L50.71875,6.53125 C50.78125,6.40625 50.9739583,6.16145833 51.296875,5.796875 C51.6197917,5.43229167 52.0833333,4.95833333 52.6875,4.375 C52.9375,4.14583333 53.1197917,3.90625 53.234375,3.65625 C53.3489583,3.40625 53.40625,3.15625 53.40625,2.90625 C53.40625,2.53125 53.2864583,2.21875 53.046875,1.96875 C52.8072917,1.71875 52.4375,1.59375 51.9375,1.59375 C51.5833333,1.59375 51.25,1.70833333 50.9375,1.9375 C50.625,2.16666667 50.46875,2.5 50.46875,2.9375 C50.46875,3.10416667 50.5052083,3.22395833 50.578125,3.296875 C50.6510417,3.36979167 50.75,3.40625 50.875,3.40625 C50.9791667,3.40625 51.0572917,3.38020833 51.109375,3.328125 C51.1614583,3.27604167 51.1875,3.19791667 51.1875,3.09375 C51.1875,3.01041667 51.1510417,2.92708333 51.078125,2.84375 C51.0052083,2.76041667 50.96875,2.65625 50.96875,2.53125 C50.96875,2.32291667 51.0572917,2.15104167 51.234375,2.015625 C51.4114583,1.88020833 51.625,1.8125 51.875,1.8125 C52.2083333,1.8125 52.4583333,1.91145833 52.625,2.109375 C52.7916667,2.30729167 52.875,2.59375 52.875,2.96875 C52.875,3.23958333 52.7916667,3.53125 52.625,3.84375 C52.4583333,4.15625 52.1979167,4.48958333 51.84375,4.84375 C51.4479167,5.23958333 51.1302083,5.58333333 50.890625,5.875 C50.6510417,6.16666667 50.4791667,6.40625 50.375,6.59375 L50.375,6.59375 L50.375,7 L53.28125,7 Z M55.96875,7.0625 C56.4270833,7.0625 56.8072917,6.81770833 57.109375,6.328125 C57.4114583,5.83854167 57.5625,5.16666667 57.5625,4.3125 C57.5625,3.45833333 57.4114583,2.79166667 57.109375,2.3125 C56.8072917,1.83333333 56.4270833,1.59375 55.96875,1.59375 C55.4895833,1.59375 55.0989583,1.84375 54.796875,2.34375 C54.4947917,2.84375 54.34375,3.5 54.34375,4.3125 C54.34375,5.1875 54.5,5.86458333 54.8125,6.34375 C55.125,6.82291667 55.5104167,7.0625 55.96875,7.0625 Z M55.96875,6.8125 C55.6770833,6.8125 55.4322917,6.59375 55.234375,6.15625 C55.0364583,5.71875 54.9375,5.10416667 54.9375,4.3125 C54.9375,3.5625 55.0364583,2.96354167 55.234375,2.515625 C55.4322917,2.06770833 55.6770833,1.84375 55.96875,1.84375 C56.3020833,1.84375 56.5520833,2.06770833 56.71875,2.515625 C56.8854167,2.96354167 56.96875,3.5625 56.96875,4.3125 C56.96875,5.10416667 56.8802083,5.71875 56.703125,6.15625 C56.5260417,6.59375 56.28125,6.8125 55.96875,6.8125 Z M64.21875,6.625 L64.5,6.34375 L62.25,4.125 L64.4375,1.875 L64.15625,1.625 L62,3.875 L59.75,1.625 L59.5,1.875 L61.75,4.125 L59.5,6.375 L59.75,6.625 L62,4.375 L64.21875,6.625 Z M72.21875,6.625 L72.5,6.34375 L70.25,4.125 L72.4375,1.875 L72.15625,1.625 L70,3.875 L67.75,1.625 L67.5,1.875 L69.75,4.125 L67.5,6.375 L67.75,6.625 L70,4.375 L72.21875,6.625 Z M75.5,7.34375 L76.6875,6.0625 L76.6875,2 L75.53125,0.8125 L75.3125,1 L76.375,2.09375 L76.375,5.96875 L75.28125,7.15625 L75.5,7.34375 Z M88.21875,6.625 L88.5,6.34375 L86.25,4.125 L88.4375,1.875 L88.15625,1.625 L86,3.875 L83.75,1.625 L83.5,1.875 L85.75,4.125 L83.5,6.375 L83.75,6.625 L86,4.375 L88.21875,6.625 Z M92.65625,3.09375 C92.7604167,3.19791667 92.8020833,3.14583333 92.78125,2.9375 L92.78125,2.9375 L95.71875,2.71875 L95.46875,2.4375 L95.65625,1.25 L95.90625,1.03125 L95.5,0.71875 L95.3125,1 L92.6875,1.21875 L92.40625,0.75 L92.34375,0.78125 C92.4270833,1.07291667 92.46875,1.33333333 92.46875,1.5625 C92.46875,1.79166667 92.4739583,2.03125 92.484375,2.28125 C92.4947917,2.53125 92.4479167,2.66666667 92.34375,2.6875 L92.34375,2.6875 L92.65625,3.09375 Z M92.78125,2.65625 L92.75,1.46875 L95.34375,1.25 L95.1875,2.46875 L92.78125,2.65625 Z M94.1875,7.8125 C94.5208333,7.4375 95.0104167,6.47916667 95.65625,4.9375 L95.65625,4.9375 L95.9375,4.71875 L95.5625,4.34375 L95.34375,4.625 L92.9375,4.84375 L93.28125,3.96875 C95.5104167,3.80208333 96.8645833,3.71875 97.34375,3.71875 L97.34375,3.71875 L96.84375,3.34375 C96.71875,3.40625 95.7708333,3.51041667 94,3.65625 C92.2291667,3.80208333 91.1354167,3.86458333 90.71875,3.84375 L90.71875,3.84375 L91.15625,4.1875 C91.2395833,4.14583333 91.8229167,4.08333333 92.90625,4 L92.90625,4 L92.59375,4.875 L92.375,4.9375 L92.625,5.34375 L92.90625,5.15625 L95.3125,4.9375 C94.7916667,6.1875 94.4270833,6.95833333 94.21875,7.25 L94.21875,7.25 L93.125,6.3125 L93.0625,6.375 C93.5625,6.95833333 93.9375,7.4375 94.1875,7.8125 Z" id="××〔20××〕×号" fill="#333333" fill-rule="nonzero"></path>
                <rect id="矩形" fill="#DA4141" x="0" y="14" width="124" height="1"></rect>
            </g>
            <path d="M31.5625,51 L31.5625,50.53125 C30.4166667,50.4791667 29.8697917,50.1927083 29.921875,49.671875 C29.765625,49.515625 30.390625,48.5 31.796875,46.625 L31.796875,46.625 L32.578125,45.609375 L34.609375,48.8125 C34.765625,49.125 34.8958333,49.4635417 35,49.828125 C35.0520833,50.296875 34.53125,50.53125 33.4375,50.53125 L33.4375,50.53125 L33.4375,51 L40.234375,51 L40.234375,50.53125 C39.7135417,50.6354167 39.0625,50.0625 38.28125,48.8125 L38.28125,48.8125 L34.6875,43.109375 C37.1875,39.203125 38.9583333,37.484375 40,37.953125 L40,37.953125 L40,37.484375 L35,37.484375 L35,37.953125 C35.0520833,38.0052083 35.1041667,38.03125 35.15625,38.03125 C36.0416667,38.0833333 36.484375,38.2916667 36.484375,38.65625 C36.8489583,38.6041667 36.0677083,39.8541667 34.140625,42.40625 L34.140625,42.40625 L32.265625,39.359375 C32.0052083,39.1510417 31.9010417,38.9166667 31.953125,38.65625 C31.796875,38.1875 32.3177083,37.953125 33.515625,37.953125 L33.515625,37.953125 L33.515625,37.484375 L26.5625,37.484375 L26.5625,37.953125 C27.1354167,38.0052083 27.6822917,38.3958333 28.203125,39.125 L28.203125,39.125 L32.1875,44.984375 L28.671875,49.359375 C28.203125,50.0364583 27.5,50.4270833 26.5625,50.53125 L26.5625,50.53125 L26.5625,51 L31.5625,51 Z M45.9375,51 L45.9375,50.53125 C44.7916667,50.4791667 44.2447917,50.1927083 44.296875,49.671875 C44.140625,49.515625 44.765625,48.5 46.171875,46.625 L46.171875,46.625 L46.953125,45.609375 L48.984375,48.8125 C49.140625,49.125 49.2708333,49.4635417 49.375,49.828125 C49.4270833,50.296875 48.90625,50.53125 47.8125,50.53125 L47.8125,50.53125 L47.8125,51 L54.609375,51 L54.609375,50.53125 C54.0885417,50.6354167 53.4375,50.0625 52.65625,48.8125 L52.65625,48.8125 L49.0625,43.109375 C51.5625,39.203125 53.3333333,37.484375 54.375,37.953125 L54.375,37.953125 L54.375,37.484375 L49.375,37.484375 L49.375,37.953125 C49.4270833,38.0052083 49.4791667,38.03125 49.53125,38.03125 C50.4166667,38.0833333 50.859375,38.2916667 50.859375,38.65625 C51.2239583,38.6041667 50.4427083,39.8541667 48.515625,42.40625 L48.515625,42.40625 L46.640625,39.359375 C46.3802083,39.1510417 46.2760417,38.9166667 46.328125,38.65625 C46.171875,38.1875 46.6927083,37.953125 47.890625,37.953125 L47.890625,37.953125 L47.890625,37.484375 L40.9375,37.484375 L40.9375,37.953125 C41.5104167,38.0052083 42.0572917,38.3958333 42.578125,39.125 L42.578125,39.125 L46.5625,44.984375 L43.046875,49.359375 C42.578125,50.0364583 41.875,50.4270833 40.9375,50.53125 L40.9375,50.53125 L40.9375,51 L45.9375,51 Z M60.3125,51 L60.3125,50.53125 C59.1666667,50.4791667 58.6197917,50.1927083 58.671875,49.671875 C58.515625,49.515625 59.140625,48.5 60.546875,46.625 L60.546875,46.625 L61.328125,45.609375 L63.359375,48.8125 C63.515625,49.125 63.6458333,49.4635417 63.75,49.828125 C63.8020833,50.296875 63.28125,50.53125 62.1875,50.53125 L62.1875,50.53125 L62.1875,51 L68.984375,51 L68.984375,50.53125 C68.4635417,50.6354167 67.8125,50.0625 67.03125,48.8125 L67.03125,48.8125 L63.4375,43.109375 C65.9375,39.203125 67.7083333,37.484375 68.75,37.953125 L68.75,37.953125 L68.75,37.484375 L63.75,37.484375 L63.75,37.953125 C63.8020833,38.0052083 63.8541667,38.03125 63.90625,38.03125 C64.7916667,38.0833333 65.234375,38.2916667 65.234375,38.65625 C65.5989583,38.6041667 64.8177083,39.8541667 62.890625,42.40625 L62.890625,42.40625 L61.015625,39.359375 C60.7552083,39.1510417 60.6510417,38.9166667 60.703125,38.65625 C60.546875,38.1875 61.0677083,37.953125 62.265625,37.953125 L62.265625,37.953125 L62.265625,37.484375 L55.3125,37.484375 L55.3125,37.953125 C55.8854167,38.0052083 56.4322917,38.3958333 56.953125,39.125 L56.953125,39.125 L60.9375,44.984375 L57.421875,49.359375 C56.953125,50.0364583 56.25,50.4270833 55.3125,50.53125 L55.3125,50.53125 L55.3125,51 L60.3125,51 Z M74.6875,51 L74.6875,50.53125 C73.5416667,50.4791667 72.9947917,50.1927083 73.046875,49.671875 C72.890625,49.515625 73.515625,48.5 74.921875,46.625 L74.921875,46.625 L75.703125,45.609375 L77.734375,48.8125 C77.890625,49.125 78.0208333,49.4635417 78.125,49.828125 C78.1770833,50.296875 77.65625,50.53125 76.5625,50.53125 L76.5625,50.53125 L76.5625,51 L83.359375,51 L83.359375,50.53125 C82.8385417,50.6354167 82.1875,50.0625 81.40625,48.8125 L81.40625,48.8125 L77.8125,43.109375 C80.3125,39.203125 82.0833333,37.484375 83.125,37.953125 L83.125,37.953125 L83.125,37.484375 L78.125,37.484375 L78.125,37.953125 C78.1770833,38.0052083 78.2291667,38.03125 78.28125,38.03125 C79.1666667,38.0833333 79.609375,38.2916667 79.609375,38.65625 C79.9739583,38.6041667 79.1927083,39.8541667 77.265625,42.40625 L77.265625,42.40625 L75.390625,39.359375 C75.1302083,39.1510417 75.0260417,38.9166667 75.078125,38.65625 C74.921875,38.1875 75.4427083,37.953125 76.640625,37.953125 L76.640625,37.953125 L76.640625,37.484375 L69.6875,37.484375 L69.6875,37.953125 C70.2604167,38.0052083 70.8072917,38.3958333 71.328125,39.125 L71.328125,39.125 L75.3125,44.984375 L71.796875,49.359375 C71.328125,50.0364583 70.625,50.4270833 69.6875,50.53125 L69.6875,50.53125 L69.6875,51 L74.6875,51 Z M92.265625,38.03125 C92.578125,38.7083333 93.0989583,38.8645833 93.828125,38.5 C94.5052083,38.03125 94.7916667,37.40625 94.6875,36.625 C94.3229167,35.4270833 93.0208333,34.671875 90.78125,34.359375 C90.5729167,34.4635417 90.546875,34.5416667 90.703125,34.59375 C91.4322917,35.1145833 91.8489583,35.921875 91.953125,37.015625 C92.0052083,37.5364583 92.109375,37.875 92.265625,38.03125 Z M100.78125,53.5 C100.9375,53.5 101.041667,53.421875 101.09375,53.265625 C101.458333,51.9114583 102.161458,51.1041667 103.203125,50.84375 C103.255208,50.7916667 103.229167,50.7135417 103.125,50.609375 C99.9479167,50.5572917 97.2916667,49.7760417 95.15625,48.265625 C96.5625,46.4427083 97.5,44.0729167 97.96875,41.15625 C97.96875,41.1041667 98.0729167,41 98.28125,40.84375 C98.4375,40.7395833 98.5416667,40.6354167 98.59375,40.53125 C98.6979167,40.4270833 98.6979167,40.3229167 98.59375,40.21875 C98.1770833,40.0104167 97.7864583,39.828125 97.421875,39.671875 L97.421875,39.671875 L103.125,39.671875 C103.28125,39.5677083 103.307292,39.4114583 103.203125,39.203125 C102.786458,38.7864583 102.005208,38.1875 100.859375,37.40625 L100.859375,37.40625 L100.625,37.40625 C100.3125,37.6666667 99.8958333,38.1614583 99.375,38.890625 C99.2708333,38.9947917 99.1927083,39.0989583 99.140625,39.203125 L99.140625,39.203125 L85.078125,39.203125 C84.8177083,39.203125 84.5833333,39.1770833 84.375,39.125 L84.375,39.125 L84.84375,39.671875 L84.84375,39.671875 L89.375,39.671875 C89.5833333,43.109375 90.6510417,46.0260417 92.578125,48.421875 C90.5989583,50.8177083 87.8645833,52.4583333 84.375,53.34375 C84.1666667,53.34375 84.1666667,53.3958333 84.375,53.5 C88.28125,53.0833333 91.40625,51.859375 93.75,49.828125 C95.7291667,51.5989583 98.0729167,52.8229167 100.78125,53.5 Z M93.59375,47.015625 C91.6145833,45.2447917 90.3645833,42.796875 89.84375,39.671875 L89.84375,39.671875 L95.625,39.671875 C95.46875,42.4322917 94.7916667,44.8802083 93.59375,47.015625 Z M115.546875,52.71875 C116.380208,53.1875 117.135417,53.03125 117.8125,52.25 C117.8125,51.9895833 117.786458,51.5989583 117.734375,51.078125 L117.734375,51.078125 L117.734375,46.078125 L123.515625,46.078125 C123.671875,46.078125 123.75,45.9739583 123.75,45.765625 C123.59375,45.5052083 122.890625,44.984375 121.640625,44.203125 C121.536458,44.1510417 121.484375,44.0989583 121.484375,44.046875 L121.484375,44.046875 L121.171875,44.046875 C120.963542,44.203125 120.703125,44.515625 120.390625,44.984375 C120.130208,45.3489583 119.947917,45.5833333 119.84375,45.6875 L119.84375,45.6875 L117.734375,45.6875 L117.734375,41.078125 L122.734375,41.078125 C122.890625,41.078125 122.942708,40.9739583 122.890625,40.765625 C122.682292,40.4010417 121.927083,39.828125 120.625,39.046875 L120.625,39.046875 L120.390625,39.046875 C120.130208,39.2552083 119.6875,39.7760417 119.0625,40.609375 L119.0625,40.609375 L119.0625,40.6875 L117.734375,40.6875 L117.734375,35.921875 C117.994792,35.765625 118.177083,35.6354167 118.28125,35.53125 L118.28125,35.53125 L118.28125,35.21875 C117.65625,35.0625 117.109375,34.9322917 116.640625,34.828125 C116.119792,34.7239583 115.78125,34.671875 115.625,34.671875 C115.520833,34.7239583 115.494792,34.75 115.546875,34.75 L115.546875,34.75 L115.625,35.921875 L115.625,40.6875 L113.4375,40.6875 C113.645833,40.0625 113.854167,39.3854167 114.0625,38.65625 C114.0625,38.5 114.21875,38.34375 114.53125,38.1875 C114.635417,38.1354167 114.713542,38.0833333 114.765625,38.03125 C114.817708,37.9270833 114.817708,37.8229167 114.765625,37.71875 C114.244792,37.5104167 113.723958,37.3020833 113.203125,37.09375 C112.890625,36.9895833 112.604167,36.859375 112.34375,36.703125 C112.1875,36.7552083 112.109375,36.8072917 112.109375,36.859375 C111.901042,40.0364583 111.432292,42.6666667 110.703125,44.75 C110.755208,44.90625 110.833333,44.9583333 110.9375,44.90625 C111.770833,44.0208333 112.552083,42.7447917 113.28125,41.078125 L113.28125,41.078125 L115.625,41.078125 L115.625,45.6875 L110.703125,45.6875 C110.442708,45.6875 110.208333,45.6614583 110,45.609375 L110,45.609375 L110.46875,46.15625 C110.885417,46.15625 111.302083,46.1302083 111.71875,46.078125 L111.71875,46.078125 L115.625,46.078125 L115.625,49.671875 C115.572917,50.2447917 115.520833,50.84375 115.46875,51.46875 C115.416667,52.1458333 115.442708,52.5625 115.546875,52.71875 Z M107.1875,52.796875 C107.864583,53.1614583 108.541667,53.03125 109.21875,52.40625 C109.21875,52.1979167 109.192708,51.7291667 109.140625,51 L109.140625,51 L109.140625,40.6875 C109.140625,40.6875 109.159375,40.678125 109.196875,40.659375 L109.296875,40.609375 C109.453125,40.5052083 109.583333,40.4010417 109.6875,40.296875 L109.6875,40.296875 L109.6875,39.984375 C109.635417,39.9322917 109.401042,39.7760417 108.984375,39.515625 C109.453125,38.6822917 109.869792,37.8229167 110.234375,36.9375 C110.651042,36.625 110.963542,36.46875 111.171875,36.46875 C111.328125,36.3645833 111.354167,36.234375 111.25,36.078125 C110.78125,35.8697917 110.130208,35.5833333 109.296875,35.21875 C109.036458,35.1145833 108.828125,35.0104167 108.671875,34.90625 C108.463542,34.8541667 108.333333,34.90625 108.28125,35.0625 C107.1875,39.3333333 105.807292,42.6666667 104.140625,45.0625 C104.088542,45.1145833 104.140625,45.1666667 104.296875,45.21875 C105.286458,44.3854167 106.276042,43.3177083 107.265625,42.015625 L107.265625,42.015625 L107.265625,49.828125 C107.213542,50.7135417 107.161458,51.3645833 107.109375,51.78125 C107.057292,52.3020833 107.083333,52.640625 107.1875,52.796875 Z" id="XXXX文件" fill="#DA4141" fill-rule="nonzero"></path>
            <path d="M29.3125,97.875 L29.6875,97.5 L26.875,94.6875 L29.6875,91.875 L29.3125,91.5 L26.5,94.3125 L23.6875,91.5 L23.265625,91.875 L26.125,94.6875 L23.265625,97.5 L23.6875,97.875 L26.5,95.0625 L29.3125,97.875 Z M41.3125,97.875 L41.6875,97.5 L38.875,94.6875 L41.6875,91.875 L41.3125,91.5 L38.5,94.3125 L35.6875,91.5 L35.265625,91.875 L38.125,94.6875 L35.265625,97.5 L35.6875,97.875 L38.5,95.0625 L41.3125,97.875 Z M44.78125,100.546875 C48.375,99.953125 50.265625,98.328125 50.453125,95.671875 L50.453125,95.671875 L50.640625,95.671875 C51.421875,98.109375 52.71875,99.6875 54.53125,100.40625 C54.65625,100.4375 54.75,100.421875 54.8125,100.359375 C54.9375,99.640625 55.375,99.1875 56.125,99 C56.25,98.9375 56.25,98.84375 56.125,98.71875 C53.5,98.75 51.796875,97.734375 51.015625,95.671875 L51.015625,95.671875 L55.984375,95.671875 C56.109375,95.640625 56.140625,95.546875 56.078125,95.390625 C55.703125,95.078125 55.234375,94.71875 54.671875,94.3125 L54.671875,94.3125 L54.484375,94.3125 C54.140625,94.65625 53.859375,95.03125 53.640625,95.4375 L53.640625,95.4375 L50.5,95.4375 L50.5,95.4375 L50.5,93.1875 C50.71875,93 50.8125,92.875 50.78125,92.8125 L50.78125,92.8125 L55.375,92.8125 C55.46875,92.78125 55.484375,92.6875 55.421875,92.53125 C55.171875,92.28125 54.703125,91.921875 54.015625,91.453125 L54.015625,91.453125 L53.875,91.453125 C53.53125,91.796875 53.234375,92.171875 52.984375,92.578125 L52.984375,92.578125 L50.78125,92.578125 C51,92.390625 51.359375,92.046875 51.859375,91.546875 C52.328125,91.046875 52.6875,90.6875 52.9375,90.46875 C53.09375,90.4375 53.328125,90.40625 53.640625,90.375 C53.765625,90.28125 53.78125,90.171875 53.6875,90.046875 C53.09375,89.640625 52.546875,89.28125 52.046875,88.96875 C51.953125,88.9375 51.859375,88.953125 51.765625,89.015625 C51.390625,90.046875 50.890625,91.234375 50.265625,92.578125 L50.265625,92.578125 L45.671875,92.578125 C45.515625,92.578125 45.375,92.5625 45.25,92.53125 L45.25,92.53125 L45.53125,92.859375 C45.78125,92.859375 46.03125,92.84375 46.28125,92.8125 L46.28125,92.8125 L49.140625,92.8125 L49.140625,94.828125 C49.140625,95.046875 49.125,95.25 49.09375,95.4375 L49.09375,95.4375 L45.15625,95.4375 C45.03125,95.4375 44.90625,95.421875 44.78125,95.390625 L44.78125,95.390625 L45.015625,95.71875 C45.484375,95.71875 45.75,95.703125 45.8125,95.671875 L45.8125,95.671875 L49.09375,95.671875 C48.90625,98.015625 47.453125,99.5625 44.734375,100.3125 C44.640625,100.375 44.65625,100.453125 44.78125,100.546875 Z M47.78125,91.6875 C47.84375,92.1875 48.1875,92.34375 48.8125,92.15625 C49.28125,91.96875 49.453125,91.546875 49.328125,90.890625 C48.953125,90.140625 48.140625,89.578125 46.890625,89.203125 C46.703125,89.265625 46.65625,89.34375 46.75,89.4375 C47.375,90.09375 47.71875,90.84375 47.78125,91.6875 Z M61.5625,100.171875 C62.40625,100.140625 62.90625,99.921875 63.0625,99.515625 C63.0625,99.421875 63.046875,99.25 63.015625,99 L63.015625,99 L63.015625,94.3125 L68.125,94.3125 C68.21875,94.28125 68.234375,94.1875 68.171875,94.03125 C67.921875,93.78125 67.453125,93.421875 66.765625,92.953125 L66.765625,92.953125 L66.625,92.953125 C66.28125,93.296875 65.984375,93.671875 65.734375,94.078125 L65.734375,94.078125 L63.015625,94.078125 L63.015625,90.9375 C63.203125,90.78125 63.296875,90.65625 63.296875,90.5625 L63.296875,90.5625 L67,90.5625 C67.09375,90.53125 67.109375,90.4375 67.046875,90.28125 C66.796875,90.03125 66.328125,89.671875 65.640625,89.203125 L65.640625,89.203125 L65.5,89.203125 C65.15625,89.546875 64.859375,89.921875 64.609375,90.328125 L64.609375,90.328125 L57.90625,90.328125 C57.78125,90.328125 57.65625,90.3125 57.53125,90.28125 L57.53125,90.28125 L57.765625,90.609375 C58.234375,90.609375 58.5,90.59375 58.5625,90.5625 L58.5625,90.5625 L61.609375,90.5625 L61.609375,94.078125 L57.0625,94.078125 C56.90625,94.078125 56.765625,94.0625 56.640625,94.03125 L56.640625,94.03125 L56.875,94.359375 C57.125,94.359375 57.390625,94.34375 57.671875,94.3125 L57.671875,94.3125 L61.609375,94.3125 L61.609375,98.90625 C61.328125,99 60.734375,99 59.828125,98.90625 C59.765625,98.90625 59.75,98.9375 59.78125,99 C60.5,99.125 61.03125,99.484375 61.375,100.078125 C61.40625,100.140625 61.46875,100.171875 61.5625,100.171875 Z M77.3125,97.875 L77.6875,97.5 L74.875,94.6875 L77.6875,91.875 L77.3125,91.5 L74.5,94.3125 L71.6875,91.5 L71.265625,91.875 L74.125,94.6875 L71.265625,97.5 L71.6875,97.875 L74.5,95.0625 L77.3125,97.875 Z M89.3125,97.875 L89.6875,97.5 L86.875,94.6875 L89.6875,91.875 L89.3125,91.5 L86.5,94.3125 L83.6875,91.5 L83.265625,91.875 L86.125,94.6875 L83.265625,97.5 L83.6875,97.875 L86.5,95.0625 L89.3125,97.875 Z M93.5538194,99.6157407 L93.671875,99.609375 C94.109375,99.546875 94.34375,99.421875 94.375,99.234375 L94.375,99.234375 L94.375,98.671875 L96.484375,98.671875 L96.484375,99 C96.828125,99.375 97.25,99.375 97.75,99 L97.75,99 L97.609375,92.4375 C97.734375,92.375 97.859375,92.265625 97.984375,92.109375 C98.015625,92.046875 98.015625,91.984375 97.984375,91.921875 C97.609375,91.640625 97.25,91.421875 96.90625,91.265625 L96.90625,91.265625 L96.765625,91.265625 C96.546875,91.359375 96.328125,91.546875 96.109375,91.828125 L96.109375,91.828125 L95.265625,91.828125 C95.359375,91.671875 95.515625,91.390625 95.734375,90.984375 C95.890625,90.734375 96.0625,90.453125 96.25,90.140625 C96.25,90.109375 96.328125,90.0625 96.484375,90 C96.546875,90 96.59375,89.984375 96.625,89.953125 L96.625,89.953125 L96.625,89.90625 C96.65625,89.78125 96.65625,89.703125 96.625,89.671875 C96.03125,89.453125 95.546875,89.3125 95.171875,89.25 C95.046875,89.28125 94.984375,89.3125 94.984375,89.34375 C94.953125,89.71875 94.921875,90.109375 94.890625,90.515625 C94.828125,90.953125 94.78125,91.390625 94.75,91.828125 L94.75,91.828125 L94.375,91.828125 C94.0625,91.609375 93.703125,91.421875 93.296875,91.265625 C93.234375,91.296875 93.203125,91.328125 93.203125,91.359375 C93.234375,91.609375 93.25,91.96875 93.25,92.4375 L93.25,92.4375 L93.25,92.953125 L93.109375,99.375 C93.109375,99.5625 93.296875,99.640625 93.671875,99.609375 L93.5538194,99.6157407 Z M101.3125,100.265625 C102.28125,100.203125 102.921875,99.71875 103.234375,98.8125 C103.421875,98.15625 103.515625,97.28125 103.515625,96.1875 L103.515625,96.1875 L103.515625,92.8125 C103.609375,92.75 103.703125,92.65625 103.796875,92.53125 C103.796875,92.53125 103.8125,92.484375 103.84375,92.390625 C103.4375,92.109375 102.984375,91.875 102.484375,91.6875 C102.421875,91.6875 102.359375,91.703125 102.296875,91.734375 C102.109375,91.921875 101.96875,92.078125 101.875,92.203125 L101.875,92.203125 L99.625,92.203125 C100.0625,91.515625 100.453125,90.828125 100.796875,90.140625 L100.796875,90.140625 L101.171875,89.90625 L101.171875,89.90625 L101.171875,89.671875 C100.421875,89.453125 99.875,89.3125 99.53125,89.25 C99.40625,89.25 99.34375,89.265625 99.34375,89.296875 C99.0625,91.109375 98.625,92.6875 98.03125,94.03125 C98,94.125 98.046875,94.15625 98.171875,94.125 C98.640625,93.625 99.0625,93.0625 99.4375,92.4375 L99.4375,92.4375 L102.109375,92.4375 L102.109375,96.5625 C102.203125,98.5625 101.421875,99.328125 99.765625,98.859375 C99.609375,98.921875 99.578125,98.96875 99.671875,99 C100.546875,99.28125 101.046875,99.671875 101.171875,100.171875 C101.171875,100.203125 101.21875,100.234375 101.3125,100.265625 Z M96.484375,94.921875 L94.375,94.921875 L94.375,92.0625 L96.484375,92.0625 L96.484375,94.921875 Z M100.067383,96.9394531 L100.1875,96.9375 C100.625,96.84375 100.859375,96.515625 100.890625,95.953125 C100.703125,95.109375 100.03125,94.546875 98.875,94.265625 C98.78125,94.328125 98.75,94.375 98.78125,94.40625 C99.21875,94.84375 99.421875,95.4375 99.390625,96.1875 C99.421875,96.71875 99.6875,96.96875 100.1875,96.9375 L100.067383,96.9394531 Z M96.484375,98.4375 L94.375,98.4375 L94.375,95.203125 L96.484375,95.203125 L96.484375,98.4375 Z M113.948125,98.5875 L113.96875,98.578125 C114.78125,98.515625 115.25,98.296875 115.375,97.921875 L115.375,97.921875 L115.28125,93.046875 C115.28125,93.046875 115.296875,93.03125 115.328125,93 C115.484375,92.875 115.578125,92.765625 115.609375,92.671875 C115.640625,92.609375 115.640625,92.546875 115.609375,92.484375 C115.234375,92.265625 114.84375,92.03125 114.4375,91.78125 C114.375,91.78125 114.3125,91.796875 114.25,91.828125 C114.15625,91.921875 114,92.125 113.78125,92.4375 L113.78125,92.4375 L112.234375,92.4375 C112.609375,92.1875 112.734375,91.828125 112.609375,91.359375 C112.546875,91.296875 112.484375,91.21875 112.421875,91.125 L112.421875,91.125 L114.015625,90.328125 C114.140625,90.265625 114.3125,90.234375 114.53125,90.234375 C114.71875,90.234375 114.875,90.21875 115,90.1875 C115.09375,90.1875 115.109375,90.109375 115.046875,89.953125 C114.515625,89.609375 113.984375,89.3125 113.453125,89.0625 C113.328125,89.03125 113.25,89.03125 113.21875,89.0625 C113.03125,89.28125 112.90625,89.4375 112.84375,89.53125 C112.78125,89.59375 112.75,89.640625 112.75,89.671875 L112.75,89.671875 L109.046875,89.671875 C108.921875,89.671875 108.796875,89.65625 108.671875,89.625 L108.671875,89.625 L108.90625,89.953125 C109.375,89.953125 109.640625,89.9375 109.703125,89.90625 L109.703125,89.90625 L112.890625,89.90625 C112.671875,90.3125 112.515625,90.578125 112.421875,90.703125 C112.359375,90.828125 112.3125,90.921875 112.28125,90.984375 C111.875,90.703125 111.234375,90.546875 110.359375,90.515625 C110.328125,90.546875 110.3125,90.578125 110.3125,90.609375 C110.8125,90.921875 111.09375,91.3125 111.15625,91.78125 C111.21875,92.03125 111.296875,92.203125 111.390625,92.296875 C111.390625,92.328125 111.40625,92.359375 111.4375,92.390625 C111.4375,92.421875 111.453125,92.4375 111.484375,92.4375 L111.484375,92.4375 L109.75,92.4375 C109.5,92.21875 109.125,92.046875 108.625,91.921875 L108.625,91.921875 L108.625,93.1875 C108.59375,93.96875 108.5625,95.65625 108.53125,98.25 C108.5,98.40625 108.6875,98.46875 109.09375,98.4375 C109.5,98.34375 109.71875,98.21875 109.75,98.0625 L109.75,98.0625 L109.75,95.8125 L111.34375,95.8125 C111.3125,96.59375 111.28125,97.421875 111.25,98.296875 C111.28125,98.453125 111.515625,98.5 111.953125,98.4375 C112.296875,98.375 112.484375,98.25 112.515625,98.0625 L112.515625,98.0625 L112.515625,95.8125 L114.015625,95.8125 L114.015625,97.171875 C113.828125,97.359375 113.421875,97.390625 112.796875,97.265625 C112.734375,97.328125 112.734375,97.375 112.796875,97.40625 C113.296875,97.5625 113.640625,97.90625 113.828125,98.4375 C113.890625,98.5625 113.9375,98.609375 113.96875,98.578125 L113.948125,98.5875 Z M106.609375,91.21875 C106.796875,91.53125 107.078125,91.59375 107.453125,91.40625 C107.828125,91.1875 108.015625,90.890625 108.015625,90.515625 C107.890625,89.796875 107.140625,89.390625 105.765625,89.296875 C105.703125,89.296875 105.6875,89.34375 105.71875,89.4375 C106.125,89.65625 106.359375,90.046875 106.421875,90.609375 C106.453125,90.890625 106.515625,91.09375 106.609375,91.21875 Z M114.015625,94.078125 L112.515625,94.078125 L112.515625,93.046875 C112.515625,93.046875 112.517578,93.0449219 112.521484,93.0410156 L112.609375,92.953125 C112.703125,92.890625 112.765625,92.84375 112.796875,92.8125 C112.828125,92.78125 112.859375,92.734375 112.890625,92.671875 L112.890625,92.671875 L114.015625,92.671875 L114.015625,94.078125 Z M111.390625,94.078125 L109.75,94.078125 L109.75,92.671875 L111.390625,92.671875 L111.390625,94.078125 Z M115.28125,100.21875 C115.40625,100.1875 115.46875,100.125 115.46875,100.03125 C115.59375,99.34375 115.84375,98.9375 116.21875,98.8125 L116.21875,98.8125 L116.21875,98.71875 C116.21875,98.6875 116.203125,98.671875 116.171875,98.671875 C115.265625,98.890625 114.125,99 112.75,99 L112.75,99 L110.40625,99 C108.78125,99 107.8125,98.765625 107.5,98.296875 L107.5,98.296875 L107.5,94.3125 C107.5,94.3125 107.546875,94.25 107.640625,94.125 C107.828125,94 107.921875,93.90625 107.921875,93.84375 C107.515625,93.5625 107.09375,93.34375 106.65625,93.1875 C106.53125,93.1875 106.359375,93.34375 106.140625,93.65625 L106.140625,93.65625 L105.0625,93.65625 C104.9375,93.65625 104.8125,93.640625 104.6875,93.609375 L104.6875,93.609375 L104.921875,93.984375 C105.296875,93.984375 105.515625,93.96875 105.578125,93.9375 L105.578125,93.9375 L106.375,93.9375 L106.375,98.296875 C105.75,98.515625 105.25,98.71875 104.875,98.90625 L104.875,98.90625 L104.828125,98.90625 C104.734375,98.96875 104.71875,99.015625 104.78125,99.046875 C104.875,99.140625 105.03125,99.40625 105.25,99.84375 C105.3125,99.9375 105.375,100.03125 105.4375,100.125 C105.46875,100.1875 105.515625,100.1875 105.578125,100.125 C106.078125,99.34375 106.546875,98.953125 106.984375,98.953125 C107.234375,98.953125 107.515625,99.078125 107.828125,99.328125 C108.546875,99.921875 109.4375,100.21875 110.5,100.21875 L110.5,100.21875 L115.28125,100.21875 Z M114.015625,95.578125 L112.515625,95.578125 L112.515625,94.3125 L114.015625,94.3125 L114.015625,95.578125 Z M111.390625,95.578125 L109.75,95.578125 L109.75,94.3125 L111.390625,94.3125 L111.390625,94.3125 L111.390625,95.578125 Z M117.015625,94.59375 C117.484375,94.59375 117.75,94.578125 117.8125,94.546875 L117.8125,94.546875 L128.125,94.546875 C128.21875,94.546875 128.25,94.484375 128.21875,94.359375 C128.09375,94.140625 127.640625,93.796875 126.859375,93.328125 L126.859375,93.328125 L126.71875,93.328125 C126.5625,93.453125 126.296875,93.765625 125.921875,94.265625 L125.921875,94.265625 L125.921875,94.3125 L123.015625,94.3125 L123.015625,92.0625 L127,92.0625 C127.09375,92.03125 127.109375,91.9375 127.046875,91.78125 C126.796875,91.53125 126.328125,91.171875 125.640625,90.703125 L125.640625,90.703125 L125.5,90.703125 C125.15625,91.046875 124.859375,91.421875 124.609375,91.828125 L124.609375,91.828125 L123.015625,91.828125 L123.015625,89.671875 C123.015625,89.671875 123.017578,89.6699219 123.021484,89.6660156 L123.109375,89.578125 C123.265625,89.484375 123.34375,89.40625 123.34375,89.34375 C123.03125,89.09375 122.421875,88.9375 121.515625,88.875 C121.453125,88.96875 121.453125,89.125 121.515625,89.34375 C121.578125,89.5 121.609375,89.609375 121.609375,89.671875 L121.609375,89.671875 L121.609375,91.828125 L119.59375,91.828125 C119.84375,91.421875 120.09375,91 120.34375,90.5625 C120.375,90.40625 120.453125,90.328125 120.578125,90.328125 C120.578125,90.328125 120.59375,90.3125 120.625,90.28125 C120.78125,90.1875 120.84375,90.125 120.8125,90.09375 C120.84375,90.03125 120.78125,89.96875 120.625,89.90625 C120.4375,89.84375 120.171875,89.75 119.828125,89.625 C119.578125,89.53125 119.40625,89.453125 119.3125,89.390625 C119.15625,89.359375 119.0625,89.359375 119.03125,89.390625 C118.96875,89.390625 118.953125,89.453125 118.984375,89.578125 C118.671875,91.453125 118.28125,92.84375 117.8125,93.75 C117.6875,93.9375 117.640625,94.046875 117.671875,94.078125 C117.703125,94.109375 117.796875,94.046875 117.953125,93.890625 C118.453125,93.390625 118.9375,92.78125 119.40625,92.0625 L119.40625,92.0625 L121.609375,92.0625 L121.609375,94.3125 L117.15625,94.3125 C117.03125,94.3125 116.90625,94.296875 116.78125,94.265625 L116.78125,94.265625 L117.015625,94.59375 Z M118.609375,100.3125 C118.703125,100.40625 119,100.40625 119.5,100.3125 C119.8125,100.21875 119.984375,100.09375 120.015625,99.9375 L120.015625,99.9375 L120.015625,99.328125 L124.75,99.328125 L124.75,100.078125 C124.75,100.203125 125,100.25 125.5,100.21875 C125.96875,100.125 126.21875,100 126.25,99.84375 L126.25,99.84375 L126.109375,96.703125 C126.328125,96.546875 126.453125,96.375 126.484375,96.1875 C126.109375,95.90625 125.671875,95.65625 125.171875,95.4375 C125.078125,95.46875 124.890625,95.671875 124.609375,96.046875 L124.609375,96.046875 L120.015625,96.046875 C119.265625,95.546875 118.796875,95.34375 118.609375,95.4375 L118.609375,95.4375 L118.609375,98.765625 C118.578125,99.140625 118.5625,99.4375 118.5625,99.65625 C118.53125,100 118.546875,100.21875 118.609375,100.3125 Z M124.75,99.09375 L120.015625,99.09375 L120.015625,96.328125 L124.75,96.328125 L124.75,99.09375 Z" id="××关于××的通告" fill="#333333" fill-rule="nonzero"></path>
            <g id="编组-12" transform="translate(13.000000, 159.000000)" fill="#CCCCCC">
                <rect id="矩形备份-9" x="0" y="18" width="124" height="1"></rect>
                <rect id="矩形备份-10" x="0" y="27" width="124" height="1"></rect>
                <rect id="矩形" x="0" y="9" width="124" height="1"></rect>
                <rect id="矩形备份-13" x="0" y="0" width="124" height="1"></rect>
            </g>
            <g id="编组-27" transform="translate(62.000000, 129.000000)" fill="#D8D8D8">
                <circle id="椭圆形" cx="1.5" cy="1.5" r="1.5"></circle>
                <circle id="椭圆形备份" cx="7.5" cy="1.5" r="1.5"></circle>
                <circle id="椭圆形备份-2" cx="13.5" cy="1.5" r="1.5"></circle>
                <circle id="椭圆形备份-5" cx="19.5" cy="1.5" r="1.5"></circle>
                <circle id="椭圆形备份-4" cx="25.5" cy="1.5" r="1.5"></circle>
                <circle id="椭圆形备份-3" cx="31.5" cy="1.5" r="1.5"></circle>
            </g>
            <g id="编组-18备份-3" transform="translate(118.000000, 170.000000)" fill="#DA4141" fill-rule="nonzero" opacity="0.800000012">
                <path d="M4.58235627,21.0658318 L4.58235627,20.4681756 L13.031575,20.4681756 L13.031575,21.0541131 L13.9339188,21.0541131 L13.9339188,10.1205193 L3.68001252,10.1205193 L3.68001252,21.0658318 L4.58235627,21.0658318 Z M13.031575,19.6361443 L4.58235627,19.6361443 L4.58235627,10.9525506 L13.031575,10.9525506 L13.031575,19.6361443 Z M12.4807938,18.3939568 L12.4807938,17.5970818 L9.22298127,17.5970818 L9.22298127,15.2767693 L12.0589188,15.2767693 L12.0589188,14.4798943 L9.22298127,14.4798943 L9.22298127,12.9095818 L12.2932938,12.9095818 L12.2932938,12.1127068 L5.30891877,12.1127068 L5.30891877,12.9095818 L8.35579377,12.9095818 L8.35579377,14.4798943 L5.53157502,14.4798943 L5.53157502,15.2767693 L8.35579377,15.2767693 L8.35579377,17.5970818 L5.12141877,17.5970818 L5.12141877,18.3939568 L12.4807938,18.3939568 Z M10.8987625,17.3158318 L11.5901688,16.7884881 C11.2854813,16.3978631 10.9182938,15.9798943 10.4886063,15.5345818 L10.4886063,15.5345818 L9.83235627,16.0267693 C10.1682938,16.3783318 10.5237625,16.8080193 10.8987625,17.3158318 L10.8987625,17.3158318 Z M17.625325,20.9838006 L17.625325,14.7963006 C18.0550125,15.2298943 18.4573563,15.6595818 18.8323563,16.0853631 L18.8323563,16.0853631 L19.45345,15.4408318 C19.0706375,15.0423943 18.6292313,14.6283318 18.1292313,14.1986443 L18.1292313,14.1986443 L17.625325,14.7259881 L17.625325,12.6517693 L19.219075,12.6517693 L19.219075,11.8548943 L17.625325,11.8548943 L17.625325,9.55801932 L16.8050125,9.55801932 L16.8050125,11.8548943 L15.0237625,11.8548943 L15.0237625,12.6517693 L16.7229813,12.6517693 C16.4026688,14.1127068 15.8089188,15.5111443 14.9417313,16.8470818 C15.0901688,17.1986443 15.219075,17.5423943 15.32845,17.8783318 C15.8987625,17.0619256 16.39095,15.9818474 16.8050125,14.6380974 L16.8050125,14.6380974 L16.8050125,20.9838006 L17.625325,20.9838006 Z M25.9807938,11.0697381 L25.9807938,10.2494256 L19.7464188,10.2494256 L19.7464188,11.0697381 L25.9807938,11.0697381 Z M20.3792313,20.8548943 C20.9964188,20.8705193 21.51595,20.8744256 21.937825,20.8666131 C22.8362625,20.8666131 23.2854813,20.3783318 23.2854813,19.4017693 L23.2854813,19.4017693 L23.2854813,14.5033318 L26.5198563,14.5033318 L26.5198563,13.6830193 L19.2073563,13.6830193 L19.2073563,14.5033318 L22.3948563,14.5033318 L22.3948563,19.1088006 C22.3948563,19.6869256 22.1604813,19.9759881 21.6917313,19.9759881 C21.2464188,19.9759881 20.7542313,19.9447381 20.2151688,19.8822381 C20.2854813,20.2494256 20.3401688,20.5736443 20.3792313,20.8548943 Z M25.8050125,19.7650506 L26.7425125,19.3548943 C26.250325,18.2845818 25.6331375,17.0384881 24.89095,15.6166131 L24.89095,15.6166131 L24.0589188,16.0150506 C24.7151688,17.3041131 25.2972,18.5541131 25.8050125,19.7650506 L25.8050125,19.7650506 Z M19.26595,19.7767693 C19.8987625,18.6673943 20.5354813,17.3978631 21.1761063,15.9681756 L21.1761063,15.9681756 L20.2972,15.6166131 C19.6643875,17.1088006 19.0354813,18.3588006 18.4104813,19.3666131 C18.7386063,19.4994256 19.0237625,19.6361443 19.26595,19.7767693 Z" id="国标" transform="translate(15.211263, 15.311926) rotate(20.000000) translate(-15.211263, -15.311926) "></path>
                <path d="M15,0 C23.2842712,0 30,6.71572875 30,15 C30,23.2842712 23.2842712,30 15,30 C6.71572875,30 0,23.2842712 0,15 C0,6.71572875 6.71572875,0 15,0 Z M15,1 C7.2680135,1 1,7.2680135 1,15 C1,22.7319865 7.2680135,29 15,29 C22.7319865,29 29,22.7319865 29,15 C29,7.2680135 22.7319865,1 15,1 Z" id="椭圆形"></path>
            </g>
        </g>
    </g>
</svg>