<?xml version="1.0" encoding="UTF-8"?>
<svg width="150px" height="202px" viewBox="0 0 150 202" version="1.1" xmlns="http://www.w3.org/2000/svg" xmlns:xlink="http://www.w3.org/1999/xlink">
    <!-- Generator: Sketch 60.1 (88133) - https://sketch.com -->
    <title>空白正文</title>
    <desc>Created with Sketch.</desc>
    <g id="页面-1" stroke="none" stroke-width="1" fill="none" fill-rule="evenodd">
        <g id="编组-2备份-2">
            <rect id="矩形" x="0" y="0" width="150" height="202" rx="4"></rect>
        </g>
        <rect id="矩形" stroke="none" fill="#FFFFFF" x="5.5" y="5.5" width="139" height="191" rx="4"></rect>
        <g id="编组-27" transform="translate(59.000000, 118.000000)" fill="#D8D8D8">
            <circle id="椭圆形" cx="1.5" cy="1.5" r="1.5"></circle>
            <circle id="椭圆形备份" cx="7.5" cy="1.5" r="1.5"></circle>
            <circle id="椭圆形备份-2" cx="13.5" cy="1.5" r="1.5"></circle>
            <circle id="椭圆形备份-5" cx="19.5" cy="1.5" r="1.5"></circle>
            <circle id="椭圆形备份-4" cx="25.5" cy="1.5" r="1.5"></circle>
            <circle id="椭圆形备份-3" cx="31.5" cy="1.5" r="1.5"></circle>
        </g>
        <g id="编组-18备份-3" transform="translate(118.000000, 170.000000)" fill="#DA4141" fill-rule="nonzero" opacity="0.800000012">
            <path d="M4.58235627,21.0658318 L4.58235627,20.4681756 L13.031575,20.4681756 L13.031575,21.0541131 L13.9339188,21.0541131 L13.9339188,10.1205193 L3.68001252,10.1205193 L3.68001252,21.0658318 L4.58235627,21.0658318 Z M13.031575,19.6361443 L4.58235627,19.6361443 L4.58235627,10.9525506 L13.031575,10.9525506 L13.031575,19.6361443 Z M12.4807938,18.3939568 L12.4807938,17.5970818 L9.22298127,17.5970818 L9.22298127,15.2767693 L12.0589188,15.2767693 L12.0589188,14.4798943 L9.22298127,14.4798943 L9.22298127,12.9095818 L12.2932938,12.9095818 L12.2932938,12.1127068 L5.30891877,12.1127068 L5.30891877,12.9095818 L8.35579377,12.9095818 L8.35579377,14.4798943 L5.53157502,14.4798943 L5.53157502,15.2767693 L8.35579377,15.2767693 L8.35579377,17.5970818 L5.12141877,17.5970818 L5.12141877,18.3939568 L12.4807938,18.3939568 Z M10.8987625,17.3158318 L11.5901688,16.7884881 C11.2854813,16.3978631 10.9182938,15.9798943 10.4886063,15.5345818 L10.4886063,15.5345818 L9.83235627,16.0267693 C10.1682938,16.3783318 10.5237625,16.8080193 10.8987625,17.3158318 L10.8987625,17.3158318 Z M17.625325,20.9838006 L17.625325,14.7963006 C18.0550125,15.2298943 18.4573563,15.6595818 18.8323563,16.0853631 L18.8323563,16.0853631 L19.45345,15.4408318 C19.0706375,15.0423943 18.6292313,14.6283318 18.1292313,14.1986443 L18.1292313,14.1986443 L17.625325,14.7259881 L17.625325,12.6517693 L19.219075,12.6517693 L19.219075,11.8548943 L17.625325,11.8548943 L17.625325,9.55801932 L16.8050125,9.55801932 L16.8050125,11.8548943 L15.0237625,11.8548943 L15.0237625,12.6517693 L16.7229813,12.6517693 C16.4026688,14.1127068 15.8089188,15.5111443 14.9417313,16.8470818 C15.0901688,17.1986443 15.219075,17.5423943 15.32845,17.8783318 C15.8987625,17.0619256 16.39095,15.9818474 16.8050125,14.6380974 L16.8050125,14.6380974 L16.8050125,20.9838006 L17.625325,20.9838006 Z M25.9807938,11.0697381 L25.9807938,10.2494256 L19.7464188,10.2494256 L19.7464188,11.0697381 L25.9807938,11.0697381 Z M20.3792313,20.8548943 C20.9964188,20.8705193 21.51595,20.8744256 21.937825,20.8666131 C22.8362625,20.8666131 23.2854813,20.3783318 23.2854813,19.4017693 L23.2854813,19.4017693 L23.2854813,14.5033318 L26.5198563,14.5033318 L26.5198563,13.6830193 L19.2073563,13.6830193 L19.2073563,14.5033318 L22.3948563,14.5033318 L22.3948563,19.1088006 C22.3948563,19.6869256 22.1604813,19.9759881 21.6917313,19.9759881 C21.2464188,19.9759881 20.7542313,19.9447381 20.2151688,19.8822381 C20.2854813,20.2494256 20.3401688,20.5736443 20.3792313,20.8548943 Z M25.8050125,19.7650506 L26.7425125,19.3548943 C26.250325,18.2845818 25.6331375,17.0384881 24.89095,15.6166131 L24.89095,15.6166131 L24.0589188,16.0150506 C24.7151688,17.3041131 25.2972,18.5541131 25.8050125,19.7650506 L25.8050125,19.7650506 Z M19.26595,19.7767693 C19.8987625,18.6673943 20.5354813,17.3978631 21.1761063,15.9681756 L21.1761063,15.9681756 L20.2972,15.6166131 C19.6643875,17.1088006 19.0354813,18.3588006 18.4104813,19.3666131 C18.7386063,19.4994256 19.0237625,19.6361443 19.26595,19.7767693 Z" id="国标" transform="translate(15.211263, 15.311926) rotate(20.000000) translate(-15.211263, -15.311926) "></path>
            <path d="M15,0 C23.2842712,0 30,6.71572875 30,15 C30,23.2842712 23.2842712,30 15,30 C6.71572875,30 0,23.2842712 0,15 C0,6.71572875 6.71572875,0 15,0 Z M15,1 C7.2680135,1 1,7.2680135 1,15 C1,22.7319865 7.2680135,29 15,29 C22.7319865,29 29,22.7319865 29,15 C29,7.2680135 22.7319865,1 15,1 Z" id="椭圆形"></path>
        </g>
        <path d="M30.75,45.5 L31.25,45 L27.5,41.25 L31.25,37.5 L30.75,37 L27,40.75 L23.25,37 L22.6875,37.5 L26.5,41.25 L22.6875,45 L23.25,45.5 L27,41.75 L30.75,45.5 Z M46.75,45.5 L47.25,45 L43.5,41.25 L47.25,37.5 L46.75,37 L43,40.75 L39.25,37 L38.6875,37.5 L42.5,41.25 L38.6875,45 L39.25,45.5 L43,41.75 L46.75,45.5 Z M62.75,45.5 L63.25,45 L59.5,41.25 L63.25,37.5 L62.75,37 L59,40.75 L55.25,37 L54.6875,37.5 L58.5,41.25 L54.6875,45 L55.25,45.5 L59,41.75 L62.75,45.5 Z M78.75,45.5 L79.25,45 L75.5,41.25 L79.25,37.5 L78.75,37 L75,40.75 L71.25,37 L70.6875,37.5 L74.5,41.25 L70.6875,45 L71.25,45.5 L75,41.75 L78.75,45.5 Z M94.75,45.5 L95.25,45 L91.5,41.25 L95.25,37.5 L94.75,37 L91,40.75 L87.25,37 L86.6875,37.5 L90.5,41.25 L86.6875,45 L87.25,45.5 L91,41.75 L94.75,45.5 Z M110.75,45.5 L111.25,45 L107.5,41.25 L111.25,37.5 L110.75,37 L107,40.75 L103.25,37 L102.6875,37.5 L106.5,41.25 L102.6875,45 L103.25,45.5 L107,41.75 L110.75,45.5 Z M126.75,45.5 L127.25,45 L123.5,41.25 L127.25,37.5 L126.75,37 L123,40.75 L119.25,37 L118.6875,37.5 L122.5,41.25 L118.6875,45 L119.25,45.5 L123,41.75 L126.75,45.5 Z M30.75,63.5 L31.25,63 L27.5,59.25 L31.25,55.5 L30.75,55 L27,58.75 L23.25,55 L22.6875,55.5 L26.5,59.25 L22.6875,63 L23.25,63.5 L27,59.75 L30.75,63.5 Z M46.75,63.5 L47.25,63 L43.5,59.25 L47.25,55.5 L46.75,55 L43,58.75 L39.25,55 L38.6875,55.5 L42.5,59.25 L38.6875,63 L39.25,63.5 L43,59.75 L46.75,63.5 Z M62.75,63.5 L63.25,63 L59.5,59.25 L63.25,55.5 L62.75,55 L59,58.75 L55.25,55 L54.6875,55.5 L58.5,59.25 L54.6875,63 L55.25,63.5 L59,59.75 L62.75,63.5 Z M78.75,63.5 L79.25,63 L75.5,59.25 L79.25,55.5 L78.75,55 L75,58.75 L71.25,55 L70.6875,55.5 L74.5,59.25 L70.6875,63 L71.25,63.5 L75,59.75 L78.75,63.5 Z M94.75,63.5 L95.25,63 L91.5,59.25 L95.25,55.5 L94.75,55 L91,58.75 L87.25,55 L86.6875,55.5 L90.5,59.25 L86.6875,63 L87.25,63.5 L91,59.75 L94.75,63.5 Z M110.75,63.5 L111.25,63 L107.5,59.25 L111.25,55.5 L110.75,55 L107,58.75 L103.25,55 L102.6875,55.5 L106.5,59.25 L102.6875,63 L103.25,63.5 L107,59.75 L110.75,63.5 Z M126.75,63.5 L127.25,63 L123.5,59.25 L127.25,55.5 L126.75,55 L123,58.75 L119.25,55 L118.6875,55.5 L122.5,59.25 L118.6875,63 L119.25,63.5 L123,59.75 L126.75,63.5 Z M30.75,81.5 L31.25,81 L27.5,77.25 L31.25,73.5 L30.75,73 L27,76.75 L23.25,73 L22.6875,73.5 L26.5,77.25 L22.6875,81 L23.25,81.5 L27,77.75 L30.75,81.5 Z M46.75,81.5 L47.25,81 L43.5,77.25 L47.25,73.5 L46.75,73 L43,76.75 L39.25,73 L38.6875,73.5 L42.5,77.25 L38.6875,81 L39.25,81.5 L43,77.75 L46.75,81.5 Z M62.75,81.5 L63.25,81 L59.5,77.25 L63.25,73.5 L62.75,73 L59,76.75 L55.25,73 L54.6875,73.5 L58.5,77.25 L54.6875,81 L55.25,81.5 L59,77.75 L62.75,81.5 Z M78.75,81.5 L79.25,81 L75.5,77.25 L79.25,73.5 L78.75,73 L75,76.75 L71.25,73 L70.6875,73.5 L74.5,77.25 L70.6875,81 L71.25,81.5 L75,77.75 L78.75,81.5 Z" id="××××××××××××××××××" fill="#444444" fill-rule="nonzero"></path>
        <path d="M30.75,165.5 L31.25,165 L27.5,161.25 L31.25,157.5 L30.75,157 L27,160.75 L23.25,157 L22.6875,157.5 L26.5,161.25 L22.6875,165 L23.25,165.5 L27,161.75 L30.75,165.5 Z M46.75,165.5 L47.25,165 L43.5,161.25 L47.25,157.5 L46.75,157 L43,160.75 L39.25,157 L38.6875,157.5 L42.5,161.25 L38.6875,165 L39.25,165.5 L43,161.75 L46.75,165.5 Z M62.75,165.5 L63.25,165 L59.5,161.25 L63.25,157.5 L62.75,157 L59,160.75 L55.25,157 L54.6875,157.5 L58.5,161.25 L54.6875,165 L55.25,165.5 L59,161.75 L62.75,165.5 Z M78.75,165.5 L79.25,165 L75.5,161.25 L79.25,157.5 L78.75,157 L75,160.75 L71.25,157 L70.6875,157.5 L74.5,161.25 L70.6875,165 L71.25,165.5 L75,161.75 L78.75,165.5 Z M94.75,165.5 L95.25,165 L91.5,161.25 L95.25,157.5 L94.75,157 L91,160.75 L87.25,157 L86.6875,157.5 L90.5,161.25 L86.6875,165 L87.25,165.5 L91,161.75 L94.75,165.5 Z M110.75,165.5 L111.25,165 L107.5,161.25 L111.25,157.5 L110.75,157 L107,160.75 L103.25,157 L102.6875,157.5 L106.5,161.25 L102.6875,165 L103.25,165.5 L107,161.75 L110.75,165.5 Z M126.75,165.5 L127.25,165 L123.5,161.25 L127.25,157.5 L126.75,157 L123,160.75 L119.25,157 L118.6875,157.5 L122.5,161.25 L118.6875,165 L119.25,165.5 L123,161.75 L126.75,165.5 Z M30.75,183.5 L31.25,183 L27.5,179.25 L31.25,175.5 L30.75,175 L27,178.75 L23.25,175 L22.6875,175.5 L26.5,179.25 L22.6875,183 L23.25,183.5 L27,179.75 L30.75,183.5 Z M46.75,183.5 L47.25,183 L43.5,179.25 L47.25,175.5 L46.75,175 L43,178.75 L39.25,175 L38.6875,175.5 L42.5,179.25 L38.6875,183 L39.25,183.5 L43,179.75 L46.75,183.5 Z M62.75,183.5 L63.25,183 L59.5,179.25 L63.25,175.5 L62.75,175 L59,178.75 L55.25,175 L54.6875,175.5 L58.5,179.25 L54.6875,183 L55.25,183.5 L59,179.75 L62.75,183.5 Z M78.75,183.5 L79.25,183 L75.5,179.25 L79.25,175.5 L78.75,175 L75,178.75 L71.25,175 L70.6875,175.5 L74.5,179.25 L70.6875,183 L71.25,183.5 L75,179.75 L78.75,183.5 Z" id="×××××××××××" fill="#444444" fill-rule="nonzero"></path>
    </g>
</svg>