<?xml version="1.0" encoding="UTF-8"?>
<svg width="150px" height="202px" viewBox="0 0 150 202" version="1.1" xmlns="http://www.w3.org/2000/svg" xmlns:xlink="http://www.w3.org/1999/xlink">
    <!-- Generator: Sketch 60.1 (88133) - https://sketch.com -->
    <title>上行文多机关-请示</title>
    <desc>Created with Sketch.</desc>
    <g id="页面-1" stroke="none" stroke-width="1" fill="none" fill-rule="evenodd">
        <g id="编组备份-6">
            <rect id="矩形备份-14" x="0" y="0" width="150" height="202" rx="4"></rect>
            <rect id="矩形" stroke="none" fill="#FFFFFF" x="5.5" y="5.5" width="139" height="191" rx="4"></rect>
            <path d="M19.21875,83.625 L19.5,83.34375 L17.25,81.125 L19.4375,78.875 L19.15625,78.625 L17,80.875 L14.75,78.625 L14.5,78.875 L16.75,81.125 L14.5,83.375 L14.75,83.625 L17,81.375 L19.21875,83.625 Z M27.21875,83.625 L27.5,83.34375 L25.25,81.125 L27.4375,78.875 L27.15625,78.625 L25,80.875 L22.75,78.625 L22.5,78.875 L24.75,81.125 L22.5,83.375 L22.75,83.625 L25,81.375 L27.21875,83.625 Z M35.375,84.375 L35.625,84.21875 L34.53125,83.09375 L34.53125,79.15625 L35.65625,78 L35.4375,77.8125 L34.21875,79.09375 L34.21875,83.15625 L35.375,84.375 Z M40.28125,84 L40.46875,82.65625 L40.28125,82.65625 C40.2395833,82.9479167 40.15625,83.1666667 40.03125,83.3125 C39.90625,83.4583333 39.75,83.53125 39.5625,83.53125 L39.5625,83.53125 L37.71875,83.53125 C37.78125,83.40625 37.9739583,83.1614583 38.296875,82.796875 C38.6197917,82.4322917 39.0833333,81.9583333 39.6875,81.375 C39.9375,81.1458333 40.1197917,80.90625 40.234375,80.65625 C40.3489583,80.40625 40.40625,80.15625 40.40625,79.90625 C40.40625,79.53125 40.2864583,79.21875 40.046875,78.96875 C39.8072917,78.71875 39.4375,78.59375 38.9375,78.59375 C38.5833333,78.59375 38.25,78.7083333 37.9375,78.9375 C37.625,79.1666667 37.46875,79.5 37.46875,79.9375 C37.46875,80.1041667 37.5052083,80.2239583 37.578125,80.296875 C37.6510417,80.3697917 37.75,80.40625 37.875,80.40625 C37.9791667,80.40625 38.0572917,80.3802083 38.109375,80.328125 C38.1614583,80.2760417 38.1875,80.1979167 38.1875,80.09375 C38.1875,80.0104167 38.1510417,79.9270833 38.078125,79.84375 C38.0052083,79.7604167 37.96875,79.65625 37.96875,79.53125 C37.96875,79.3229167 38.0572917,79.1510417 38.234375,79.015625 C38.4114583,78.8802083 38.625,78.8125 38.875,78.8125 C39.2083333,78.8125 39.4583333,78.9114583 39.625,79.109375 C39.7916667,79.3072917 39.875,79.59375 39.875,79.96875 C39.875,80.2395833 39.7916667,80.53125 39.625,80.84375 C39.4583333,81.15625 39.1979167,81.4895833 38.84375,81.84375 C38.4479167,82.2395833 38.1302083,82.5833333 37.890625,82.875 C37.6510417,83.1666667 37.4791667,83.40625 37.375,83.59375 L37.375,83.59375 L37.375,84 L40.28125,84 Z M42.96875,84.0625 C43.4270833,84.0625 43.8072917,83.8177083 44.109375,83.328125 C44.4114583,82.8385417 44.5625,82.1666667 44.5625,81.3125 C44.5625,80.4583333 44.4114583,79.7916667 44.109375,79.3125 C43.8072917,78.8333333 43.4270833,78.59375 42.96875,78.59375 C42.4895833,78.59375 42.0989583,78.84375 41.796875,79.34375 C41.4947917,79.84375 41.34375,80.5 41.34375,81.3125 C41.34375,82.1875 41.5,82.8645833 41.8125,83.34375 C42.125,83.8229167 42.5104167,84.0625 42.96875,84.0625 Z M42.96875,83.8125 C42.6770833,83.8125 42.4322917,83.59375 42.234375,83.15625 C42.0364583,82.71875 41.9375,82.1041667 41.9375,81.3125 C41.9375,80.5625 42.0364583,79.9635417 42.234375,79.515625 C42.4322917,79.0677083 42.6770833,78.84375 42.96875,78.84375 C43.3020833,78.84375 43.5520833,79.0677083 43.71875,79.515625 C43.8854167,79.9635417 43.96875,80.5625 43.96875,81.3125 C43.96875,82.1041667 43.8802083,82.71875 43.703125,83.15625 C43.5260417,83.59375 43.28125,83.8125 42.96875,83.8125 Z M51.21875,83.625 L51.5,83.34375 L49.25,81.125 L51.4375,78.875 L51.15625,78.625 L49,80.875 L46.75,78.625 L46.5,78.875 L48.75,81.125 L46.5,83.375 L46.75,83.625 L49,81.375 L51.21875,83.625 Z M59.21875,83.625 L59.5,83.34375 L57.25,81.125 L59.4375,78.875 L59.15625,78.625 L57,80.875 L54.75,78.625 L54.5,78.875 L56.75,81.125 L54.5,83.375 L54.75,83.625 L57,81.375 L59.21875,83.625 Z M62.5,84.34375 L63.6875,83.0625 L63.6875,79 L62.53125,77.8125 L62.3125,78 L63.375,79.09375 L63.375,82.96875 L62.28125,84.15625 L62.5,84.34375 Z M75.21875,83.625 L75.5,83.34375 L73.25,81.125 L75.4375,78.875 L75.15625,78.625 L73,80.875 L70.75,78.625 L70.5,78.875 L72.75,81.125 L70.5,83.375 L70.75,83.625 L73,81.375 L75.21875,83.625 Z M79.65625,80.09375 C79.7604167,80.1979167 79.8020833,80.1458333 79.78125,79.9375 L79.78125,79.9375 L82.71875,79.71875 L82.46875,79.4375 L82.65625,78.25 L82.90625,78.03125 L82.5,77.71875 L82.3125,78 L79.6875,78.21875 L79.40625,77.75 L79.34375,77.78125 C79.4270833,78.0729167 79.46875,78.3333333 79.46875,78.5625 C79.46875,78.7916667 79.4739583,79.03125 79.484375,79.28125 C79.4947917,79.53125 79.4479167,79.6666667 79.34375,79.6875 L79.34375,79.6875 L79.65625,80.09375 Z M79.78125,79.65625 L79.75,78.46875 L82.34375,78.25 L82.1875,79.46875 L79.78125,79.65625 Z M81.1875,84.8125 C81.5208333,84.4375 82.0104167,83.4791667 82.65625,81.9375 L82.65625,81.9375 L82.9375,81.71875 L82.5625,81.34375 L82.34375,81.625 L79.9375,81.84375 L80.28125,80.96875 C82.5104167,80.8020833 83.8645833,80.71875 84.34375,80.71875 L84.34375,80.71875 L83.84375,80.34375 C83.71875,80.40625 82.7708333,80.5104167 81,80.65625 C79.2291667,80.8020833 78.1354167,80.8645833 77.71875,80.84375 L77.71875,80.84375 L78.15625,81.1875 C78.2395833,81.1458333 78.8229167,81.0833333 79.90625,81 L79.90625,81 L79.59375,81.875 L79.375,81.9375 L79.625,82.34375 L79.90625,82.15625 L82.3125,81.9375 C81.7916667,83.1875 81.4270833,83.9583333 81.21875,84.25 L81.21875,84.25 L80.125,83.3125 L80.0625,83.375 C80.5625,83.9583333 80.9375,84.4375 81.1875,84.8125 Z" id="××〔20××〕×号" fill="#333333" fill-rule="nonzero"></path>
            <g id="编组-3" transform="translate(92.000000, 75.000000)" fill="#333333" fill-rule="nonzero">
                <path d="M0.8125,7.96875 C1.9375,7.28125 2.95833333,6.32291667 3.875,5.09375 C5.35416667,6.46875 6.17708333,7.26041667 6.34375,7.46875 C6.55208333,7.40625 6.92708333,7.36458333 7.46875,7.34375 L7.46875,7.34375 L7.4375,7.1875 C6.875,7.10416667 6.52604167,7.02083333 6.390625,6.9375 C6.25520833,6.85416667 6.02083333,6.68229167 5.6875,6.421875 C5.35416667,6.16145833 4.79166667,5.67708333 4,4.96875 L4,4.96875 L4.0625,4.90625 C4.3125,4.69791667 4.53125,4.4375 4.71875,4.125 L4.71875,4.125 L5.15625,4.09375 C5.40625,4.59375 5.58333333,4.97916667 5.6875,5.25 C5.8125,5.08333333 5.90625,4.90625 5.96875,4.71875 L5.96875,4.71875 L5.3125,4.0625 C6.1875,3.9375 6.76041667,3.86458333 7.03125,3.84375 L7.03125,3.84375 L6.6875,3.5625 C6.45833333,3.625 5.83333333,3.71875 4.8125,3.84375 C4.89583333,3.61458333 4.97395833,3.41666667 5.046875,3.25 C5.11979167,3.08333333 5.19791667,2.97916667 5.28125,2.9375 L5.28125,2.9375 L4.84375,2.40625 L4.75,2.46875 C4.79166667,2.63541667 4.765625,2.94791667 4.671875,3.40625 C4.578125,3.86458333 4.375,4.3125 4.0625,4.75 L4.0625,4.75 L3.875,4.34375 L3.78125,4.375 C3.82291667,4.60416667 3.55208333,5.07291667 2.96875,5.78125 C2.38541667,6.48958333 1.63541667,7.1875 0.71875,7.875 L0.71875,7.875 L0.8125,7.96875 Z M1.125,5.6875 C1.625,5.14583333 1.98958333,4.66666667 2.21875,4.25 L2.21875,4.25 L2.59375,4.21875 C2.73958333,4.59375 2.84375,4.95833333 2.90625,5.3125 C3.05208333,5.14583333 3.15625,4.97916667 3.21875,4.8125 C3.13541667,4.625 2.98958333,4.41666667 2.78125,4.1875 C3.44791667,4.10416667 3.95833333,4.04166667 4.3125,4 L4.3125,4 L4,3.71875 C3.83333333,3.78125 3.29166667,3.86458333 2.375,3.96875 C2.47916667,3.76041667 2.5625,3.58333333 2.625,3.4375 C2.6875,3.29166667 2.77083333,3.16666667 2.875,3.0625 L2.875,3.0625 L2.5625,2.46875 L2.46875,2.5 C2.46875,2.83333333 2.33854167,3.296875 2.078125,3.890625 C1.81770833,4.484375 1.46875,5.05208333 1.03125,5.59375 L1.03125,5.59375 L1.125,5.6875 Z M2.90625,6.96875 C3.09375,6.92708333 3.44791667,6.875 3.96875,6.8125 C4.48958333,6.75 4.88541667,6.70833333 5.15625,6.6875 L5.15625,6.6875 L4.75,6.40625 C4.5625,6.46875 4.24479167,6.53125 3.796875,6.59375 C3.34895833,6.65625 2.95833333,6.69791667 2.625,6.71875 L2.625,6.71875 L2.90625,6.96875 Z M1.75,9.625 C1.95833333,9.60416667 2.69791667,9.53645833 3.96875,9.421875 C5.23958333,9.30729167 6.125,9.23958333 6.625,9.21875 L6.625,9.21875 L6.15625,8.90625 C6.05208333,8.94791667 5.54166667,9.02083333 4.625,9.125 C4.79166667,8.70833333 4.93229167,8.36458333 5.046875,8.09375 C5.16145833,7.82291667 5.28125,7.64583333 5.40625,7.5625 L5.40625,7.5625 L5.0625,6.9375 L4.9375,6.96875 C4.9375,7.21875 4.89583333,7.53125 4.8125,7.90625 C4.72916667,8.28125 4.60416667,8.6875 4.4375,9.125 C2.79166667,9.27083333 1.75,9.34375 1.3125,9.34375 L1.3125,9.34375 L1.75,9.625 Z M3.8125,8.71875 C3.97916667,8.57291667 4.09375,8.42708333 4.15625,8.28125 C4.09375,8.05208333 3.9375,7.6875 3.6875,7.1875 L3.6875,7.1875 L3.53125,7.25 C3.69791667,7.85416667 3.79166667,8.34375 3.8125,8.71875 Z M2.84375,8.875 C2.98958333,8.6875 3.09375,8.51041667 3.15625,8.34375 C3.01041667,8.13541667 2.78125,7.78125 2.46875,7.28125 L2.46875,7.28125 L2.34375,7.34375 C2.61458333,8.05208333 2.78125,8.5625 2.84375,8.875 Z M9.65625,9.8125 C10.71875,9.47916667 11.65625,8.90625 12.46875,8.09375 C12.6979167,8.28125 13.0104167,8.58333333 13.40625,9 C13.7604167,9.375 13.9270833,9.58333333 13.90625,9.625 C14.3854167,9.54166667 14.875,9.48958333 15.375,9.46875 L15.375,9.46875 L15.375,9.3125 C14.8541667,9.3125 14.4635417,9.27604167 14.203125,9.203125 C13.9427083,9.13020833 13.4166667,8.6875 12.625,7.875 C13.0208333,7.375 13.375,6.75 13.6875,6 L13.6875,6 L13.9375,5.875 L13.5625,5.5 L13.375,5.78125 C12.3541667,5.92708333 11.6875,6 11.375,6 C11.5208333,5.72916667 11.6354167,5.45833333 11.71875,5.1875 C13.5520833,5 14.6770833,4.89583333 15.09375,4.875 L15.09375,4.875 L14.6875,4.53125 C14.625,4.59375 13.6666667,4.70833333 11.8125,4.875 C12,4.25 12.1302083,3.78125 12.203125,3.46875 C12.2760417,3.15625 12.3645833,2.98958333 12.46875,2.96875 L12.46875,2.96875 L11.9375,2.4375 L11.875,2.5 C11.9791667,2.66666667 11.9947917,2.953125 11.921875,3.359375 C11.8489583,3.765625 11.71875,4.28125 11.53125,4.90625 L11.53125,4.90625 L10.125,5.03125 C10.25,4.57291667 10.34375,4.23958333 10.40625,4.03125 C10.46875,3.82291667 10.5416667,3.70833333 10.625,3.6875 L10.625,3.6875 L10.21875,3.28125 L10.09375,3.34375 C10.1770833,3.46875 10.1927083,3.65625 10.140625,3.90625 C10.0885417,4.15625 9.97916667,4.53125 9.8125,5.03125 L9.8125,5.03125 L9.59375,5.0625 L9.84375,5.5 L10.03125,5.34375 L11.40625,5.1875 C11.1145833,6 10.7395833,6.71354167 10.28125,7.328125 C9.82291667,7.94270833 9.3125,8.48958333 8.75,8.96875 L8.75,8.96875 L8.8125,9.09375 C9.79166667,8.34375 10.53125,7.55208333 11.03125,6.71875 C11.1770833,6.71875 11.3385417,6.80729167 11.515625,6.984375 C11.6927083,7.16145833 11.9479167,7.45833333 12.28125,7.875 C11.6145833,8.64583333 10.71875,9.26041667 9.59375,9.71875 L9.59375,9.71875 L9.65625,9.8125 Z M14.0625,4.21875 C14.125,4.05208333 14.1770833,3.88541667 14.21875,3.71875 C13.84375,3.44791667 13.4479167,3.16666667 13.03125,2.875 L13.03125,2.875 L12.96875,2.96875 C13.4270833,3.42708333 13.7916667,3.84375 14.0625,4.21875 Z M12.46875,7.6875 C12.21875,7.47916667 12.0052083,7.24479167 11.828125,6.984375 C11.6510417,6.72395833 11.5833333,6.58333333 11.625,6.5625 L11.625,6.5625 L11.09375,6.5625 L11.3125,6.15625 L11.6875,6.34375 C11.8333333,6.26041667 12.375,6.16666667 13.3125,6.0625 C13.1041667,6.60416667 12.8229167,7.14583333 12.46875,7.6875 Z M16.75,9.6875 C18.125,8.75 19.125,7.28125 19.75,5.28125 C21.1875,7.73958333 21.9791667,9.11458333 22.125,9.40625 C22.4583333,9.32291667 22.9166667,9.28125 23.5,9.28125 L23.5,9.28125 L23.5,9.125 C22.7916667,9.04166667 22.3541667,8.90625 22.1875,8.71875 C22.0208333,8.53125 21.7395833,8.125 21.34375,7.5 C20.9479167,6.875 20.4375,6.03125 19.8125,4.96875 C19.9166667,4.42708333 19.9947917,4.03125 20.046875,3.78125 C20.0989583,3.53125 20.1770833,3.38541667 20.28125,3.34375 L20.28125,3.34375 L19.8125,2.65625 L19.71875,2.78125 C19.8229167,2.94791667 19.7604167,3.578125 19.53125,4.671875 C19.3020833,5.765625 18.9322917,6.72916667 18.421875,7.5625 C17.9114583,8.39583333 17.3229167,9.05208333 16.65625,9.53125 L16.65625,9.53125 L16.75,9.6875 Z M25.65625,7.125 C25.8229167,7.125 25.9583333,7.07291667 26.0625,6.96875 C26.1666667,6.86458333 26.21875,6.73958333 26.21875,6.59375 C26.21875,6.42708333 26.1666667,6.29166667 26.0625,6.1875 C25.9583333,6.08333333 25.8229167,6.03125 25.65625,6.03125 C25.5104167,6.03125 25.3854167,6.08333333 25.28125,6.1875 C25.1770833,6.29166667 25.125,6.42708333 25.125,6.59375 C25.125,6.73958333 25.1770833,6.86458333 25.28125,6.96875 C25.3854167,7.07291667 25.5104167,7.125 25.65625,7.125 Z M25.65625,9.15625 C25.8229167,9.15625 25.9583333,9.10416667 26.0625,9 C26.1666667,8.89583333 26.21875,8.77083333 26.21875,8.625 C26.21875,8.45833333 26.1666667,8.32291667 26.0625,8.21875 C25.9583333,8.11458333 25.8229167,8.0625 25.65625,8.0625 C25.5104167,8.0625 25.3854167,8.11458333 25.28125,8.21875 C25.1770833,8.32291667 25.125,8.45833333 25.125,8.625 C25.125,8.77083333 25.1770833,8.89583333 25.28125,9 C25.3854167,9.10416667 25.5104167,9.15625 25.65625,9.15625 Z" id="签发人："></path>
                <path d="M32.32,6.552 C32.4266667,6.552 32.472,6.47733333 32.456,6.328 C32.7546667,6.33866667 32.9906667,6.328 33.164,6.296 C33.3373333,6.264 33.452,6.248 33.508,6.248 C33.564,6.248 33.6093333,6.29066667 33.644,6.376 L33.67275,6.432 C33.70425,6.48 33.744,6.504 33.792,6.504 C33.84,6.504 33.8866667,6.47333333 33.932,6.412 C33.9773333,6.35066667 34.012,6.26133333 34.036,6.144 C34.06,6.02666667 34.076,5.90133333 34.084,5.768 C34.092,5.63466667 34.1173333,5.208 34.16,4.488 C34.6666667,4.44 34.9746667,4.416 35.084,4.416 C35.1933333,4.416 35.2893333,4.41466667 35.372,4.412 C35.4546667,4.40933333 35.5186667,4.39466667 35.564,4.368 C35.6093333,4.34133333 35.632,4.3 35.632,4.244 C35.632,4.188 35.5786667,4.12533333 35.472,4.056 C35.3653333,3.98666667 35.2133333,3.952 35.016,3.952 C34.9573333,3.952 34.8973333,3.956 34.836,3.964 C34.7746667,3.972 34.56,4.016 34.192,4.096 C34.224,3.82933333 34.2546667,3.652 34.284,3.564 C34.3133333,3.476 34.328,3.4 34.328,3.336 C34.328,3.272 34.3053333,3.22 34.26,3.18 C34.2146667,3.14 34.1106667,3.09333333 33.948,3.04 C33.7853333,2.98666667 33.6666667,2.96 33.592,2.96 C33.5173333,2.96 33.48,2.98666667 33.48,3.04 C33.48,3.09333333 33.5146667,3.18266667 33.584,3.308 C33.6533333,3.43333333 33.696,3.728 33.712,4.192 L33.712,4.192 L32.424,4.424 C32.4346667,4.22133333 32.444,4.088 32.452,4.024 C32.46,3.96 32.464,3.90533333 32.464,3.86 C32.464,3.81466667 32.448,3.772 32.416,3.732 C32.384,3.692 32.2866667,3.64533333 32.124,3.592 C31.9613333,3.53866667 31.8586667,3.512 31.816,3.512 C31.7306667,3.512 31.688,3.54933333 31.688,3.624 C31.688,3.66133333 31.72,3.72266667 31.784,3.808 C31.848,3.89333333 31.9013333,3.98666667 31.944,4.088 C31.9866667,4.18933333 32.016,4.32 32.032,4.48 C31.5146667,4.55466667 31.1773333,4.592 31.02,4.592 C30.8626667,4.592 30.784,4.61866667 30.784,4.672 C30.784,4.704 30.8226667,4.74933333 30.9,4.808 C30.9773333,4.86666667 31.0893333,4.896 31.236,4.896 C31.3826667,4.896 31.656,4.85333333 32.056,4.768 C32.088,5.22133333 32.104,5.67466667 32.104,6.128 C32.104,6.208 32.132,6.29866667 32.188,6.4 C32.244,6.50133333 32.288,6.552 32.32,6.552 Z M32.448,6.16 C32.4373333,6.01066667 32.4266667,5.784 32.416,5.48 C32.5386667,5.512 32.6773333,5.528 32.832,5.528 C32.9866667,5.528 33.1226667,5.508 33.24,5.468 C33.3573333,5.428 33.416,5.38266667 33.416,5.332 C33.416,5.28133333 33.3946667,5.24 33.352,5.208 C33.3093333,5.176 33.224,5.16 33.096,5.16 C32.968,5.16 32.7413333,5.22133333 32.416,5.344 L32.416,5.344 L32.416,4.696 C32.6026667,4.664 33.0346667,4.61066667 33.712,4.536 C33.712,4.81866667 33.7026667,5.11733333 33.684,5.432 C33.6653333,5.74666667 33.6466667,5.924 33.628,5.964 C33.6093333,6.004 33.5626667,6.024 33.488,6.024 L33.488,6.024 L33.368,6.016 C33.2613333,6.016 32.9546667,6.064 32.448,6.16 Z M33.056,10.176 C33.2,10.176 33.272,9.95733333 33.272,9.52 C33.272,9.424 33.2626667,9.26266667 33.244,9.036 C33.2253333,8.80933333 33.216,8.32 33.216,7.568 C33.6426667,8.07466667 34.0146667,8.49066667 34.332,8.816 C34.6493333,9.14133333 34.852,9.33066667 34.94,9.384 C35.028,9.43733333 35.176,9.464 35.384,9.464 C35.592,9.464 35.848,9.44533333 36.152,9.408 C36.456,9.37066667 36.6306667,9.34266667 36.676,9.324 C36.7213333,9.30533333 36.744,9.28533333 36.744,9.264 C36.744,9.21066667 36.6693333,9.168 36.52,9.136 C35.8426667,8.992 35.2706667,8.78266667 34.804,8.508 C34.3373333,8.23333333 33.8053333,7.82666667 33.208,7.288 C33.8106667,7.21866667 34.3973333,7.184 34.968,7.184 C35.1973333,7.184 35.3653333,7.18933333 35.472,7.2 C35.5786667,7.21066667 35.656,7.216 35.704,7.216 C35.9653333,7.216 36.096,7.15466667 36.096,7.032 C36.096,6.96266667 36.036,6.88533333 35.916,6.8 C35.796,6.71466667 35.6493333,6.672 35.476,6.672 C35.3026667,6.672 35.1213333,6.69466667 34.932,6.74 C34.7426667,6.78533333 34.1733333,6.88266667 33.224,7.032 C33.224,6.94133333 33.2293333,6.87066667 33.24,6.82 C33.2506667,6.76933333 33.256,6.73066667 33.256,6.704 C33.256,6.624 33.1933333,6.56133333 33.068,6.516 C32.9426667,6.47066667 32.856,6.448 32.808,6.448 C32.7226667,6.448 32.68,6.47466667 32.68,6.528 C32.68,6.58133333 32.6986667,6.63733333 32.736,6.696 C32.8053333,6.79733333 32.848,6.92533333 32.864,7.08 C31.7173333,7.24 31.0133333,7.32 30.752,7.32 C30.4906667,7.32 30.36,7.34933333 30.36,7.408 C30.36,7.45066667 30.4213333,7.50666667 30.544,7.576 C30.6666667,7.64533333 30.7893333,7.68 30.912,7.68 C31.0346667,7.68 31.2066667,7.64266667 31.428,7.568 C31.6493333,7.49333333 32.056,7.41866667 32.648,7.344 C32.4293333,7.69066667 32.12,8.032 31.72,8.368 C31.32,8.704 30.8826667,8.99733333 30.408,9.248 C30.3066667,9.30133333 30.256,9.34533333 30.256,9.38 C30.256,9.41466667 30.2853333,9.432 30.344,9.432 C30.4613333,9.432 30.684,9.35866667 31.012,9.212 C31.34,9.06533333 31.6786667,8.852 32.028,8.572 C32.3773333,8.292 32.664,7.98133333 32.888,7.64 L32.888,7.64 L32.896,8.272 C32.896,8.43733333 32.8893333,8.61333333 32.876,8.8 C32.8626667,8.98666667 32.8386667,9.12933333 32.804,9.228 C32.7693333,9.32666667 32.752,9.43066667 32.752,9.54 C32.752,9.64933333 32.784,9.78266667 32.848,9.94 C32.912,10.0973333 32.9813333,10.176 33.056,10.176 Z M40.32,6.552 C40.4266667,6.552 40.472,6.47733333 40.456,6.328 C40.7546667,6.33866667 40.9906667,6.328 41.164,6.296 C41.3373333,6.264 41.452,6.248 41.508,6.248 C41.564,6.248 41.6093333,6.29066667 41.644,6.376 L41.67275,6.432 C41.70425,6.48 41.744,6.504 41.792,6.504 C41.84,6.504 41.8866667,6.47333333 41.932,6.412 C41.9773333,6.35066667 42.012,6.26133333 42.036,6.144 C42.06,6.02666667 42.076,5.90133333 42.084,5.768 C42.092,5.63466667 42.1173333,5.208 42.16,4.488 C42.6666667,4.44 42.9746667,4.416 43.084,4.416 C43.1933333,4.416 43.2893333,4.41466667 43.372,4.412 C43.4546667,4.40933333 43.5186667,4.39466667 43.564,4.368 C43.6093333,4.34133333 43.632,4.3 43.632,4.244 C43.632,4.188 43.5786667,4.12533333 43.472,4.056 C43.3653333,3.98666667 43.2133333,3.952 43.016,3.952 C42.9573333,3.952 42.8973333,3.956 42.836,3.964 C42.7746667,3.972 42.56,4.016 42.192,4.096 C42.224,3.82933333 42.2546667,3.652 42.284,3.564 C42.3133333,3.476 42.328,3.4 42.328,3.336 C42.328,3.272 42.3053333,3.22 42.26,3.18 C42.2146667,3.14 42.1106667,3.09333333 41.948,3.04 C41.7853333,2.98666667 41.6666667,2.96 41.592,2.96 C41.5173333,2.96 41.48,2.98666667 41.48,3.04 C41.48,3.09333333 41.5146667,3.18266667 41.584,3.308 C41.6533333,3.43333333 41.696,3.728 41.712,4.192 L41.712,4.192 L40.424,4.424 C40.4346667,4.22133333 40.444,4.088 40.452,4.024 C40.46,3.96 40.464,3.90533333 40.464,3.86 C40.464,3.81466667 40.448,3.772 40.416,3.732 C40.384,3.692 40.2866667,3.64533333 40.124,3.592 C39.9613333,3.53866667 39.8586667,3.512 39.816,3.512 C39.7306667,3.512 39.688,3.54933333 39.688,3.624 C39.688,3.66133333 39.72,3.72266667 39.784,3.808 C39.848,3.89333333 39.9013333,3.98666667 39.944,4.088 C39.9866667,4.18933333 40.016,4.32 40.032,4.48 C39.5146667,4.55466667 39.1773333,4.592 39.02,4.592 C38.8626667,4.592 38.784,4.61866667 38.784,4.672 C38.784,4.704 38.8226667,4.74933333 38.9,4.808 C38.9773333,4.86666667 39.0893333,4.896 39.236,4.896 C39.3826667,4.896 39.656,4.85333333 40.056,4.768 C40.088,5.22133333 40.104,5.67466667 40.104,6.128 C40.104,6.208 40.132,6.29866667 40.188,6.4 C40.244,6.50133333 40.288,6.552 40.32,6.552 Z M40.448,6.16 C40.4373333,6.01066667 40.4266667,5.784 40.416,5.48 C40.5386667,5.512 40.6773333,5.528 40.832,5.528 C40.9866667,5.528 41.1226667,5.508 41.24,5.468 C41.3573333,5.428 41.416,5.38266667 41.416,5.332 C41.416,5.28133333 41.3946667,5.24 41.352,5.208 C41.3093333,5.176 41.224,5.16 41.096,5.16 C40.968,5.16 40.7413333,5.22133333 40.416,5.344 L40.416,5.344 L40.416,4.696 C40.6026667,4.664 41.0346667,4.61066667 41.712,4.536 C41.712,4.81866667 41.7026667,5.11733333 41.684,5.432 C41.6653333,5.74666667 41.6466667,5.924 41.628,5.964 C41.6093333,6.004 41.5626667,6.024 41.488,6.024 L41.488,6.024 L41.368,6.016 C41.2613333,6.016 40.9546667,6.064 40.448,6.16 Z M41.056,10.176 C41.2,10.176 41.272,9.95733333 41.272,9.52 C41.272,9.424 41.2626667,9.26266667 41.244,9.036 C41.2253333,8.80933333 41.216,8.32 41.216,7.568 C41.6426667,8.07466667 42.0146667,8.49066667 42.332,8.816 C42.6493333,9.14133333 42.852,9.33066667 42.94,9.384 C43.028,9.43733333 43.176,9.464 43.384,9.464 C43.592,9.464 43.848,9.44533333 44.152,9.408 C44.456,9.37066667 44.6306667,9.34266667 44.676,9.324 C44.7213333,9.30533333 44.744,9.28533333 44.744,9.264 C44.744,9.21066667 44.6693333,9.168 44.52,9.136 C43.8426667,8.992 43.2706667,8.78266667 42.804,8.508 C42.3373333,8.23333333 41.8053333,7.82666667 41.208,7.288 C41.8106667,7.21866667 42.3973333,7.184 42.968,7.184 C43.1973333,7.184 43.3653333,7.18933333 43.472,7.2 C43.5786667,7.21066667 43.656,7.216 43.704,7.216 C43.9653333,7.216 44.096,7.15466667 44.096,7.032 C44.096,6.96266667 44.036,6.88533333 43.916,6.8 C43.796,6.71466667 43.6493333,6.672 43.476,6.672 C43.3026667,6.672 43.1213333,6.69466667 42.932,6.74 C42.7426667,6.78533333 42.1733333,6.88266667 41.224,7.032 C41.224,6.94133333 41.2293333,6.87066667 41.24,6.82 C41.2506667,6.76933333 41.256,6.73066667 41.256,6.704 C41.256,6.624 41.1933333,6.56133333 41.068,6.516 C40.9426667,6.47066667 40.856,6.448 40.808,6.448 C40.7226667,6.448 40.68,6.47466667 40.68,6.528 C40.68,6.58133333 40.6986667,6.63733333 40.736,6.696 C40.8053333,6.79733333 40.848,6.92533333 40.864,7.08 C39.7173333,7.24 39.0133333,7.32 38.752,7.32 C38.4906667,7.32 38.36,7.34933333 38.36,7.408 C38.36,7.45066667 38.4213333,7.50666667 38.544,7.576 C38.6666667,7.64533333 38.7893333,7.68 38.912,7.68 C39.0346667,7.68 39.2066667,7.64266667 39.428,7.568 C39.6493333,7.49333333 40.056,7.41866667 40.648,7.344 C40.4293333,7.69066667 40.12,8.032 39.72,8.368 C39.32,8.704 38.8826667,8.99733333 38.408,9.248 C38.3066667,9.30133333 38.256,9.34533333 38.256,9.38 C38.256,9.41466667 38.2853333,9.432 38.344,9.432 C38.4613333,9.432 38.684,9.35866667 39.012,9.212 C39.34,9.06533333 39.6786667,8.852 40.028,8.572 C40.3773333,8.292 40.664,7.98133333 40.888,7.64 L40.888,7.64 L40.896,8.272 C40.896,8.43733333 40.8893333,8.61333333 40.876,8.8 C40.8626667,8.98666667 40.8386667,9.12933333 40.804,9.228 C40.7693333,9.32666667 40.752,9.43066667 40.752,9.54 C40.752,9.64933333 40.784,9.78266667 40.848,9.94 C40.912,10.0973333 40.9813333,10.176 41.056,10.176 Z" id="某某"></path>
            </g>
            <rect id="矩形" fill="#DA4141" x="13" y="91" width="124" height="1"></rect>
            <g id="编组-6" transform="translate(25.000000, 29.000000)" fill="#DA4141" fill-rule="nonzero">
                <path d="M5.5625,17 L5.5625,16.53125 C4.41666667,16.4791667 3.86979167,16.1927083 3.921875,15.671875 C3.765625,15.515625 4.390625,14.5 5.796875,12.625 L5.796875,12.625 L6.578125,11.609375 L8.609375,14.8125 C8.765625,15.125 8.89583333,15.4635417 9,15.828125 C9.05208333,16.296875 8.53125,16.53125 7.4375,16.53125 L7.4375,16.53125 L7.4375,17 L14.234375,17 L14.234375,16.53125 C13.7135417,16.6354167 13.0625,16.0625 12.28125,14.8125 L12.28125,14.8125 L8.6875,9.109375 C11.1875,5.203125 12.9583333,3.484375 14,3.953125 L14,3.953125 L14,3.484375 L9,3.484375 L9,3.953125 C9.05208333,4.00520833 9.10416667,4.03125 9.15625,4.03125 C10.0416667,4.08333333 10.484375,4.29166667 10.484375,4.65625 C10.8489583,4.60416667 10.0677083,5.85416667 8.140625,8.40625 L8.140625,8.40625 L6.265625,5.359375 C6.00520833,5.15104167 5.90104167,4.91666667 5.953125,4.65625 C5.796875,4.1875 6.31770833,3.953125 7.515625,3.953125 L7.515625,3.953125 L7.515625,3.484375 L0.5625,3.484375 L0.5625,3.953125 C1.13541667,4.00520833 1.68229167,4.39583333 2.203125,5.125 L2.203125,5.125 L6.1875,10.984375 L2.671875,15.359375 C2.203125,16.0364583 1.5,16.4270833 0.5625,16.53125 L0.5625,16.53125 L0.5625,17 L5.5625,17 Z M19.9375,17 L19.9375,16.53125 C18.7916667,16.4791667 18.2447917,16.1927083 18.296875,15.671875 C18.140625,15.515625 18.765625,14.5 20.171875,12.625 L20.171875,12.625 L20.953125,11.609375 L22.984375,14.8125 C23.140625,15.125 23.2708333,15.4635417 23.375,15.828125 C23.4270833,16.296875 22.90625,16.53125 21.8125,16.53125 L21.8125,16.53125 L21.8125,17 L28.609375,17 L28.609375,16.53125 C28.0885417,16.6354167 27.4375,16.0625 26.65625,14.8125 L26.65625,14.8125 L23.0625,9.109375 C25.5625,5.203125 27.3333333,3.484375 28.375,3.953125 L28.375,3.953125 L28.375,3.484375 L23.375,3.484375 L23.375,3.953125 C23.4270833,4.00520833 23.4791667,4.03125 23.53125,4.03125 C24.4166667,4.08333333 24.859375,4.29166667 24.859375,4.65625 C25.2239583,4.60416667 24.4427083,5.85416667 22.515625,8.40625 L22.515625,8.40625 L20.640625,5.359375 C20.3802083,5.15104167 20.2760417,4.91666667 20.328125,4.65625 C20.171875,4.1875 20.6927083,3.953125 21.890625,3.953125 L21.890625,3.953125 L21.890625,3.484375 L14.9375,3.484375 L14.9375,3.953125 C15.5104167,4.00520833 16.0572917,4.39583333 16.578125,5.125 L16.578125,5.125 L20.5625,10.984375 L17.046875,15.359375 C16.578125,16.0364583 15.875,16.4270833 14.9375,16.53125 L14.9375,16.53125 L14.9375,17 L19.9375,17 Z M34.3125,17 L34.3125,16.53125 C33.1666667,16.4791667 32.6197917,16.1927083 32.671875,15.671875 C32.515625,15.515625 33.140625,14.5 34.546875,12.625 L34.546875,12.625 L35.328125,11.609375 L37.359375,14.8125 C37.515625,15.125 37.6458333,15.4635417 37.75,15.828125 C37.8020833,16.296875 37.28125,16.53125 36.1875,16.53125 L36.1875,16.53125 L36.1875,17 L42.984375,17 L42.984375,16.53125 C42.4635417,16.6354167 41.8125,16.0625 41.03125,14.8125 L41.03125,14.8125 L37.4375,9.109375 C39.9375,5.203125 41.7083333,3.484375 42.75,3.953125 L42.75,3.953125 L42.75,3.484375 L37.75,3.484375 L37.75,3.953125 C37.8020833,4.00520833 37.8541667,4.03125 37.90625,4.03125 C38.7916667,4.08333333 39.234375,4.29166667 39.234375,4.65625 C39.5989583,4.60416667 38.8177083,5.85416667 36.890625,8.40625 L36.890625,8.40625 L35.015625,5.359375 C34.7552083,5.15104167 34.6510417,4.91666667 34.703125,4.65625 C34.546875,4.1875 35.0677083,3.953125 36.265625,3.953125 L36.265625,3.953125 L36.265625,3.484375 L29.3125,3.484375 L29.3125,3.953125 C29.8854167,4.00520833 30.4322917,4.39583333 30.953125,5.125 L30.953125,5.125 L34.9375,10.984375 L31.421875,15.359375 C30.953125,16.0364583 30.25,16.4270833 29.3125,16.53125 L29.3125,16.53125 L29.3125,17 L34.3125,17 Z M48.6875,17 L48.6875,16.53125 C47.5416667,16.4791667 46.9947917,16.1927083 47.046875,15.671875 C46.890625,15.515625 47.515625,14.5 48.921875,12.625 L48.921875,12.625 L49.703125,11.609375 L51.734375,14.8125 C51.890625,15.125 52.0208333,15.4635417 52.125,15.828125 C52.1770833,16.296875 51.65625,16.53125 50.5625,16.53125 L50.5625,16.53125 L50.5625,17 L57.359375,17 L57.359375,16.53125 C56.8385417,16.6354167 56.1875,16.0625 55.40625,14.8125 L55.40625,14.8125 L51.8125,9.109375 C54.3125,5.203125 56.0833333,3.484375 57.125,3.953125 L57.125,3.953125 L57.125,3.484375 L52.125,3.484375 L52.125,3.953125 C52.1770833,4.00520833 52.2291667,4.03125 52.28125,4.03125 C53.1666667,4.08333333 53.609375,4.29166667 53.609375,4.65625 C53.9739583,4.60416667 53.1927083,5.85416667 51.265625,8.40625 L51.265625,8.40625 L49.390625,5.359375 C49.1302083,5.15104167 49.0260417,4.91666667 49.078125,4.65625 C48.921875,4.1875 49.4427083,3.953125 50.640625,3.953125 L50.640625,3.953125 L50.640625,3.484375 L43.6875,3.484375 L43.6875,3.953125 C44.2604167,4.00520833 44.8072917,4.39583333 45.328125,5.125 L45.328125,5.125 L49.3125,10.984375 L45.796875,15.359375 C45.328125,16.0364583 44.625,16.4270833 43.6875,16.53125 L43.6875,16.53125 L43.6875,17 L48.6875,17 Z M5.5625,39 L5.5625,38.53125 C4.41666667,38.4791667 3.86979167,38.1927083 3.921875,37.671875 C3.765625,37.515625 4.390625,36.5 5.796875,34.625 L5.796875,34.625 L6.578125,33.609375 L8.609375,36.8125 C8.765625,37.125 8.89583333,37.4635417 9,37.828125 C9.05208333,38.296875 8.53125,38.53125 7.4375,38.53125 L7.4375,38.53125 L7.4375,39 L14.234375,39 L14.234375,38.53125 C13.7135417,38.6354167 13.0625,38.0625 12.28125,36.8125 L12.28125,36.8125 L8.6875,31.109375 C11.1875,27.203125 12.9583333,25.484375 14,25.953125 L14,25.953125 L14,25.484375 L9,25.484375 L9,25.953125 C9.05208333,26.0052083 9.10416667,26.03125 9.15625,26.03125 C10.0416667,26.0833333 10.484375,26.2916667 10.484375,26.65625 C10.8489583,26.6041667 10.0677083,27.8541667 8.140625,30.40625 L8.140625,30.40625 L6.265625,27.359375 C6.00520833,27.1510417 5.90104167,26.9166667 5.953125,26.65625 C5.796875,26.1875 6.31770833,25.953125 7.515625,25.953125 L7.515625,25.953125 L7.515625,25.484375 L0.5625,25.484375 L0.5625,25.953125 C1.13541667,26.0052083 1.68229167,26.3958333 2.203125,27.125 L2.203125,27.125 L6.1875,32.984375 L2.671875,37.359375 C2.203125,38.0364583 1.5,38.4270833 0.5625,38.53125 L0.5625,38.53125 L0.5625,39 L5.5625,39 Z M19.9375,39 L19.9375,38.53125 C18.7916667,38.4791667 18.2447917,38.1927083 18.296875,37.671875 C18.140625,37.515625 18.765625,36.5 20.171875,34.625 L20.171875,34.625 L20.953125,33.609375 L22.984375,36.8125 C23.140625,37.125 23.2708333,37.4635417 23.375,37.828125 C23.4270833,38.296875 22.90625,38.53125 21.8125,38.53125 L21.8125,38.53125 L21.8125,39 L28.609375,39 L28.609375,38.53125 C28.0885417,38.6354167 27.4375,38.0625 26.65625,36.8125 L26.65625,36.8125 L23.0625,31.109375 C25.5625,27.203125 27.3333333,25.484375 28.375,25.953125 L28.375,25.953125 L28.375,25.484375 L23.375,25.484375 L23.375,25.953125 C23.4270833,26.0052083 23.4791667,26.03125 23.53125,26.03125 C24.4166667,26.0833333 24.859375,26.2916667 24.859375,26.65625 C25.2239583,26.6041667 24.4427083,27.8541667 22.515625,30.40625 L22.515625,30.40625 L20.640625,27.359375 C20.3802083,27.1510417 20.2760417,26.9166667 20.328125,26.65625 C20.171875,26.1875 20.6927083,25.953125 21.890625,25.953125 L21.890625,25.953125 L21.890625,25.484375 L14.9375,25.484375 L14.9375,25.953125 C15.5104167,26.0052083 16.0572917,26.3958333 16.578125,27.125 L16.578125,27.125 L20.5625,32.984375 L17.046875,37.359375 C16.578125,38.0364583 15.875,38.4270833 14.9375,38.53125 L14.9375,38.53125 L14.9375,39 L19.9375,39 Z M34.3125,39 L34.3125,38.53125 C33.1666667,38.4791667 32.6197917,38.1927083 32.671875,37.671875 C32.515625,37.515625 33.140625,36.5 34.546875,34.625 L34.546875,34.625 L35.328125,33.609375 L37.359375,36.8125 C37.515625,37.125 37.6458333,37.4635417 37.75,37.828125 C37.8020833,38.296875 37.28125,38.53125 36.1875,38.53125 L36.1875,38.53125 L36.1875,39 L42.984375,39 L42.984375,38.53125 C42.4635417,38.6354167 41.8125,38.0625 41.03125,36.8125 L41.03125,36.8125 L37.4375,31.109375 C39.9375,27.203125 41.7083333,25.484375 42.75,25.953125 L42.75,25.953125 L42.75,25.484375 L37.75,25.484375 L37.75,25.953125 C37.8020833,26.0052083 37.8541667,26.03125 37.90625,26.03125 C38.7916667,26.0833333 39.234375,26.2916667 39.234375,26.65625 C39.5989583,26.6041667 38.8177083,27.8541667 36.890625,30.40625 L36.890625,30.40625 L35.015625,27.359375 C34.7552083,27.1510417 34.6510417,26.9166667 34.703125,26.65625 C34.546875,26.1875 35.0677083,25.953125 36.265625,25.953125 L36.265625,25.953125 L36.265625,25.484375 L29.3125,25.484375 L29.3125,25.953125 C29.8854167,26.0052083 30.4322917,26.3958333 30.953125,27.125 L30.953125,27.125 L34.9375,32.984375 L31.421875,37.359375 C30.953125,38.0364583 30.25,38.4270833 29.3125,38.53125 L29.3125,38.53125 L29.3125,39 L34.3125,39 Z M48.6875,39 L48.6875,38.53125 C47.5416667,38.4791667 46.9947917,38.1927083 47.046875,37.671875 C46.890625,37.515625 47.515625,36.5 48.921875,34.625 L48.921875,34.625 L49.703125,33.609375 L51.734375,36.8125 C51.890625,37.125 52.0208333,37.4635417 52.125,37.828125 C52.1770833,38.296875 51.65625,38.53125 50.5625,38.53125 L50.5625,38.53125 L50.5625,39 L57.359375,39 L57.359375,38.53125 C56.8385417,38.6354167 56.1875,38.0625 55.40625,36.8125 L55.40625,36.8125 L51.8125,31.109375 C54.3125,27.203125 56.0833333,25.484375 57.125,25.953125 L57.125,25.953125 L57.125,25.484375 L52.125,25.484375 L52.125,25.953125 C52.1770833,26.0052083 52.2291667,26.03125 52.28125,26.03125 C53.1666667,26.0833333 53.609375,26.2916667 53.609375,26.65625 C53.9739583,26.6041667 53.1927083,27.8541667 51.265625,30.40625 L51.265625,30.40625 L49.390625,27.359375 C49.1302083,27.1510417 49.0260417,26.9166667 49.078125,26.65625 C48.921875,26.1875 49.4427083,25.953125 50.640625,25.953125 L50.640625,25.953125 L50.640625,25.484375 L43.6875,25.484375 L43.6875,25.953125 C44.2604167,26.0052083 44.8072917,26.3958333 45.328125,27.125 L45.328125,27.125 L49.3125,32.984375 L45.796875,37.359375 C45.328125,38.0364583 44.625,38.4270833 43.6875,38.53125 L43.6875,38.53125 L43.6875,39 L48.6875,39 Z" id="XXXXXXXX"></path>
                <path d="M69.515625,15.03125 C69.828125,15.7083333 70.3489583,15.8645833 71.078125,15.5 C71.7552083,15.03125 72.0416667,14.40625 71.9375,13.625 C71.5729167,12.4270833 70.2708333,11.671875 68.03125,11.359375 C67.8229167,11.4635417 67.796875,11.5416667 67.953125,11.59375 C68.6822917,12.1145833 69.0989583,12.921875 69.203125,14.015625 C69.2552083,14.5364583 69.359375,14.875 69.515625,15.03125 Z M78.03125,30.5 C78.1875,30.5 78.2916667,30.421875 78.34375,30.265625 C78.7083333,28.9114583 79.4114583,28.1041667 80.453125,27.84375 C80.5052083,27.7916667 80.4791667,27.7135417 80.375,27.609375 C77.1979167,27.5572917 74.5416667,26.7760417 72.40625,25.265625 C73.8125,23.4427083 74.75,21.0729167 75.21875,18.15625 C75.21875,18.1041667 75.3229167,18 75.53125,17.84375 C75.6875,17.7395833 75.7916667,17.6354167 75.84375,17.53125 C75.9479167,17.4270833 75.9479167,17.3229167 75.84375,17.21875 C75.4270833,17.0104167 75.0364583,16.828125 74.671875,16.671875 L74.671875,16.671875 L80.375,16.671875 C80.53125,16.5677083 80.5572917,16.4114583 80.453125,16.203125 C80.0364583,15.7864583 79.2552083,15.1875 78.109375,14.40625 L78.109375,14.40625 L77.875,14.40625 C77.5625,14.6666667 77.1458333,15.1614583 76.625,15.890625 C76.5208333,15.9947917 76.4427083,16.0989583 76.390625,16.203125 L76.390625,16.203125 L62.328125,16.203125 C62.0677083,16.203125 61.8333333,16.1770833 61.625,16.125 L61.625,16.125 L62.09375,16.671875 L62.09375,16.671875 L66.625,16.671875 C66.8333333,20.109375 67.9010417,23.0260417 69.828125,25.421875 C67.8489583,27.8177083 65.1145833,29.4583333 61.625,30.34375 C61.4166667,30.34375 61.4166667,30.3958333 61.625,30.5 C65.53125,30.0833333 68.65625,28.859375 71,26.828125 C72.9791667,28.5989583 75.3229167,29.8229167 78.03125,30.5 Z M70.84375,24.015625 C68.8645833,22.2447917 67.6145833,19.796875 67.09375,16.671875 L67.09375,16.671875 L72.875,16.671875 C72.71875,19.4322917 72.0416667,21.8802083 70.84375,24.015625 Z M92.796875,29.71875 C93.6302083,30.1875 94.3854167,30.03125 95.0625,29.25 C95.0625,28.9895833 95.0364583,28.5989583 94.984375,28.078125 L94.984375,28.078125 L94.984375,23.078125 L100.765625,23.078125 C100.921875,23.078125 101,22.9739583 101,22.765625 C100.84375,22.5052083 100.140625,21.984375 98.890625,21.203125 C98.7864583,21.1510417 98.734375,21.0989583 98.734375,21.046875 L98.734375,21.046875 L98.421875,21.046875 C98.2135417,21.203125 97.953125,21.515625 97.640625,21.984375 C97.3802083,22.3489583 97.1979167,22.5833333 97.09375,22.6875 L97.09375,22.6875 L94.984375,22.6875 L94.984375,18.078125 L99.984375,18.078125 C100.140625,18.078125 100.192708,17.9739583 100.140625,17.765625 C99.9322917,17.4010417 99.1770833,16.828125 97.875,16.046875 L97.875,16.046875 L97.640625,16.046875 C97.3802083,16.2552083 96.9375,16.7760417 96.3125,17.609375 L96.3125,17.609375 L96.3125,17.6875 L94.984375,17.6875 L94.984375,12.921875 C95.2447917,12.765625 95.4270833,12.6354167 95.53125,12.53125 L95.53125,12.53125 L95.53125,12.21875 C94.90625,12.0625 94.359375,11.9322917 93.890625,11.828125 C93.3697917,11.7239583 93.03125,11.671875 92.875,11.671875 C92.7708333,11.7239583 92.7447917,11.75 92.796875,11.75 L92.796875,11.75 L92.875,12.921875 L92.875,17.6875 L90.6875,17.6875 C90.8958333,17.0625 91.1041667,16.3854167 91.3125,15.65625 C91.3125,15.5 91.46875,15.34375 91.78125,15.1875 C91.8854167,15.1354167 91.9635417,15.0833333 92.015625,15.03125 C92.0677083,14.9270833 92.0677083,14.8229167 92.015625,14.71875 C91.4947917,14.5104167 90.9739583,14.3020833 90.453125,14.09375 C90.140625,13.9895833 89.8541667,13.859375 89.59375,13.703125 C89.4375,13.7552083 89.359375,13.8072917 89.359375,13.859375 C89.1510417,17.0364583 88.6822917,19.6666667 87.953125,21.75 C88.0052083,21.90625 88.0833333,21.9583333 88.1875,21.90625 C89.0208333,21.0208333 89.8020833,19.7447917 90.53125,18.078125 L90.53125,18.078125 L92.875,18.078125 L92.875,22.6875 L87.953125,22.6875 C87.6927083,22.6875 87.4583333,22.6614583 87.25,22.609375 L87.25,22.609375 L87.71875,23.15625 C88.1354167,23.15625 88.5520833,23.1302083 88.96875,23.078125 L88.96875,23.078125 L92.875,23.078125 L92.875,26.671875 C92.8229167,27.2447917 92.7708333,27.84375 92.71875,28.46875 C92.6666667,29.1458333 92.6927083,29.5625 92.796875,29.71875 Z M84.4375,29.796875 C85.1145833,30.1614583 85.7916667,30.03125 86.46875,29.40625 C86.46875,29.1979167 86.4427083,28.7291667 86.390625,28 L86.390625,28 L86.390625,17.6875 C86.390625,17.6875 86.409375,17.678125 86.446875,17.659375 L86.546875,17.609375 C86.703125,17.5052083 86.8333333,17.4010417 86.9375,17.296875 L86.9375,17.296875 L86.9375,16.984375 C86.8854167,16.9322917 86.6510417,16.7760417 86.234375,16.515625 C86.703125,15.6822917 87.1197917,14.8229167 87.484375,13.9375 C87.9010417,13.625 88.2135417,13.46875 88.421875,13.46875 C88.578125,13.3645833 88.6041667,13.234375 88.5,13.078125 C88.03125,12.8697917 87.3802083,12.5833333 86.546875,12.21875 C86.2864583,12.1145833 86.078125,12.0104167 85.921875,11.90625 C85.7135417,11.8541667 85.5833333,11.90625 85.53125,12.0625 C84.4375,16.3333333 83.0572917,19.6666667 81.390625,22.0625 C81.3385417,22.1145833 81.390625,22.1666667 81.546875,22.21875 C82.5364583,21.3854167 83.5260417,20.3177083 84.515625,19.015625 L84.515625,19.015625 L84.515625,26.828125 C84.4635417,27.7135417 84.4114583,28.3645833 84.359375,28.78125 C84.3072917,29.3020833 84.3333333,29.640625 84.4375,29.796875 Z" id="文件"></path>
            </g>
            <g id="编组-12" transform="translate(13.000000, 159.000000)" fill="#CCCCCC">
                <rect id="矩形备份-9" x="0" y="18" width="124" height="1"></rect>
                <rect id="矩形备份-10" x="0" y="27" width="124" height="1"></rect>
                <rect id="矩形" x="0" y="9" width="124" height="1"></rect>
                <rect id="矩形备份-13" x="0" y="0" width="124" height="1"></rect>
            </g>
            <g id="编组-27" transform="translate(62.000000, 136.000000)" fill="#D8D8D8">
                <circle id="椭圆形" cx="1.5" cy="1.5" r="1.5"></circle>
                <circle id="椭圆形备份" cx="7.5" cy="1.5" r="1.5"></circle>
                <circle id="椭圆形备份-2" cx="13.5" cy="1.5" r="1.5"></circle>
                <circle id="椭圆形备份-5" cx="19.5" cy="1.5" r="1.5"></circle>
                <circle id="椭圆形备份-4" cx="25.5" cy="1.5" r="1.5"></circle>
                <circle id="椭圆形备份-3" cx="31.5" cy="1.5" r="1.5"></circle>
            </g>
            <g id="编组-18备份-3" transform="translate(118.000000, 170.000000)" fill="#DA4141" fill-rule="nonzero" opacity="0.800000012">
                <path d="M4.58235627,21.0658318 L4.58235627,20.4681756 L13.031575,20.4681756 L13.031575,21.0541131 L13.9339188,21.0541131 L13.9339188,10.1205193 L3.68001252,10.1205193 L3.68001252,21.0658318 L4.58235627,21.0658318 Z M13.031575,19.6361443 L4.58235627,19.6361443 L4.58235627,10.9525506 L13.031575,10.9525506 L13.031575,19.6361443 Z M12.4807938,18.3939568 L12.4807938,17.5970818 L9.22298127,17.5970818 L9.22298127,15.2767693 L12.0589188,15.2767693 L12.0589188,14.4798943 L9.22298127,14.4798943 L9.22298127,12.9095818 L12.2932938,12.9095818 L12.2932938,12.1127068 L5.30891877,12.1127068 L5.30891877,12.9095818 L8.35579377,12.9095818 L8.35579377,14.4798943 L5.53157502,14.4798943 L5.53157502,15.2767693 L8.35579377,15.2767693 L8.35579377,17.5970818 L5.12141877,17.5970818 L5.12141877,18.3939568 L12.4807938,18.3939568 Z M10.8987625,17.3158318 L11.5901688,16.7884881 C11.2854813,16.3978631 10.9182938,15.9798943 10.4886063,15.5345818 L10.4886063,15.5345818 L9.83235627,16.0267693 C10.1682938,16.3783318 10.5237625,16.8080193 10.8987625,17.3158318 L10.8987625,17.3158318 Z M17.625325,20.9838006 L17.625325,14.7963006 C18.0550125,15.2298943 18.4573563,15.6595818 18.8323563,16.0853631 L18.8323563,16.0853631 L19.45345,15.4408318 C19.0706375,15.0423943 18.6292313,14.6283318 18.1292313,14.1986443 L18.1292313,14.1986443 L17.625325,14.7259881 L17.625325,12.6517693 L19.219075,12.6517693 L19.219075,11.8548943 L17.625325,11.8548943 L17.625325,9.55801932 L16.8050125,9.55801932 L16.8050125,11.8548943 L15.0237625,11.8548943 L15.0237625,12.6517693 L16.7229813,12.6517693 C16.4026688,14.1127068 15.8089188,15.5111443 14.9417313,16.8470818 C15.0901688,17.1986443 15.219075,17.5423943 15.32845,17.8783318 C15.8987625,17.0619256 16.39095,15.9818474 16.8050125,14.6380974 L16.8050125,14.6380974 L16.8050125,20.9838006 L17.625325,20.9838006 Z M25.9807938,11.0697381 L25.9807938,10.2494256 L19.7464188,10.2494256 L19.7464188,11.0697381 L25.9807938,11.0697381 Z M20.3792313,20.8548943 C20.9964188,20.8705193 21.51595,20.8744256 21.937825,20.8666131 C22.8362625,20.8666131 23.2854813,20.3783318 23.2854813,19.4017693 L23.2854813,19.4017693 L23.2854813,14.5033318 L26.5198563,14.5033318 L26.5198563,13.6830193 L19.2073563,13.6830193 L19.2073563,14.5033318 L22.3948563,14.5033318 L22.3948563,19.1088006 C22.3948563,19.6869256 22.1604813,19.9759881 21.6917313,19.9759881 C21.2464188,19.9759881 20.7542313,19.9447381 20.2151688,19.8822381 C20.2854813,20.2494256 20.3401688,20.5736443 20.3792313,20.8548943 Z M25.8050125,19.7650506 L26.7425125,19.3548943 C26.250325,18.2845818 25.6331375,17.0384881 24.89095,15.6166131 L24.89095,15.6166131 L24.0589188,16.0150506 C24.7151688,17.3041131 25.2972,18.5541131 25.8050125,19.7650506 L25.8050125,19.7650506 Z M19.26595,19.7767693 C19.8987625,18.6673943 20.5354813,17.3978631 21.1761063,15.9681756 L21.1761063,15.9681756 L20.2972,15.6166131 C19.6643875,17.1088006 19.0354813,18.3588006 18.4104813,19.3666131 C18.7386063,19.4994256 19.0237625,19.6361443 19.26595,19.7767693 Z" id="国标" transform="translate(15.211263, 15.311926) rotate(20.000000) translate(-15.211263, -15.311926) "></path>
                <path d="M15,0 C23.2842712,0 30,6.71572875 30,15 C30,23.2842712 23.2842712,30 15,30 C6.71572875,30 0,23.2842712 0,15 C0,6.71572875 6.71572875,0 15,0 Z M15,1 C7.2680135,1 1,7.2680135 1,15 C1,22.7319865 7.2680135,29 15,29 C22.7319865,29 29,22.7319865 29,15 C29,7.2680135 22.7319865,1 15,1 Z" id="椭圆形"></path>
            </g>
            <path d="M29.8125,111.875 L30.1875,111.5 L27.375,108.6875 L30.1875,105.875 L29.8125,105.5 L27,108.3125 L24.1875,105.5 L23.765625,105.875 L26.625,108.6875 L23.765625,111.5 L24.1875,111.875 L27,109.0625 L29.8125,111.875 Z M41.8125,111.875 L42.1875,111.5 L39.375,108.6875 L42.1875,105.875 L41.8125,105.5 L39,108.3125 L36.1875,105.5 L35.765625,105.875 L38.625,108.6875 L35.765625,111.5 L36.1875,111.875 L39,109.0625 L41.8125,111.875 Z M45.28125,114.546875 C48.875,113.953125 50.765625,112.328125 50.953125,109.671875 L50.953125,109.671875 L51.140625,109.671875 C51.921875,112.109375 53.21875,113.6875 55.03125,114.40625 C55.15625,114.4375 55.25,114.421875 55.3125,114.359375 C55.4375,113.640625 55.875,113.1875 56.625,113 C56.75,112.9375 56.75,112.84375 56.625,112.71875 C54,112.75 52.296875,111.734375 51.515625,109.671875 L51.515625,109.671875 L56.484375,109.671875 C56.609375,109.640625 56.640625,109.546875 56.578125,109.390625 C56.203125,109.078125 55.734375,108.71875 55.171875,108.3125 L55.171875,108.3125 L54.984375,108.3125 C54.640625,108.65625 54.359375,109.03125 54.140625,109.4375 L54.140625,109.4375 L51,109.4375 L51,109.4375 L51,107.1875 C51.21875,107 51.3125,106.875 51.28125,106.8125 L51.28125,106.8125 L55.875,106.8125 C55.96875,106.78125 55.984375,106.6875 55.921875,106.53125 C55.671875,106.28125 55.203125,105.921875 54.515625,105.453125 L54.515625,105.453125 L54.375,105.453125 C54.03125,105.796875 53.734375,106.171875 53.484375,106.578125 L53.484375,106.578125 L51.28125,106.578125 C51.5,106.390625 51.859375,106.046875 52.359375,105.546875 C52.828125,105.046875 53.1875,104.6875 53.4375,104.46875 C53.59375,104.4375 53.828125,104.40625 54.140625,104.375 C54.265625,104.28125 54.28125,104.171875 54.1875,104.046875 C53.59375,103.640625 53.046875,103.28125 52.546875,102.96875 C52.453125,102.9375 52.359375,102.953125 52.265625,103.015625 C51.890625,104.046875 51.390625,105.234375 50.765625,106.578125 L50.765625,106.578125 L46.171875,106.578125 C46.015625,106.578125 45.875,106.5625 45.75,106.53125 L45.75,106.53125 L46.03125,106.859375 C46.28125,106.859375 46.53125,106.84375 46.78125,106.8125 L46.78125,106.8125 L49.640625,106.8125 L49.640625,108.828125 C49.640625,109.046875 49.625,109.25 49.59375,109.4375 L49.59375,109.4375 L45.65625,109.4375 C45.53125,109.4375 45.40625,109.421875 45.28125,109.390625 L45.28125,109.390625 L45.515625,109.71875 C45.984375,109.71875 46.25,109.703125 46.3125,109.671875 L46.3125,109.671875 L49.59375,109.671875 C49.40625,112.015625 47.953125,113.5625 45.234375,114.3125 C45.140625,114.375 45.15625,114.453125 45.28125,114.546875 Z M48.28125,105.6875 C48.34375,106.1875 48.6875,106.34375 49.3125,106.15625 C49.78125,105.96875 49.953125,105.546875 49.828125,104.890625 C49.453125,104.140625 48.640625,103.578125 47.390625,103.203125 C47.203125,103.265625 47.15625,103.34375 47.25,103.4375 C47.875,104.09375 48.21875,104.84375 48.28125,105.6875 Z M62.0625,114.171875 C62.90625,114.140625 63.40625,113.921875 63.5625,113.515625 C63.5625,113.421875 63.546875,113.25 63.515625,113 L63.515625,113 L63.515625,108.3125 L68.625,108.3125 C68.71875,108.28125 68.734375,108.1875 68.671875,108.03125 C68.421875,107.78125 67.953125,107.421875 67.265625,106.953125 L67.265625,106.953125 L67.125,106.953125 C66.78125,107.296875 66.484375,107.671875 66.234375,108.078125 L66.234375,108.078125 L63.515625,108.078125 L63.515625,104.9375 C63.703125,104.78125 63.796875,104.65625 63.796875,104.5625 L63.796875,104.5625 L67.5,104.5625 C67.59375,104.53125 67.609375,104.4375 67.546875,104.28125 C67.296875,104.03125 66.828125,103.671875 66.140625,103.203125 L66.140625,103.203125 L66,103.203125 C65.65625,103.546875 65.359375,103.921875 65.109375,104.328125 L65.109375,104.328125 L58.40625,104.328125 C58.28125,104.328125 58.15625,104.3125 58.03125,104.28125 L58.03125,104.28125 L58.265625,104.609375 C58.734375,104.609375 59,104.59375 59.0625,104.5625 L59.0625,104.5625 L62.109375,104.5625 L62.109375,108.078125 L57.5625,108.078125 C57.40625,108.078125 57.265625,108.0625 57.140625,108.03125 L57.140625,108.03125 L57.375,108.359375 C57.625,108.359375 57.890625,108.34375 58.171875,108.3125 L58.171875,108.3125 L62.109375,108.3125 L62.109375,112.90625 C61.828125,113 61.234375,113 60.328125,112.90625 C60.265625,112.90625 60.25,112.9375 60.28125,113 C61,113.125 61.53125,113.484375 61.875,114.078125 C61.90625,114.140625 61.96875,114.171875 62.0625,114.171875 Z M77.8125,111.875 L78.1875,111.5 L75.375,108.6875 L78.1875,105.875 L77.8125,105.5 L75,108.3125 L72.1875,105.5 L71.765625,105.875 L74.625,108.6875 L71.765625,111.5 L72.1875,111.875 L75,109.0625 L77.8125,111.875 Z M89.8125,111.875 L90.1875,111.5 L87.375,108.6875 L90.1875,105.875 L89.8125,105.5 L87,108.3125 L84.1875,105.5 L83.765625,105.875 L86.625,108.6875 L83.765625,111.5 L84.1875,111.875 L87,109.0625 L89.8125,111.875 Z M94.0538194,113.615741 L94.171875,113.609375 C94.609375,113.546875 94.84375,113.421875 94.875,113.234375 L94.875,113.234375 L94.875,112.671875 L96.984375,112.671875 L96.984375,113 C97.328125,113.375 97.75,113.375 98.25,113 L98.25,113 L98.109375,106.4375 C98.234375,106.375 98.359375,106.265625 98.484375,106.109375 C98.515625,106.046875 98.515625,105.984375 98.484375,105.921875 C98.109375,105.640625 97.75,105.421875 97.40625,105.265625 L97.40625,105.265625 L97.265625,105.265625 C97.046875,105.359375 96.828125,105.546875 96.609375,105.828125 L96.609375,105.828125 L95.765625,105.828125 C95.859375,105.671875 96.015625,105.390625 96.234375,104.984375 C96.390625,104.734375 96.5625,104.453125 96.75,104.140625 C96.75,104.109375 96.828125,104.0625 96.984375,104 C97.046875,104 97.09375,103.984375 97.125,103.953125 L97.125,103.953125 L97.125,103.90625 C97.15625,103.78125 97.15625,103.703125 97.125,103.671875 C96.53125,103.453125 96.046875,103.3125 95.671875,103.25 C95.546875,103.28125 95.484375,103.3125 95.484375,103.34375 C95.453125,103.71875 95.421875,104.109375 95.390625,104.515625 C95.328125,104.953125 95.28125,105.390625 95.25,105.828125 L95.25,105.828125 L94.875,105.828125 C94.5625,105.609375 94.203125,105.421875 93.796875,105.265625 C93.734375,105.296875 93.703125,105.328125 93.703125,105.359375 C93.734375,105.609375 93.75,105.96875 93.75,106.4375 L93.75,106.4375 L93.75,106.953125 L93.609375,113.375 C93.609375,113.5625 93.796875,113.640625 94.171875,113.609375 L94.0538194,113.615741 Z M101.8125,114.265625 C102.78125,114.203125 103.421875,113.71875 103.734375,112.8125 C103.921875,112.15625 104.015625,111.28125 104.015625,110.1875 L104.015625,110.1875 L104.015625,106.8125 C104.109375,106.75 104.203125,106.65625 104.296875,106.53125 C104.296875,106.53125 104.3125,106.484375 104.34375,106.390625 C103.9375,106.109375 103.484375,105.875 102.984375,105.6875 C102.921875,105.6875 102.859375,105.703125 102.796875,105.734375 C102.609375,105.921875 102.46875,106.078125 102.375,106.203125 L102.375,106.203125 L100.125,106.203125 C100.5625,105.515625 100.953125,104.828125 101.296875,104.140625 L101.296875,104.140625 L101.671875,103.90625 L101.671875,103.90625 L101.671875,103.671875 C100.921875,103.453125 100.375,103.3125 100.03125,103.25 C99.90625,103.25 99.84375,103.265625 99.84375,103.296875 C99.5625,105.109375 99.125,106.6875 98.53125,108.03125 C98.5,108.125 98.546875,108.15625 98.671875,108.125 C99.140625,107.625 99.5625,107.0625 99.9375,106.4375 L99.9375,106.4375 L102.609375,106.4375 L102.609375,110.5625 C102.703125,112.5625 101.921875,113.328125 100.265625,112.859375 C100.109375,112.921875 100.078125,112.96875 100.171875,113 C101.046875,113.28125 101.546875,113.671875 101.671875,114.171875 C101.671875,114.203125 101.71875,114.234375 101.8125,114.265625 Z M96.984375,108.921875 L94.875,108.921875 L94.875,106.0625 L96.984375,106.0625 L96.984375,108.921875 Z M100.567383,110.939453 L100.6875,110.9375 C101.125,110.84375 101.359375,110.515625 101.390625,109.953125 C101.203125,109.109375 100.53125,108.546875 99.375,108.265625 C99.28125,108.328125 99.25,108.375 99.28125,108.40625 C99.71875,108.84375 99.921875,109.4375 99.890625,110.1875 C99.921875,110.71875 100.1875,110.96875 100.6875,110.9375 L100.567383,110.939453 Z M96.984375,112.4375 L94.875,112.4375 L94.875,109.203125 L96.984375,109.203125 L96.984375,112.4375 Z M116.765625,107.703125 C116.828125,107.734375 116.8125,107.640625 116.71875,107.421875 C116.6875,107.359375 116.4375,107.15625 115.96875,106.8125 C115.875,106.75 115.8125,106.6875 115.78125,106.625 C115.70625,106.625 115.659375,106.625 115.640625,106.625 L115.5975,106.67 C115.5325,106.74 115.4375,106.85 115.3125,107 C115.0625,107.28125 114.921875,107.421875 114.890625,107.421875 L114.890625,107.421875 L112.875,107.421875 L112.875,106.296875 L115.59375,106.296875 C115.6875,106.296875 115.71875,106.25 115.6875,106.15625 C115.5,105.90625 115.21875,105.625 114.84375,105.3125 L114.84375,105.3125 L114.75,105.3125 C114.6875,105.375 114.59375,105.5 114.46875,105.6875 C114.28125,105.9375 114.15625,106.0625 114.09375,106.0625 L114.09375,106.0625 L112.875,106.0625 L112.875,104.9375 L116.390625,104.9375 C116.421875,104.90625 116.421875,104.828125 116.390625,104.703125 C116.265625,104.546875 115.9375,104.265625 115.40625,103.859375 L115.40625,103.859375 L115.265625,103.859375 C115.203125,103.921875 115.09375,104.046875 114.9375,104.234375 C114.71875,104.546875 114.578125,104.703125 114.515625,104.703125 L114.515625,104.703125 L112.875,104.703125 L112.875,103.8125 C112.875,103.8125 112.90625,103.796875 112.96875,103.765625 C113.09375,103.671875 113.171875,103.59375 113.203125,103.53125 C113.203125,103.53125 113.1875,103.484375 113.15625,103.390625 C112.71875,103.265625 112.265625,103.203125 111.796875,103.203125 C111.765625,103.234375 111.734375,103.28125 111.703125,103.34375 L111.703125,103.34375 L111.75,103.8125 L111.75,104.703125 L109.453125,104.703125 C109.265625,104.734375 109.03125,104.71875 108.75,104.65625 L108.75,104.65625 L109.21875,104.984375 C109.34375,104.953125 109.609375,104.9375 110.015625,104.9375 L110.015625,104.9375 L111.75,104.9375 L111.75,106.0625 L109.6875,106.0625 C109.46875,106.03125 109.328125,106.015625 109.265625,106.015625 L109.265625,106.015625 L109.6875,106.34375 L109.6875,106.34375 L110.0625,106.34375 C110.34375,106.3125 110.546875,106.296875 110.671875,106.296875 L110.671875,106.296875 L111.75,106.296875 L111.75,107.421875 L109.171875,107.421875 C108.890625,107.453125 108.59375,107.4375 108.28125,107.375 L108.28125,107.375 L108.703125,107.703125 L116.765625,107.703125 Z M106.6875,105.265625 C106.90625,105.703125 107.234375,105.8125 107.671875,105.59375 C108.015625,105.3125 108.09375,104.921875 107.90625,104.421875 C107.65625,103.859375 107.0625,103.515625 106.125,103.390625 C105.96875,103.453125 105.921875,103.515625 105.984375,103.578125 C106.296875,103.765625 106.515625,104.1875 106.640625,104.84375 C106.671875,105.09375 106.6875,105.234375 106.6875,105.265625 Z M107.25,113.796875 C107.3125,113.828125 107.390625,113.828125 107.484375,113.796875 L107.484375,113.796875 L109.453125,111.21875 C109.484375,111.125 109.4375,111.078125 109.3125,111.078125 L109.3125,111.078125 L107.90625,111.875 L107.90625,107.5625 C108.0625,107.4375 108.171875,107.34375 108.234375,107.28125 C108.296875,107.25 108.296875,107.1875 108.234375,107.09375 C107.765625,106.78125 107.421875,106.578125 107.203125,106.484375 C107.078125,106.453125 107,106.453125 106.96875,106.484375 C106.8125,106.578125 106.671875,106.71875 106.546875,106.90625 L106.546875,106.90625 L105.421875,106.90625 C105.296875,106.90625 105.1875,106.890625 105.09375,106.859375 L105.09375,106.859375 L105.375,107.1875 C105.75,107.1875 106,107.171875 106.125,107.140625 L106.125,107.140625 L106.78125,107.140625 L106.78125,112.34375 C106.71875,112.40625 106.578125,112.484375 106.359375,112.578125 C106.265625,112.671875 106.25,112.75 106.3125,112.8125 C106.34375,112.84375 106.375,112.859375 106.40625,112.859375 L106.40625,112.859375 L107.25,113.796875 Z M109.59375,114.171875 C110.03125,114.453125 110.421875,114.359375 110.765625,113.890625 L110.765625,113.890625 L110.765625,111.828125 L114.140625,111.828125 L114.140625,112.671875 C114.015625,112.984375 113.546875,113.078125 112.734375,112.953125 C112.640625,112.984375 112.640625,113.046875 112.734375,113.140625 C113.234375,113.265625 113.5625,113.609375 113.71875,114.171875 C113.71875,114.203125 113.78125,114.234375 113.90625,114.265625 C114.65625,114.140625 115.125,113.75 115.3125,113.09375 L115.3125,113.09375 L115.3125,109.4375 C115.46875,109.40625 115.59375,109.328125 115.6875,109.203125 C115.6875,109.140625 115.671875,109.078125 115.640625,109.015625 C115.328125,108.734375 114.90625,108.46875 114.375,108.21875 C114.34375,108.21875 114.3125,108.234375 114.28125,108.265625 C114.21875,108.296875 114.1875,108.296875 114.1875,108.265625 C114.125,108.328125 114.03125,108.453125 113.90625,108.640625 C113.875,108.734375 113.84375,108.796875 113.8125,108.828125 L113.8125,108.828125 L110.625,108.828125 C110.59375,108.828125 110.53125,108.8125 110.4375,108.78125 C110.125,108.5625 109.890625,108.421875 109.734375,108.359375 C109.703125,108.359375 109.65625,108.390625 109.59375,108.453125 L109.59375,108.453125 L109.59375,114.171875 Z M114.140625,110.09375 L110.765625,110.09375 L110.765625,109.0625 L114.140625,109.0625 L114.140625,110.09375 Z M114.140625,111.59375 L110.765625,111.59375 L110.765625,110.328125 L114.140625,110.328125 L114.140625,111.59375 Z M119.015625,104.609375 C119.484375,104.609375 119.75,104.59375 119.8125,104.5625 L119.8125,104.5625 L126.984375,104.5625 C127.109375,104.53125 127.140625,104.4375 127.078125,104.28125 C126.703125,103.96875 126.234375,103.609375 125.671875,103.203125 L125.671875,103.203125 L125.484375,103.203125 C125.140625,103.546875 124.859375,103.921875 124.640625,104.328125 L124.640625,104.328125 L119.15625,104.328125 C119.03125,104.328125 118.90625,104.3125 118.78125,104.28125 L118.78125,104.28125 L119.015625,104.609375 Z M122.015625,114.21875 C122.921875,114.1875 123.546875,113.9375 123.890625,113.46875 L123.890625,113.46875 L123.75,107.9375 C123.75,107.84375 123.796875,107.78125 123.890625,107.75 C123.984375,107.6875 124.0625,107.625 124.125,107.5625 L124.125,107.5625 L128.625,107.5625 C128.71875,107.53125 128.734375,107.4375 128.671875,107.28125 C128.421875,107.03125 127.953125,106.671875 127.265625,106.203125 L127.265625,106.203125 L127.125,106.203125 C126.78125,106.546875 126.484375,106.921875 126.234375,107.328125 L126.234375,107.328125 L118.03125,107.328125 C117.90625,107.328125 117.78125,107.3125 117.65625,107.28125 L117.65625,107.28125 L117.890625,107.609375 C118.359375,107.609375 118.625,107.59375 118.6875,107.5625 L118.6875,107.5625 L122.390625,107.5625 L122.390625,112.8125 C122.015625,112.9375 121.4375,112.921875 120.65625,112.765625 C120.59375,112.765625 120.5625,112.78125 120.5625,112.8125 C120.53125,112.875 120.546875,112.90625 120.609375,112.90625 C121.265625,113.125 121.6875,113.53125 121.875,114.125 C121.875,114.15625 121.921875,114.1875 122.015625,114.21875 Z M117.38151,112.776042 L117.421875,112.765625 C118.671875,112.171875 119.84375,111.046875 120.9375,109.390625 C121.15625,109.296875 121.296875,109.234375 121.359375,109.203125 C121.390625,109.171875 121.390625,109.125 121.359375,109.0625 C120.828125,108.78125 120.34375,108.53125 119.90625,108.3125 C119.78125,108.34375 119.71875,108.375 119.71875,108.40625 C119.125,110.21875 118.34375,111.640625 117.375,112.671875 C117.3125,112.765625 117.328125,112.796875 117.421875,112.765625 L117.38151,112.776042 Z M127.03125,112.15625 C127.3125,112.53125 127.65625,112.546875 128.0625,112.203125 C128.375,111.859375 128.4375,111.421875 128.25,110.890625 C127.75,109.984375 126.65625,109.28125 124.96875,108.78125 C124.90625,108.84375 124.890625,108.875 124.921875,108.875 C125.890625,109.78125 126.4375,110.59375 126.5625,111.3125 C126.6875,111.65625 126.84375,111.9375 127.03125,112.15625 Z" id="××关于××的请示" fill="#333333" fill-rule="nonzero"></path>
        </g>
    </g>
</svg>