<?xml version="1.0" encoding="utf-8"?>
<!-- Generator: Adobe Illustrator 19.0.0, SVG Export Plug-In . SVG Version: 6.00 Build 0)  -->
<svg version="1.1" id="图层_15" xmlns="http://www.w3.org/2000/svg" xmlns:xlink="http://www.w3.org/1999/xlink" x="0px" y="0px"
	 viewBox="0 0 16 16" style="enable-background:new 0 0 16 16;" xml:space="preserve">
<style type="text/css">
	._x0034_0_x0025_{opacity:0.4;fill-rule:evenodd;clip-rule:evenodd;}
	.st0{opacity:0.4;}
	.st1{fill-rule:evenodd;clip-rule:evenodd;}
</style>
<g id="XMLID_210_" class="st0">
	<g id="XMLID_27_">
		<path id="XMLID_28_" class="st1" d="M12.4,2H3.6C2.7,2,2,2.7,2,3.6v5.8C2,10.3,2.7,11,3.6,11H7v2H4.5C4.2,13,4,13.2,4,13.5
			S4.2,14,4.5,14h3c0,0,0,0,0,0h1c0,0,0,0,0,0h3c0.3,0,0.5-0.2,0.5-0.5S11.8,13,11.5,13H9v-2h3.4c0.9,0,1.6-0.7,1.6-1.6V3.6
			C14,2.7,13.3,2,12.4,2z M13,9.4c0,0.3-0.3,0.6-0.6,0.6H3.6C3.3,10,3,9.7,3,9.4V3.6C3,3.3,3.3,3,3.6,3h8.8C12.7,3,13,3.3,13,3.6
			V9.4z"/>
	</g>
</g>
</svg>
