<?xml version="1.0" encoding="UTF-8"?>
<svg width="150px" height="202px" viewBox="0 0 150 202" version="1.1" xmlns="http://www.w3.org/2000/svg" xmlns:xlink="http://www.w3.org/1999/xlink">
    <!-- Generator: Sketch 60.1 (88133) - https://sketch.com -->
    <title>上行文单机关-报告</title>
    <desc>Created with Sketch.</desc>
    <g id="页面-1" stroke="none" stroke-width="1" fill="none" fill-rule="evenodd">
        <g id="编组-7备份-14">
            <g id="编组-2备份-2">
                <rect id="矩形" x="0" y="0" width="150" height="202" rx="4"></rect>
            </g>
            <rect id="矩形" stroke="none" fill="#FFFFFF" x="5.5" y="5.5" width="139" height="191" rx="4"></rect>
            <g id="编组-20" transform="translate(13.000000, 61.000000)">
                <path d="M6.21875,8.625 L6.5,8.34375 L4.25,6.125 L6.4375,3.875 L6.15625,3.625 L4,5.875 L1.75,3.625 L1.5,3.875 L3.75,6.125 L1.5,8.375 L1.75,8.625 L4,6.375 L6.21875,8.625 Z M14.21875,8.625 L14.5,8.34375 L12.25,6.125 L14.4375,3.875 L14.15625,3.625 L12,5.875 L9.75,3.625 L9.5,3.875 L11.75,6.125 L9.5,8.375 L9.75,8.625 L12,6.375 L14.21875,8.625 Z M22.375,9.375 L22.625,9.21875 L21.53125,8.09375 L21.53125,4.15625 L22.65625,3 L22.4375,2.8125 L21.21875,4.09375 L21.21875,8.15625 L22.375,9.375 Z M27.28125,9 L27.46875,7.65625 L27.28125,7.65625 C27.2395833,7.94791667 27.15625,8.16666667 27.03125,8.3125 C26.90625,8.45833333 26.75,8.53125 26.5625,8.53125 L26.5625,8.53125 L24.71875,8.53125 C24.78125,8.40625 24.9739583,8.16145833 25.296875,7.796875 C25.6197917,7.43229167 26.0833333,6.95833333 26.6875,6.375 C26.9375,6.14583333 27.1197917,5.90625 27.234375,5.65625 C27.3489583,5.40625 27.40625,5.15625 27.40625,4.90625 C27.40625,4.53125 27.2864583,4.21875 27.046875,3.96875 C26.8072917,3.71875 26.4375,3.59375 25.9375,3.59375 C25.5833333,3.59375 25.25,3.70833333 24.9375,3.9375 C24.625,4.16666667 24.46875,4.5 24.46875,4.9375 C24.46875,5.10416667 24.5052083,5.22395833 24.578125,5.296875 C24.6510417,5.36979167 24.75,5.40625 24.875,5.40625 C24.9791667,5.40625 25.0572917,5.38020833 25.109375,5.328125 C25.1614583,5.27604167 25.1875,5.19791667 25.1875,5.09375 C25.1875,5.01041667 25.1510417,4.92708333 25.078125,4.84375 C25.0052083,4.76041667 24.96875,4.65625 24.96875,4.53125 C24.96875,4.32291667 25.0572917,4.15104167 25.234375,4.015625 C25.4114583,3.88020833 25.625,3.8125 25.875,3.8125 C26.2083333,3.8125 26.4583333,3.91145833 26.625,4.109375 C26.7916667,4.30729167 26.875,4.59375 26.875,4.96875 C26.875,5.23958333 26.7916667,5.53125 26.625,5.84375 C26.4583333,6.15625 26.1979167,6.48958333 25.84375,6.84375 C25.4479167,7.23958333 25.1302083,7.58333333 24.890625,7.875 C24.6510417,8.16666667 24.4791667,8.40625 24.375,8.59375 L24.375,8.59375 L24.375,9 L27.28125,9 Z M29.96875,9.0625 C30.4270833,9.0625 30.8072917,8.81770833 31.109375,8.328125 C31.4114583,7.83854167 31.5625,7.16666667 31.5625,6.3125 C31.5625,5.45833333 31.4114583,4.79166667 31.109375,4.3125 C30.8072917,3.83333333 30.4270833,3.59375 29.96875,3.59375 C29.4895833,3.59375 29.0989583,3.84375 28.796875,4.34375 C28.4947917,4.84375 28.34375,5.5 28.34375,6.3125 C28.34375,7.1875 28.5,7.86458333 28.8125,8.34375 C29.125,8.82291667 29.5104167,9.0625 29.96875,9.0625 Z M29.96875,8.8125 C29.6770833,8.8125 29.4322917,8.59375 29.234375,8.15625 C29.0364583,7.71875 28.9375,7.10416667 28.9375,6.3125 C28.9375,5.5625 29.0364583,4.96354167 29.234375,4.515625 C29.4322917,4.06770833 29.6770833,3.84375 29.96875,3.84375 C30.3020833,3.84375 30.5520833,4.06770833 30.71875,4.515625 C30.8854167,4.96354167 30.96875,5.5625 30.96875,6.3125 C30.96875,7.10416667 30.8802083,7.71875 30.703125,8.15625 C30.5260417,8.59375 30.28125,8.8125 29.96875,8.8125 Z M38.21875,8.625 L38.5,8.34375 L36.25,6.125 L38.4375,3.875 L38.15625,3.625 L36,5.875 L33.75,3.625 L33.5,3.875 L35.75,6.125 L33.5,8.375 L33.75,8.625 L36,6.375 L38.21875,8.625 Z M46.21875,8.625 L46.5,8.34375 L44.25,6.125 L46.4375,3.875 L46.15625,3.625 L44,5.875 L41.75,3.625 L41.5,3.875 L43.75,6.125 L41.5,8.375 L41.75,8.625 L44,6.375 L46.21875,8.625 Z M49.5,9.34375 L50.6875,8.0625 L50.6875,4 L49.53125,2.8125 L49.3125,3 L50.375,4.09375 L50.375,7.96875 L49.28125,9.15625 L49.5,9.34375 Z M62.21875,8.625 L62.5,8.34375 L60.25,6.125 L62.4375,3.875 L62.15625,3.625 L60,5.875 L57.75,3.625 L57.5,3.875 L59.75,6.125 L57.5,8.375 L57.75,8.625 L60,6.375 L62.21875,8.625 Z M66.65625,5.09375 C66.7604167,5.19791667 66.8020833,5.14583333 66.78125,4.9375 L66.78125,4.9375 L69.71875,4.71875 L69.46875,4.4375 L69.65625,3.25 L69.90625,3.03125 L69.5,2.71875 L69.3125,3 L66.6875,3.21875 L66.40625,2.75 L66.34375,2.78125 C66.4270833,3.07291667 66.46875,3.33333333 66.46875,3.5625 C66.46875,3.79166667 66.4739583,4.03125 66.484375,4.28125 C66.4947917,4.53125 66.4479167,4.66666667 66.34375,4.6875 L66.34375,4.6875 L66.65625,5.09375 Z M66.78125,4.65625 L66.75,3.46875 L69.34375,3.25 L69.1875,4.46875 L66.78125,4.65625 Z M68.1875,9.8125 C68.5208333,9.4375 69.0104167,8.47916667 69.65625,6.9375 L69.65625,6.9375 L69.9375,6.71875 L69.5625,6.34375 L69.34375,6.625 L66.9375,6.84375 L67.28125,5.96875 C69.5104167,5.80208333 70.8645833,5.71875 71.34375,5.71875 L71.34375,5.71875 L70.84375,5.34375 C70.71875,5.40625 69.7708333,5.51041667 68,5.65625 C66.2291667,5.80208333 65.1354167,5.86458333 64.71875,5.84375 L64.71875,5.84375 L65.15625,6.1875 C65.2395833,6.14583333 65.8229167,6.08333333 66.90625,6 L66.90625,6 L66.59375,6.875 L66.375,6.9375 L66.625,7.34375 L66.90625,7.15625 L69.3125,6.9375 C68.7916667,8.1875 68.4270833,8.95833333 68.21875,9.25 L68.21875,9.25 L67.125,8.3125 L67.0625,8.375 C67.5625,8.95833333 67.9375,9.4375 68.1875,9.8125 Z" id="××〔20××〕×号" fill="#333333" fill-rule="nonzero"></path>
                <g id="编组-3" transform="translate(79.000000, 0.000000)" fill="#333333" fill-rule="nonzero">
                    <path d="M0.8125,7.96875 C1.9375,7.28125 2.95833333,6.32291667 3.875,5.09375 C5.35416667,6.46875 6.17708333,7.26041667 6.34375,7.46875 C6.55208333,7.40625 6.92708333,7.36458333 7.46875,7.34375 L7.46875,7.34375 L7.4375,7.1875 C6.875,7.10416667 6.52604167,7.02083333 6.390625,6.9375 C6.25520833,6.85416667 6.02083333,6.68229167 5.6875,6.421875 C5.35416667,6.16145833 4.79166667,5.67708333 4,4.96875 L4,4.96875 L4.0625,4.90625 C4.3125,4.69791667 4.53125,4.4375 4.71875,4.125 L4.71875,4.125 L5.15625,4.09375 C5.40625,4.59375 5.58333333,4.97916667 5.6875,5.25 C5.8125,5.08333333 5.90625,4.90625 5.96875,4.71875 L5.96875,4.71875 L5.3125,4.0625 C6.1875,3.9375 6.76041667,3.86458333 7.03125,3.84375 L7.03125,3.84375 L6.6875,3.5625 C6.45833333,3.625 5.83333333,3.71875 4.8125,3.84375 C4.89583333,3.61458333 4.97395833,3.41666667 5.046875,3.25 C5.11979167,3.08333333 5.19791667,2.97916667 5.28125,2.9375 L5.28125,2.9375 L4.84375,2.40625 L4.75,2.46875 C4.79166667,2.63541667 4.765625,2.94791667 4.671875,3.40625 C4.578125,3.86458333 4.375,4.3125 4.0625,4.75 L4.0625,4.75 L3.875,4.34375 L3.78125,4.375 C3.82291667,4.60416667 3.55208333,5.07291667 2.96875,5.78125 C2.38541667,6.48958333 1.63541667,7.1875 0.71875,7.875 L0.71875,7.875 L0.8125,7.96875 Z M1.125,5.6875 C1.625,5.14583333 1.98958333,4.66666667 2.21875,4.25 L2.21875,4.25 L2.59375,4.21875 C2.73958333,4.59375 2.84375,4.95833333 2.90625,5.3125 C3.05208333,5.14583333 3.15625,4.97916667 3.21875,4.8125 C3.13541667,4.625 2.98958333,4.41666667 2.78125,4.1875 C3.44791667,4.10416667 3.95833333,4.04166667 4.3125,4 L4.3125,4 L4,3.71875 C3.83333333,3.78125 3.29166667,3.86458333 2.375,3.96875 C2.47916667,3.76041667 2.5625,3.58333333 2.625,3.4375 C2.6875,3.29166667 2.77083333,3.16666667 2.875,3.0625 L2.875,3.0625 L2.5625,2.46875 L2.46875,2.5 C2.46875,2.83333333 2.33854167,3.296875 2.078125,3.890625 C1.81770833,4.484375 1.46875,5.05208333 1.03125,5.59375 L1.03125,5.59375 L1.125,5.6875 Z M2.90625,6.96875 C3.09375,6.92708333 3.44791667,6.875 3.96875,6.8125 C4.48958333,6.75 4.88541667,6.70833333 5.15625,6.6875 L5.15625,6.6875 L4.75,6.40625 C4.5625,6.46875 4.24479167,6.53125 3.796875,6.59375 C3.34895833,6.65625 2.95833333,6.69791667 2.625,6.71875 L2.625,6.71875 L2.90625,6.96875 Z M1.75,9.625 C1.95833333,9.60416667 2.69791667,9.53645833 3.96875,9.421875 C5.23958333,9.30729167 6.125,9.23958333 6.625,9.21875 L6.625,9.21875 L6.15625,8.90625 C6.05208333,8.94791667 5.54166667,9.02083333 4.625,9.125 C4.79166667,8.70833333 4.93229167,8.36458333 5.046875,8.09375 C5.16145833,7.82291667 5.28125,7.64583333 5.40625,7.5625 L5.40625,7.5625 L5.0625,6.9375 L4.9375,6.96875 C4.9375,7.21875 4.89583333,7.53125 4.8125,7.90625 C4.72916667,8.28125 4.60416667,8.6875 4.4375,9.125 C2.79166667,9.27083333 1.75,9.34375 1.3125,9.34375 L1.3125,9.34375 L1.75,9.625 Z M3.8125,8.71875 C3.97916667,8.57291667 4.09375,8.42708333 4.15625,8.28125 C4.09375,8.05208333 3.9375,7.6875 3.6875,7.1875 L3.6875,7.1875 L3.53125,7.25 C3.69791667,7.85416667 3.79166667,8.34375 3.8125,8.71875 Z M2.84375,8.875 C2.98958333,8.6875 3.09375,8.51041667 3.15625,8.34375 C3.01041667,8.13541667 2.78125,7.78125 2.46875,7.28125 L2.46875,7.28125 L2.34375,7.34375 C2.61458333,8.05208333 2.78125,8.5625 2.84375,8.875 Z M9.65625,9.8125 C10.71875,9.47916667 11.65625,8.90625 12.46875,8.09375 C12.6979167,8.28125 13.0104167,8.58333333 13.40625,9 C13.7604167,9.375 13.9270833,9.58333333 13.90625,9.625 C14.3854167,9.54166667 14.875,9.48958333 15.375,9.46875 L15.375,9.46875 L15.375,9.3125 C14.8541667,9.3125 14.4635417,9.27604167 14.203125,9.203125 C13.9427083,9.13020833 13.4166667,8.6875 12.625,7.875 C13.0208333,7.375 13.375,6.75 13.6875,6 L13.6875,6 L13.9375,5.875 L13.5625,5.5 L13.375,5.78125 C12.3541667,5.92708333 11.6875,6 11.375,6 C11.5208333,5.72916667 11.6354167,5.45833333 11.71875,5.1875 C13.5520833,5 14.6770833,4.89583333 15.09375,4.875 L15.09375,4.875 L14.6875,4.53125 C14.625,4.59375 13.6666667,4.70833333 11.8125,4.875 C12,4.25 12.1302083,3.78125 12.203125,3.46875 C12.2760417,3.15625 12.3645833,2.98958333 12.46875,2.96875 L12.46875,2.96875 L11.9375,2.4375 L11.875,2.5 C11.9791667,2.66666667 11.9947917,2.953125 11.921875,3.359375 C11.8489583,3.765625 11.71875,4.28125 11.53125,4.90625 L11.53125,4.90625 L10.125,5.03125 C10.25,4.57291667 10.34375,4.23958333 10.40625,4.03125 C10.46875,3.82291667 10.5416667,3.70833333 10.625,3.6875 L10.625,3.6875 L10.21875,3.28125 L10.09375,3.34375 C10.1770833,3.46875 10.1927083,3.65625 10.140625,3.90625 C10.0885417,4.15625 9.97916667,4.53125 9.8125,5.03125 L9.8125,5.03125 L9.59375,5.0625 L9.84375,5.5 L10.03125,5.34375 L11.40625,5.1875 C11.1145833,6 10.7395833,6.71354167 10.28125,7.328125 C9.82291667,7.94270833 9.3125,8.48958333 8.75,8.96875 L8.75,8.96875 L8.8125,9.09375 C9.79166667,8.34375 10.53125,7.55208333 11.03125,6.71875 C11.1770833,6.71875 11.3385417,6.80729167 11.515625,6.984375 C11.6927083,7.16145833 11.9479167,7.45833333 12.28125,7.875 C11.6145833,8.64583333 10.71875,9.26041667 9.59375,9.71875 L9.59375,9.71875 L9.65625,9.8125 Z M14.0625,4.21875 C14.125,4.05208333 14.1770833,3.88541667 14.21875,3.71875 C13.84375,3.44791667 13.4479167,3.16666667 13.03125,2.875 L13.03125,2.875 L12.96875,2.96875 C13.4270833,3.42708333 13.7916667,3.84375 14.0625,4.21875 Z M12.46875,7.6875 C12.21875,7.47916667 12.0052083,7.24479167 11.828125,6.984375 C11.6510417,6.72395833 11.5833333,6.58333333 11.625,6.5625 L11.625,6.5625 L11.09375,6.5625 L11.3125,6.15625 L11.6875,6.34375 C11.8333333,6.26041667 12.375,6.16666667 13.3125,6.0625 C13.1041667,6.60416667 12.8229167,7.14583333 12.46875,7.6875 Z M16.75,9.6875 C18.125,8.75 19.125,7.28125 19.75,5.28125 C21.1875,7.73958333 21.9791667,9.11458333 22.125,9.40625 C22.4583333,9.32291667 22.9166667,9.28125 23.5,9.28125 L23.5,9.28125 L23.5,9.125 C22.7916667,9.04166667 22.3541667,8.90625 22.1875,8.71875 C22.0208333,8.53125 21.7395833,8.125 21.34375,7.5 C20.9479167,6.875 20.4375,6.03125 19.8125,4.96875 C19.9166667,4.42708333 19.9947917,4.03125 20.046875,3.78125 C20.0989583,3.53125 20.1770833,3.38541667 20.28125,3.34375 L20.28125,3.34375 L19.8125,2.65625 L19.71875,2.78125 C19.8229167,2.94791667 19.7604167,3.578125 19.53125,4.671875 C19.3020833,5.765625 18.9322917,6.72916667 18.421875,7.5625 C17.9114583,8.39583333 17.3229167,9.05208333 16.65625,9.53125 L16.65625,9.53125 L16.75,9.6875 Z M25.65625,7.125 C25.8229167,7.125 25.9583333,7.07291667 26.0625,6.96875 C26.1666667,6.86458333 26.21875,6.73958333 26.21875,6.59375 C26.21875,6.42708333 26.1666667,6.29166667 26.0625,6.1875 C25.9583333,6.08333333 25.8229167,6.03125 25.65625,6.03125 C25.5104167,6.03125 25.3854167,6.08333333 25.28125,6.1875 C25.1770833,6.29166667 25.125,6.42708333 25.125,6.59375 C25.125,6.73958333 25.1770833,6.86458333 25.28125,6.96875 C25.3854167,7.07291667 25.5104167,7.125 25.65625,7.125 Z M25.65625,9.15625 C25.8229167,9.15625 25.9583333,9.10416667 26.0625,9 C26.1666667,8.89583333 26.21875,8.77083333 26.21875,8.625 C26.21875,8.45833333 26.1666667,8.32291667 26.0625,8.21875 C25.9583333,8.11458333 25.8229167,8.0625 25.65625,8.0625 C25.5104167,8.0625 25.3854167,8.11458333 25.28125,8.21875 C25.1770833,8.32291667 25.125,8.45833333 25.125,8.625 C25.125,8.77083333 25.1770833,8.89583333 25.28125,9 C25.3854167,9.10416667 25.5104167,9.15625 25.65625,9.15625 Z" id="签发人："></path>
                    <path d="M32.32,6.552 C32.4266667,6.552 32.472,6.47733333 32.456,6.328 C32.7546667,6.33866667 32.9906667,6.328 33.164,6.296 C33.3373333,6.264 33.452,6.248 33.508,6.248 C33.564,6.248 33.6093333,6.29066667 33.644,6.376 L33.67275,6.432 C33.70425,6.48 33.744,6.504 33.792,6.504 C33.84,6.504 33.8866667,6.47333333 33.932,6.412 C33.9773333,6.35066667 34.012,6.26133333 34.036,6.144 C34.06,6.02666667 34.076,5.90133333 34.084,5.768 C34.092,5.63466667 34.1173333,5.208 34.16,4.488 C34.6666667,4.44 34.9746667,4.416 35.084,4.416 C35.1933333,4.416 35.2893333,4.41466667 35.372,4.412 C35.4546667,4.40933333 35.5186667,4.39466667 35.564,4.368 C35.6093333,4.34133333 35.632,4.3 35.632,4.244 C35.632,4.188 35.5786667,4.12533333 35.472,4.056 C35.3653333,3.98666667 35.2133333,3.952 35.016,3.952 C34.9573333,3.952 34.8973333,3.956 34.836,3.964 C34.7746667,3.972 34.56,4.016 34.192,4.096 C34.224,3.82933333 34.2546667,3.652 34.284,3.564 C34.3133333,3.476 34.328,3.4 34.328,3.336 C34.328,3.272 34.3053333,3.22 34.26,3.18 C34.2146667,3.14 34.1106667,3.09333333 33.948,3.04 C33.7853333,2.98666667 33.6666667,2.96 33.592,2.96 C33.5173333,2.96 33.48,2.98666667 33.48,3.04 C33.48,3.09333333 33.5146667,3.18266667 33.584,3.308 C33.6533333,3.43333333 33.696,3.728 33.712,4.192 L33.712,4.192 L32.424,4.424 C32.4346667,4.22133333 32.444,4.088 32.452,4.024 C32.46,3.96 32.464,3.90533333 32.464,3.86 C32.464,3.81466667 32.448,3.772 32.416,3.732 C32.384,3.692 32.2866667,3.64533333 32.124,3.592 C31.9613333,3.53866667 31.8586667,3.512 31.816,3.512 C31.7306667,3.512 31.688,3.54933333 31.688,3.624 C31.688,3.66133333 31.72,3.72266667 31.784,3.808 C31.848,3.89333333 31.9013333,3.98666667 31.944,4.088 C31.9866667,4.18933333 32.016,4.32 32.032,4.48 C31.5146667,4.55466667 31.1773333,4.592 31.02,4.592 C30.8626667,4.592 30.784,4.61866667 30.784,4.672 C30.784,4.704 30.8226667,4.74933333 30.9,4.808 C30.9773333,4.86666667 31.0893333,4.896 31.236,4.896 C31.3826667,4.896 31.656,4.85333333 32.056,4.768 C32.088,5.22133333 32.104,5.67466667 32.104,6.128 C32.104,6.208 32.132,6.29866667 32.188,6.4 C32.244,6.50133333 32.288,6.552 32.32,6.552 Z M32.448,6.16 C32.4373333,6.01066667 32.4266667,5.784 32.416,5.48 C32.5386667,5.512 32.6773333,5.528 32.832,5.528 C32.9866667,5.528 33.1226667,5.508 33.24,5.468 C33.3573333,5.428 33.416,5.38266667 33.416,5.332 C33.416,5.28133333 33.3946667,5.24 33.352,5.208 C33.3093333,5.176 33.224,5.16 33.096,5.16 C32.968,5.16 32.7413333,5.22133333 32.416,5.344 L32.416,5.344 L32.416,4.696 C32.6026667,4.664 33.0346667,4.61066667 33.712,4.536 C33.712,4.81866667 33.7026667,5.11733333 33.684,5.432 C33.6653333,5.74666667 33.6466667,5.924 33.628,5.964 C33.6093333,6.004 33.5626667,6.024 33.488,6.024 L33.488,6.024 L33.368,6.016 C33.2613333,6.016 32.9546667,6.064 32.448,6.16 Z M33.056,10.176 C33.2,10.176 33.272,9.95733333 33.272,9.52 C33.272,9.424 33.2626667,9.26266667 33.244,9.036 C33.2253333,8.80933333 33.216,8.32 33.216,7.568 C33.6426667,8.07466667 34.0146667,8.49066667 34.332,8.816 C34.6493333,9.14133333 34.852,9.33066667 34.94,9.384 C35.028,9.43733333 35.176,9.464 35.384,9.464 C35.592,9.464 35.848,9.44533333 36.152,9.408 C36.456,9.37066667 36.6306667,9.34266667 36.676,9.324 C36.7213333,9.30533333 36.744,9.28533333 36.744,9.264 C36.744,9.21066667 36.6693333,9.168 36.52,9.136 C35.8426667,8.992 35.2706667,8.78266667 34.804,8.508 C34.3373333,8.23333333 33.8053333,7.82666667 33.208,7.288 C33.8106667,7.21866667 34.3973333,7.184 34.968,7.184 C35.1973333,7.184 35.3653333,7.18933333 35.472,7.2 C35.5786667,7.21066667 35.656,7.216 35.704,7.216 C35.9653333,7.216 36.096,7.15466667 36.096,7.032 C36.096,6.96266667 36.036,6.88533333 35.916,6.8 C35.796,6.71466667 35.6493333,6.672 35.476,6.672 C35.3026667,6.672 35.1213333,6.69466667 34.932,6.74 C34.7426667,6.78533333 34.1733333,6.88266667 33.224,7.032 C33.224,6.94133333 33.2293333,6.87066667 33.24,6.82 C33.2506667,6.76933333 33.256,6.73066667 33.256,6.704 C33.256,6.624 33.1933333,6.56133333 33.068,6.516 C32.9426667,6.47066667 32.856,6.448 32.808,6.448 C32.7226667,6.448 32.68,6.47466667 32.68,6.528 C32.68,6.58133333 32.6986667,6.63733333 32.736,6.696 C32.8053333,6.79733333 32.848,6.92533333 32.864,7.08 C31.7173333,7.24 31.0133333,7.32 30.752,7.32 C30.4906667,7.32 30.36,7.34933333 30.36,7.408 C30.36,7.45066667 30.4213333,7.50666667 30.544,7.576 C30.6666667,7.64533333 30.7893333,7.68 30.912,7.68 C31.0346667,7.68 31.2066667,7.64266667 31.428,7.568 C31.6493333,7.49333333 32.056,7.41866667 32.648,7.344 C32.4293333,7.69066667 32.12,8.032 31.72,8.368 C31.32,8.704 30.8826667,8.99733333 30.408,9.248 C30.3066667,9.30133333 30.256,9.34533333 30.256,9.38 C30.256,9.41466667 30.2853333,9.432 30.344,9.432 C30.4613333,9.432 30.684,9.35866667 31.012,9.212 C31.34,9.06533333 31.6786667,8.852 32.028,8.572 C32.3773333,8.292 32.664,7.98133333 32.888,7.64 L32.888,7.64 L32.896,8.272 C32.896,8.43733333 32.8893333,8.61333333 32.876,8.8 C32.8626667,8.98666667 32.8386667,9.12933333 32.804,9.228 C32.7693333,9.32666667 32.752,9.43066667 32.752,9.54 C32.752,9.64933333 32.784,9.78266667 32.848,9.94 C32.912,10.0973333 32.9813333,10.176 33.056,10.176 Z M40.32,6.552 C40.4266667,6.552 40.472,6.47733333 40.456,6.328 C40.7546667,6.33866667 40.9906667,6.328 41.164,6.296 C41.3373333,6.264 41.452,6.248 41.508,6.248 C41.564,6.248 41.6093333,6.29066667 41.644,6.376 L41.67275,6.432 C41.70425,6.48 41.744,6.504 41.792,6.504 C41.84,6.504 41.8866667,6.47333333 41.932,6.412 C41.9773333,6.35066667 42.012,6.26133333 42.036,6.144 C42.06,6.02666667 42.076,5.90133333 42.084,5.768 C42.092,5.63466667 42.1173333,5.208 42.16,4.488 C42.6666667,4.44 42.9746667,4.416 43.084,4.416 C43.1933333,4.416 43.2893333,4.41466667 43.372,4.412 C43.4546667,4.40933333 43.5186667,4.39466667 43.564,4.368 C43.6093333,4.34133333 43.632,4.3 43.632,4.244 C43.632,4.188 43.5786667,4.12533333 43.472,4.056 C43.3653333,3.98666667 43.2133333,3.952 43.016,3.952 C42.9573333,3.952 42.8973333,3.956 42.836,3.964 C42.7746667,3.972 42.56,4.016 42.192,4.096 C42.224,3.82933333 42.2546667,3.652 42.284,3.564 C42.3133333,3.476 42.328,3.4 42.328,3.336 C42.328,3.272 42.3053333,3.22 42.26,3.18 C42.2146667,3.14 42.1106667,3.09333333 41.948,3.04 C41.7853333,2.98666667 41.6666667,2.96 41.592,2.96 C41.5173333,2.96 41.48,2.98666667 41.48,3.04 C41.48,3.09333333 41.5146667,3.18266667 41.584,3.308 C41.6533333,3.43333333 41.696,3.728 41.712,4.192 L41.712,4.192 L40.424,4.424 C40.4346667,4.22133333 40.444,4.088 40.452,4.024 C40.46,3.96 40.464,3.90533333 40.464,3.86 C40.464,3.81466667 40.448,3.772 40.416,3.732 C40.384,3.692 40.2866667,3.64533333 40.124,3.592 C39.9613333,3.53866667 39.8586667,3.512 39.816,3.512 C39.7306667,3.512 39.688,3.54933333 39.688,3.624 C39.688,3.66133333 39.72,3.72266667 39.784,3.808 C39.848,3.89333333 39.9013333,3.98666667 39.944,4.088 C39.9866667,4.18933333 40.016,4.32 40.032,4.48 C39.5146667,4.55466667 39.1773333,4.592 39.02,4.592 C38.8626667,4.592 38.784,4.61866667 38.784,4.672 C38.784,4.704 38.8226667,4.74933333 38.9,4.808 C38.9773333,4.86666667 39.0893333,4.896 39.236,4.896 C39.3826667,4.896 39.656,4.85333333 40.056,4.768 C40.088,5.22133333 40.104,5.67466667 40.104,6.128 C40.104,6.208 40.132,6.29866667 40.188,6.4 C40.244,6.50133333 40.288,6.552 40.32,6.552 Z M40.448,6.16 C40.4373333,6.01066667 40.4266667,5.784 40.416,5.48 C40.5386667,5.512 40.6773333,5.528 40.832,5.528 C40.9866667,5.528 41.1226667,5.508 41.24,5.468 C41.3573333,5.428 41.416,5.38266667 41.416,5.332 C41.416,5.28133333 41.3946667,5.24 41.352,5.208 C41.3093333,5.176 41.224,5.16 41.096,5.16 C40.968,5.16 40.7413333,5.22133333 40.416,5.344 L40.416,5.344 L40.416,4.696 C40.6026667,4.664 41.0346667,4.61066667 41.712,4.536 C41.712,4.81866667 41.7026667,5.11733333 41.684,5.432 C41.6653333,5.74666667 41.6466667,5.924 41.628,5.964 C41.6093333,6.004 41.5626667,6.024 41.488,6.024 L41.488,6.024 L41.368,6.016 C41.2613333,6.016 40.9546667,6.064 40.448,6.16 Z M41.056,10.176 C41.2,10.176 41.272,9.95733333 41.272,9.52 C41.272,9.424 41.2626667,9.26266667 41.244,9.036 C41.2253333,8.80933333 41.216,8.32 41.216,7.568 C41.6426667,8.07466667 42.0146667,8.49066667 42.332,8.816 C42.6493333,9.14133333 42.852,9.33066667 42.94,9.384 C43.028,9.43733333 43.176,9.464 43.384,9.464 C43.592,9.464 43.848,9.44533333 44.152,9.408 C44.456,9.37066667 44.6306667,9.34266667 44.676,9.324 C44.7213333,9.30533333 44.744,9.28533333 44.744,9.264 C44.744,9.21066667 44.6693333,9.168 44.52,9.136 C43.8426667,8.992 43.2706667,8.78266667 42.804,8.508 C42.3373333,8.23333333 41.8053333,7.82666667 41.208,7.288 C41.8106667,7.21866667 42.3973333,7.184 42.968,7.184 C43.1973333,7.184 43.3653333,7.18933333 43.472,7.2 C43.5786667,7.21066667 43.656,7.216 43.704,7.216 C43.9653333,7.216 44.096,7.15466667 44.096,7.032 C44.096,6.96266667 44.036,6.88533333 43.916,6.8 C43.796,6.71466667 43.6493333,6.672 43.476,6.672 C43.3026667,6.672 43.1213333,6.69466667 42.932,6.74 C42.7426667,6.78533333 42.1733333,6.88266667 41.224,7.032 C41.224,6.94133333 41.2293333,6.87066667 41.24,6.82 C41.2506667,6.76933333 41.256,6.73066667 41.256,6.704 C41.256,6.624 41.1933333,6.56133333 41.068,6.516 C40.9426667,6.47066667 40.856,6.448 40.808,6.448 C40.7226667,6.448 40.68,6.47466667 40.68,6.528 C40.68,6.58133333 40.6986667,6.63733333 40.736,6.696 C40.8053333,6.79733333 40.848,6.92533333 40.864,7.08 C39.7173333,7.24 39.0133333,7.32 38.752,7.32 C38.4906667,7.32 38.36,7.34933333 38.36,7.408 C38.36,7.45066667 38.4213333,7.50666667 38.544,7.576 C38.6666667,7.64533333 38.7893333,7.68 38.912,7.68 C39.0346667,7.68 39.2066667,7.64266667 39.428,7.568 C39.6493333,7.49333333 40.056,7.41866667 40.648,7.344 C40.4293333,7.69066667 40.12,8.032 39.72,8.368 C39.32,8.704 38.8826667,8.99733333 38.408,9.248 C38.3066667,9.30133333 38.256,9.34533333 38.256,9.38 C38.256,9.41466667 38.2853333,9.432 38.344,9.432 C38.4613333,9.432 38.684,9.35866667 39.012,9.212 C39.34,9.06533333 39.6786667,8.852 40.028,8.572 C40.3773333,8.292 40.664,7.98133333 40.888,7.64 L40.888,7.64 L40.896,8.272 C40.896,8.43733333 40.8893333,8.61333333 40.876,8.8 C40.8626667,8.98666667 40.8386667,9.12933333 40.804,9.228 C40.7693333,9.32666667 40.752,9.43066667 40.752,9.54 C40.752,9.64933333 40.784,9.78266667 40.848,9.94 C40.912,10.0973333 40.9813333,10.176 41.056,10.176 Z" id="某某"></path>
                </g>
                <rect id="矩形" fill="#DA4141" x="0" y="16" width="124" height="1"></rect>
            </g>
            <path d="M31.5625,51 L31.5625,50.53125 C30.4166667,50.4791667 29.8697917,50.1927083 29.921875,49.671875 C29.765625,49.515625 30.390625,48.5 31.796875,46.625 L31.796875,46.625 L32.578125,45.609375 L34.609375,48.8125 C34.765625,49.125 34.8958333,49.4635417 35,49.828125 C35.0520833,50.296875 34.53125,50.53125 33.4375,50.53125 L33.4375,50.53125 L33.4375,51 L40.234375,51 L40.234375,50.53125 C39.7135417,50.6354167 39.0625,50.0625 38.28125,48.8125 L38.28125,48.8125 L34.6875,43.109375 C37.1875,39.203125 38.9583333,37.484375 40,37.953125 L40,37.953125 L40,37.484375 L35,37.484375 L35,37.953125 C35.0520833,38.0052083 35.1041667,38.03125 35.15625,38.03125 C36.0416667,38.0833333 36.484375,38.2916667 36.484375,38.65625 C36.8489583,38.6041667 36.0677083,39.8541667 34.140625,42.40625 L34.140625,42.40625 L32.265625,39.359375 C32.0052083,39.1510417 31.9010417,38.9166667 31.953125,38.65625 C31.796875,38.1875 32.3177083,37.953125 33.515625,37.953125 L33.515625,37.953125 L33.515625,37.484375 L26.5625,37.484375 L26.5625,37.953125 C27.1354167,38.0052083 27.6822917,38.3958333 28.203125,39.125 L28.203125,39.125 L32.1875,44.984375 L28.671875,49.359375 C28.203125,50.0364583 27.5,50.4270833 26.5625,50.53125 L26.5625,50.53125 L26.5625,51 L31.5625,51 Z M45.9375,51 L45.9375,50.53125 C44.7916667,50.4791667 44.2447917,50.1927083 44.296875,49.671875 C44.140625,49.515625 44.765625,48.5 46.171875,46.625 L46.171875,46.625 L46.953125,45.609375 L48.984375,48.8125 C49.140625,49.125 49.2708333,49.4635417 49.375,49.828125 C49.4270833,50.296875 48.90625,50.53125 47.8125,50.53125 L47.8125,50.53125 L47.8125,51 L54.609375,51 L54.609375,50.53125 C54.0885417,50.6354167 53.4375,50.0625 52.65625,48.8125 L52.65625,48.8125 L49.0625,43.109375 C51.5625,39.203125 53.3333333,37.484375 54.375,37.953125 L54.375,37.953125 L54.375,37.484375 L49.375,37.484375 L49.375,37.953125 C49.4270833,38.0052083 49.4791667,38.03125 49.53125,38.03125 C50.4166667,38.0833333 50.859375,38.2916667 50.859375,38.65625 C51.2239583,38.6041667 50.4427083,39.8541667 48.515625,42.40625 L48.515625,42.40625 L46.640625,39.359375 C46.3802083,39.1510417 46.2760417,38.9166667 46.328125,38.65625 C46.171875,38.1875 46.6927083,37.953125 47.890625,37.953125 L47.890625,37.953125 L47.890625,37.484375 L40.9375,37.484375 L40.9375,37.953125 C41.5104167,38.0052083 42.0572917,38.3958333 42.578125,39.125 L42.578125,39.125 L46.5625,44.984375 L43.046875,49.359375 C42.578125,50.0364583 41.875,50.4270833 40.9375,50.53125 L40.9375,50.53125 L40.9375,51 L45.9375,51 Z M60.3125,51 L60.3125,50.53125 C59.1666667,50.4791667 58.6197917,50.1927083 58.671875,49.671875 C58.515625,49.515625 59.140625,48.5 60.546875,46.625 L60.546875,46.625 L61.328125,45.609375 L63.359375,48.8125 C63.515625,49.125 63.6458333,49.4635417 63.75,49.828125 C63.8020833,50.296875 63.28125,50.53125 62.1875,50.53125 L62.1875,50.53125 L62.1875,51 L68.984375,51 L68.984375,50.53125 C68.4635417,50.6354167 67.8125,50.0625 67.03125,48.8125 L67.03125,48.8125 L63.4375,43.109375 C65.9375,39.203125 67.7083333,37.484375 68.75,37.953125 L68.75,37.953125 L68.75,37.484375 L63.75,37.484375 L63.75,37.953125 C63.8020833,38.0052083 63.8541667,38.03125 63.90625,38.03125 C64.7916667,38.0833333 65.234375,38.2916667 65.234375,38.65625 C65.5989583,38.6041667 64.8177083,39.8541667 62.890625,42.40625 L62.890625,42.40625 L61.015625,39.359375 C60.7552083,39.1510417 60.6510417,38.9166667 60.703125,38.65625 C60.546875,38.1875 61.0677083,37.953125 62.265625,37.953125 L62.265625,37.953125 L62.265625,37.484375 L55.3125,37.484375 L55.3125,37.953125 C55.8854167,38.0052083 56.4322917,38.3958333 56.953125,39.125 L56.953125,39.125 L60.9375,44.984375 L57.421875,49.359375 C56.953125,50.0364583 56.25,50.4270833 55.3125,50.53125 L55.3125,50.53125 L55.3125,51 L60.3125,51 Z M74.6875,51 L74.6875,50.53125 C73.5416667,50.4791667 72.9947917,50.1927083 73.046875,49.671875 C72.890625,49.515625 73.515625,48.5 74.921875,46.625 L74.921875,46.625 L75.703125,45.609375 L77.734375,48.8125 C77.890625,49.125 78.0208333,49.4635417 78.125,49.828125 C78.1770833,50.296875 77.65625,50.53125 76.5625,50.53125 L76.5625,50.53125 L76.5625,51 L83.359375,51 L83.359375,50.53125 C82.8385417,50.6354167 82.1875,50.0625 81.40625,48.8125 L81.40625,48.8125 L77.8125,43.109375 C80.3125,39.203125 82.0833333,37.484375 83.125,37.953125 L83.125,37.953125 L83.125,37.484375 L78.125,37.484375 L78.125,37.953125 C78.1770833,38.0052083 78.2291667,38.03125 78.28125,38.03125 C79.1666667,38.0833333 79.609375,38.2916667 79.609375,38.65625 C79.9739583,38.6041667 79.1927083,39.8541667 77.265625,42.40625 L77.265625,42.40625 L75.390625,39.359375 C75.1302083,39.1510417 75.0260417,38.9166667 75.078125,38.65625 C74.921875,38.1875 75.4427083,37.953125 76.640625,37.953125 L76.640625,37.953125 L76.640625,37.484375 L69.6875,37.484375 L69.6875,37.953125 C70.2604167,38.0052083 70.8072917,38.3958333 71.328125,39.125 L71.328125,39.125 L75.3125,44.984375 L71.796875,49.359375 C71.328125,50.0364583 70.625,50.4270833 69.6875,50.53125 L69.6875,50.53125 L69.6875,51 L74.6875,51 Z M92.265625,38.03125 C92.578125,38.7083333 93.0989583,38.8645833 93.828125,38.5 C94.5052083,38.03125 94.7916667,37.40625 94.6875,36.625 C94.3229167,35.4270833 93.0208333,34.671875 90.78125,34.359375 C90.5729167,34.4635417 90.546875,34.5416667 90.703125,34.59375 C91.4322917,35.1145833 91.8489583,35.921875 91.953125,37.015625 C92.0052083,37.5364583 92.109375,37.875 92.265625,38.03125 Z M100.78125,53.5 C100.9375,53.5 101.041667,53.421875 101.09375,53.265625 C101.458333,51.9114583 102.161458,51.1041667 103.203125,50.84375 C103.255208,50.7916667 103.229167,50.7135417 103.125,50.609375 C99.9479167,50.5572917 97.2916667,49.7760417 95.15625,48.265625 C96.5625,46.4427083 97.5,44.0729167 97.96875,41.15625 C97.96875,41.1041667 98.0729167,41 98.28125,40.84375 C98.4375,40.7395833 98.5416667,40.6354167 98.59375,40.53125 C98.6979167,40.4270833 98.6979167,40.3229167 98.59375,40.21875 C98.1770833,40.0104167 97.7864583,39.828125 97.421875,39.671875 L97.421875,39.671875 L103.125,39.671875 C103.28125,39.5677083 103.307292,39.4114583 103.203125,39.203125 C102.786458,38.7864583 102.005208,38.1875 100.859375,37.40625 L100.859375,37.40625 L100.625,37.40625 C100.3125,37.6666667 99.8958333,38.1614583 99.375,38.890625 C99.2708333,38.9947917 99.1927083,39.0989583 99.140625,39.203125 L99.140625,39.203125 L85.078125,39.203125 C84.8177083,39.203125 84.5833333,39.1770833 84.375,39.125 L84.375,39.125 L84.84375,39.671875 L84.84375,39.671875 L89.375,39.671875 C89.5833333,43.109375 90.6510417,46.0260417 92.578125,48.421875 C90.5989583,50.8177083 87.8645833,52.4583333 84.375,53.34375 C84.1666667,53.34375 84.1666667,53.3958333 84.375,53.5 C88.28125,53.0833333 91.40625,51.859375 93.75,49.828125 C95.7291667,51.5989583 98.0729167,52.8229167 100.78125,53.5 Z M93.59375,47.015625 C91.6145833,45.2447917 90.3645833,42.796875 89.84375,39.671875 L89.84375,39.671875 L95.625,39.671875 C95.46875,42.4322917 94.7916667,44.8802083 93.59375,47.015625 Z M115.546875,52.71875 C116.380208,53.1875 117.135417,53.03125 117.8125,52.25 C117.8125,51.9895833 117.786458,51.5989583 117.734375,51.078125 L117.734375,51.078125 L117.734375,46.078125 L123.515625,46.078125 C123.671875,46.078125 123.75,45.9739583 123.75,45.765625 C123.59375,45.5052083 122.890625,44.984375 121.640625,44.203125 C121.536458,44.1510417 121.484375,44.0989583 121.484375,44.046875 L121.484375,44.046875 L121.171875,44.046875 C120.963542,44.203125 120.703125,44.515625 120.390625,44.984375 C120.130208,45.3489583 119.947917,45.5833333 119.84375,45.6875 L119.84375,45.6875 L117.734375,45.6875 L117.734375,41.078125 L122.734375,41.078125 C122.890625,41.078125 122.942708,40.9739583 122.890625,40.765625 C122.682292,40.4010417 121.927083,39.828125 120.625,39.046875 L120.625,39.046875 L120.390625,39.046875 C120.130208,39.2552083 119.6875,39.7760417 119.0625,40.609375 L119.0625,40.609375 L119.0625,40.6875 L117.734375,40.6875 L117.734375,35.921875 C117.994792,35.765625 118.177083,35.6354167 118.28125,35.53125 L118.28125,35.53125 L118.28125,35.21875 C117.65625,35.0625 117.109375,34.9322917 116.640625,34.828125 C116.119792,34.7239583 115.78125,34.671875 115.625,34.671875 C115.520833,34.7239583 115.494792,34.75 115.546875,34.75 L115.546875,34.75 L115.625,35.921875 L115.625,40.6875 L113.4375,40.6875 C113.645833,40.0625 113.854167,39.3854167 114.0625,38.65625 C114.0625,38.5 114.21875,38.34375 114.53125,38.1875 C114.635417,38.1354167 114.713542,38.0833333 114.765625,38.03125 C114.817708,37.9270833 114.817708,37.8229167 114.765625,37.71875 C114.244792,37.5104167 113.723958,37.3020833 113.203125,37.09375 C112.890625,36.9895833 112.604167,36.859375 112.34375,36.703125 C112.1875,36.7552083 112.109375,36.8072917 112.109375,36.859375 C111.901042,40.0364583 111.432292,42.6666667 110.703125,44.75 C110.755208,44.90625 110.833333,44.9583333 110.9375,44.90625 C111.770833,44.0208333 112.552083,42.7447917 113.28125,41.078125 L113.28125,41.078125 L115.625,41.078125 L115.625,45.6875 L110.703125,45.6875 C110.442708,45.6875 110.208333,45.6614583 110,45.609375 L110,45.609375 L110.46875,46.15625 C110.885417,46.15625 111.302083,46.1302083 111.71875,46.078125 L111.71875,46.078125 L115.625,46.078125 L115.625,49.671875 C115.572917,50.2447917 115.520833,50.84375 115.46875,51.46875 C115.416667,52.1458333 115.442708,52.5625 115.546875,52.71875 Z M107.1875,52.796875 C107.864583,53.1614583 108.541667,53.03125 109.21875,52.40625 C109.21875,52.1979167 109.192708,51.7291667 109.140625,51 L109.140625,51 L109.140625,40.6875 C109.140625,40.6875 109.159375,40.678125 109.196875,40.659375 L109.296875,40.609375 C109.453125,40.5052083 109.583333,40.4010417 109.6875,40.296875 L109.6875,40.296875 L109.6875,39.984375 C109.635417,39.9322917 109.401042,39.7760417 108.984375,39.515625 C109.453125,38.6822917 109.869792,37.8229167 110.234375,36.9375 C110.651042,36.625 110.963542,36.46875 111.171875,36.46875 C111.328125,36.3645833 111.354167,36.234375 111.25,36.078125 C110.78125,35.8697917 110.130208,35.5833333 109.296875,35.21875 C109.036458,35.1145833 108.828125,35.0104167 108.671875,34.90625 C108.463542,34.8541667 108.333333,34.90625 108.28125,35.0625 C107.1875,39.3333333 105.807292,42.6666667 104.140625,45.0625 C104.088542,45.1145833 104.140625,45.1666667 104.296875,45.21875 C105.286458,44.3854167 106.276042,43.3177083 107.265625,42.015625 L107.265625,42.015625 L107.265625,49.828125 C107.213542,50.7135417 107.161458,51.3645833 107.109375,51.78125 C107.057292,52.3020833 107.083333,52.640625 107.1875,52.796875 Z" id="XXXX文件" fill="#DA4141" fill-rule="nonzero"></path>
            <path d="M29.3125,97.875 L29.6875,97.5 L26.875,94.6875 L29.6875,91.875 L29.3125,91.5 L26.5,94.3125 L23.6875,91.5 L23.265625,91.875 L26.125,94.6875 L23.265625,97.5 L23.6875,97.875 L26.5,95.0625 L29.3125,97.875 Z M41.3125,97.875 L41.6875,97.5 L38.875,94.6875 L41.6875,91.875 L41.3125,91.5 L38.5,94.3125 L35.6875,91.5 L35.265625,91.875 L38.125,94.6875 L35.265625,97.5 L35.6875,97.875 L38.5,95.0625 L41.3125,97.875 Z M44.78125,100.546875 C48.375,99.953125 50.265625,98.328125 50.453125,95.671875 L50.453125,95.671875 L50.640625,95.671875 C51.421875,98.109375 52.71875,99.6875 54.53125,100.40625 C54.65625,100.4375 54.75,100.421875 54.8125,100.359375 C54.9375,99.640625 55.375,99.1875 56.125,99 C56.25,98.9375 56.25,98.84375 56.125,98.71875 C53.5,98.75 51.796875,97.734375 51.015625,95.671875 L51.015625,95.671875 L55.984375,95.671875 C56.109375,95.640625 56.140625,95.546875 56.078125,95.390625 C55.703125,95.078125 55.234375,94.71875 54.671875,94.3125 L54.671875,94.3125 L54.484375,94.3125 C54.140625,94.65625 53.859375,95.03125 53.640625,95.4375 L53.640625,95.4375 L50.5,95.4375 L50.5,95.4375 L50.5,93.1875 C50.71875,93 50.8125,92.875 50.78125,92.8125 L50.78125,92.8125 L55.375,92.8125 C55.46875,92.78125 55.484375,92.6875 55.421875,92.53125 C55.171875,92.28125 54.703125,91.921875 54.015625,91.453125 L54.015625,91.453125 L53.875,91.453125 C53.53125,91.796875 53.234375,92.171875 52.984375,92.578125 L52.984375,92.578125 L50.78125,92.578125 C51,92.390625 51.359375,92.046875 51.859375,91.546875 C52.328125,91.046875 52.6875,90.6875 52.9375,90.46875 C53.09375,90.4375 53.328125,90.40625 53.640625,90.375 C53.765625,90.28125 53.78125,90.171875 53.6875,90.046875 C53.09375,89.640625 52.546875,89.28125 52.046875,88.96875 C51.953125,88.9375 51.859375,88.953125 51.765625,89.015625 C51.390625,90.046875 50.890625,91.234375 50.265625,92.578125 L50.265625,92.578125 L45.671875,92.578125 C45.515625,92.578125 45.375,92.5625 45.25,92.53125 L45.25,92.53125 L45.53125,92.859375 C45.78125,92.859375 46.03125,92.84375 46.28125,92.8125 L46.28125,92.8125 L49.140625,92.8125 L49.140625,94.828125 C49.140625,95.046875 49.125,95.25 49.09375,95.4375 L49.09375,95.4375 L45.15625,95.4375 C45.03125,95.4375 44.90625,95.421875 44.78125,95.390625 L44.78125,95.390625 L45.015625,95.71875 C45.484375,95.71875 45.75,95.703125 45.8125,95.671875 L45.8125,95.671875 L49.09375,95.671875 C48.90625,98.015625 47.453125,99.5625 44.734375,100.3125 C44.640625,100.375 44.65625,100.453125 44.78125,100.546875 Z M47.78125,91.6875 C47.84375,92.1875 48.1875,92.34375 48.8125,92.15625 C49.28125,91.96875 49.453125,91.546875 49.328125,90.890625 C48.953125,90.140625 48.140625,89.578125 46.890625,89.203125 C46.703125,89.265625 46.65625,89.34375 46.75,89.4375 C47.375,90.09375 47.71875,90.84375 47.78125,91.6875 Z M61.5625,100.171875 C62.40625,100.140625 62.90625,99.921875 63.0625,99.515625 C63.0625,99.421875 63.046875,99.25 63.015625,99 L63.015625,99 L63.015625,94.3125 L68.125,94.3125 C68.21875,94.28125 68.234375,94.1875 68.171875,94.03125 C67.921875,93.78125 67.453125,93.421875 66.765625,92.953125 L66.765625,92.953125 L66.625,92.953125 C66.28125,93.296875 65.984375,93.671875 65.734375,94.078125 L65.734375,94.078125 L63.015625,94.078125 L63.015625,90.9375 C63.203125,90.78125 63.296875,90.65625 63.296875,90.5625 L63.296875,90.5625 L67,90.5625 C67.09375,90.53125 67.109375,90.4375 67.046875,90.28125 C66.796875,90.03125 66.328125,89.671875 65.640625,89.203125 L65.640625,89.203125 L65.5,89.203125 C65.15625,89.546875 64.859375,89.921875 64.609375,90.328125 L64.609375,90.328125 L57.90625,90.328125 C57.78125,90.328125 57.65625,90.3125 57.53125,90.28125 L57.53125,90.28125 L57.765625,90.609375 C58.234375,90.609375 58.5,90.59375 58.5625,90.5625 L58.5625,90.5625 L61.609375,90.5625 L61.609375,94.078125 L57.0625,94.078125 C56.90625,94.078125 56.765625,94.0625 56.640625,94.03125 L56.640625,94.03125 L56.875,94.359375 C57.125,94.359375 57.390625,94.34375 57.671875,94.3125 L57.671875,94.3125 L61.609375,94.3125 L61.609375,98.90625 C61.328125,99 60.734375,99 59.828125,98.90625 C59.765625,98.90625 59.75,98.9375 59.78125,99 C60.5,99.125 61.03125,99.484375 61.375,100.078125 C61.40625,100.140625 61.46875,100.171875 61.5625,100.171875 Z M77.3125,97.875 L77.6875,97.5 L74.875,94.6875 L77.6875,91.875 L77.3125,91.5 L74.5,94.3125 L71.6875,91.5 L71.265625,91.875 L74.125,94.6875 L71.265625,97.5 L71.6875,97.875 L74.5,95.0625 L77.3125,97.875 Z M89.3125,97.875 L89.6875,97.5 L86.875,94.6875 L89.6875,91.875 L89.3125,91.5 L86.5,94.3125 L83.6875,91.5 L83.265625,91.875 L86.125,94.6875 L83.265625,97.5 L83.6875,97.875 L86.5,95.0625 L89.3125,97.875 Z M93.5538194,99.6157407 L93.671875,99.609375 C94.109375,99.546875 94.34375,99.421875 94.375,99.234375 L94.375,99.234375 L94.375,98.671875 L96.484375,98.671875 L96.484375,99 C96.828125,99.375 97.25,99.375 97.75,99 L97.75,99 L97.609375,92.4375 C97.734375,92.375 97.859375,92.265625 97.984375,92.109375 C98.015625,92.046875 98.015625,91.984375 97.984375,91.921875 C97.609375,91.640625 97.25,91.421875 96.90625,91.265625 L96.90625,91.265625 L96.765625,91.265625 C96.546875,91.359375 96.328125,91.546875 96.109375,91.828125 L96.109375,91.828125 L95.265625,91.828125 C95.359375,91.671875 95.515625,91.390625 95.734375,90.984375 C95.890625,90.734375 96.0625,90.453125 96.25,90.140625 C96.25,90.109375 96.328125,90.0625 96.484375,90 C96.546875,90 96.59375,89.984375 96.625,89.953125 L96.625,89.953125 L96.625,89.90625 C96.65625,89.78125 96.65625,89.703125 96.625,89.671875 C96.03125,89.453125 95.546875,89.3125 95.171875,89.25 C95.046875,89.28125 94.984375,89.3125 94.984375,89.34375 C94.953125,89.71875 94.921875,90.109375 94.890625,90.515625 C94.828125,90.953125 94.78125,91.390625 94.75,91.828125 L94.75,91.828125 L94.375,91.828125 C94.0625,91.609375 93.703125,91.421875 93.296875,91.265625 C93.234375,91.296875 93.203125,91.328125 93.203125,91.359375 C93.234375,91.609375 93.25,91.96875 93.25,92.4375 L93.25,92.4375 L93.25,92.953125 L93.109375,99.375 C93.109375,99.5625 93.296875,99.640625 93.671875,99.609375 L93.5538194,99.6157407 Z M101.3125,100.265625 C102.28125,100.203125 102.921875,99.71875 103.234375,98.8125 C103.421875,98.15625 103.515625,97.28125 103.515625,96.1875 L103.515625,96.1875 L103.515625,92.8125 C103.609375,92.75 103.703125,92.65625 103.796875,92.53125 C103.796875,92.53125 103.8125,92.484375 103.84375,92.390625 C103.4375,92.109375 102.984375,91.875 102.484375,91.6875 C102.421875,91.6875 102.359375,91.703125 102.296875,91.734375 C102.109375,91.921875 101.96875,92.078125 101.875,92.203125 L101.875,92.203125 L99.625,92.203125 C100.0625,91.515625 100.453125,90.828125 100.796875,90.140625 L100.796875,90.140625 L101.171875,89.90625 L101.171875,89.90625 L101.171875,89.671875 C100.421875,89.453125 99.875,89.3125 99.53125,89.25 C99.40625,89.25 99.34375,89.265625 99.34375,89.296875 C99.0625,91.109375 98.625,92.6875 98.03125,94.03125 C98,94.125 98.046875,94.15625 98.171875,94.125 C98.640625,93.625 99.0625,93.0625 99.4375,92.4375 L99.4375,92.4375 L102.109375,92.4375 L102.109375,96.5625 C102.203125,98.5625 101.421875,99.328125 99.765625,98.859375 C99.609375,98.921875 99.578125,98.96875 99.671875,99 C100.546875,99.28125 101.046875,99.671875 101.171875,100.171875 C101.171875,100.203125 101.21875,100.234375 101.3125,100.265625 Z M96.484375,94.921875 L94.375,94.921875 L94.375,92.0625 L96.484375,92.0625 L96.484375,94.921875 Z M100.067383,96.9394531 L100.1875,96.9375 C100.625,96.84375 100.859375,96.515625 100.890625,95.953125 C100.703125,95.109375 100.03125,94.546875 98.875,94.265625 C98.78125,94.328125 98.75,94.375 98.78125,94.40625 C99.21875,94.84375 99.421875,95.4375 99.390625,96.1875 C99.421875,96.71875 99.6875,96.96875 100.1875,96.9375 L100.067383,96.9394531 Z M96.484375,98.4375 L94.375,98.4375 L94.375,95.203125 L96.484375,95.203125 L96.484375,98.4375 Z M106.421875,100.265625 C107.296875,100.015625 107.71875,99.625 107.6875,99.09375 L107.6875,99.09375 L107.640625,94.78125 C108.015625,94.5625 108.46875,94.265625 109,93.890625 C109.03125,93.859375 109.0625,93.828125 109.09375,93.796875 C109.125,93.796875 109.125,93.734375 109.09375,93.609375 C108.90625,93.671875 108.65625,93.75 108.34375,93.84375 C108.03125,93.9375 107.796875,94 107.640625,94.03125 L107.640625,94.03125 L107.640625,92.203125 L109.234375,92.203125 C109.328125,92.171875 109.359375,92.125 109.328125,92.0625 C109.203125,91.875 108.921875,91.59375 108.484375,91.21875 C108.453125,91.1875 108.421875,91.1875 108.390625,91.21875 C108.296875,91.28125 108.15625,91.4375 107.96875,91.6875 C107.875,91.78125 107.796875,91.859375 107.734375,91.921875 L107.734375,91.921875 L107.640625,91.921875 L107.640625,89.8125 L107.640625,89.8125 L107.6875,89.765625 C107.78125,89.703125 107.859375,89.625 107.921875,89.53125 C107.984375,89.46875 107.984375,89.40625 107.921875,89.34375 C107.671875,89.21875 107.203125,89.125 106.515625,89.0625 L106.515625,89.0625 L106.515625,91.921875 L105.0625,91.921875 C104.90625,91.921875 104.765625,91.90625 104.640625,91.875 L104.640625,91.875 L104.875,92.203125 L104.875,92.203125 L106.515625,92.203125 L106.515625,94.359375 C105.921875,94.515625 105.453125,94.625 105.109375,94.6875 L105.109375,94.6875 L104.875,94.6875 C104.84375,94.71875 104.828125,94.734375 104.828125,94.734375 C104.765625,94.765625 104.75,94.796875 104.78125,94.828125 C104.8125,94.984375 104.84375,95.15625 104.875,95.34375 C105.03125,95.84375 105.125,96.15625 105.15625,96.28125 C105.15625,96.40625 105.234375,96.421875 105.390625,96.328125 C105.453125,96.296875 105.59375,96.203125 105.8125,96.046875 C106.09375,95.859375 106.328125,95.703125 106.515625,95.578125 L106.515625,95.578125 L106.515625,98.578125 C106.640625,98.890625 106.203125,99 105.203125,98.90625 C105.109375,98.96875 105.09375,99.015625 105.15625,99.046875 C105.875,99.234375 106.234375,99.609375 106.234375,100.171875 C106.265625,100.234375 106.328125,100.265625 106.421875,100.265625 Z M109.9375,100.40625 C110.34375,100.34375 110.578125,100.203125 110.640625,99.984375 L110.640625,99.984375 L110.640625,99.796875 C110.671875,99.828125 110.71875,99.84375 110.78125,99.84375 C111.5625,99.34375 112.21875,98.859375 112.75,98.390625 C113.34375,99.046875 114.078125,99.5 114.953125,99.75 C115.015625,99.75 115.078125,99.71875 115.140625,99.65625 C115.296875,99.21875 115.65625,98.859375 116.21875,98.578125 C116.28125,98.484375 116.265625,98.40625 116.171875,98.34375 C115.140625,98.375 114.25,98.125 113.5,97.59375 C114.03125,96.90625 114.515625,96 114.953125,94.875 L114.953125,94.875 L115.328125,94.640625 C115.359375,94.546875 115.359375,94.453125 115.328125,94.359375 C114.890625,94.109375 114.515625,93.90625 114.203125,93.75 C114.078125,93.71875 114,93.71875 113.96875,93.75 C113.84375,93.84375 113.6875,93.984375 113.5,94.171875 L113.5,94.171875 L110.640625,94.171875 L110.640625,90.046875 L113.359375,90.046875 L113.359375,91.5 C113.453125,91.90625 112.953125,92.015625 111.859375,91.828125 C111.734375,91.921875 111.71875,92 111.8125,92.0625 C112.5,92.28125 112.890625,92.703125 112.984375,93.328125 C112.984375,93.390625 113.046875,93.4375 113.171875,93.46875 C114.234375,93.3125 114.71875,92.765625 114.625,91.828125 L114.625,91.828125 L114.625,90.421875 C114.625,90.421875 114.671875,90.359375 114.765625,90.234375 C114.921875,90.078125 115,89.96875 115,89.90625 C114.65625,89.59375 114.203125,89.34375 113.640625,89.15625 C113.484375,89.15625 113.3125,89.375 113.125,89.8125 L113.125,89.8125 L110.640625,89.8125 C110.265625,89.59375 109.890625,89.421875 109.515625,89.296875 C109.484375,89.296875 109.46875,89.3125 109.46875,89.34375 L109.46875,89.34375 L109.515625,90.421875 L109.515625,91.921875 L109.421875,100.078125 C109.421875,100.296875 109.59375,100.40625 109.9375,100.40625 Z M110.640625,99.65625 L110.640625,94.453125 L111.25,94.453125 C111.40625,95.859375 111.765625,96.984375 112.328125,97.828125 C111.953125,98.453125 111.390625,99.0625 110.640625,99.65625 L110.640625,99.65625 Z M112.796875,96.984375 C112.171875,96.328125 111.71875,95.484375 111.4375,94.453125 L111.4375,94.453125 L113.640625,94.453125 C113.453125,95.453125 113.171875,96.296875 112.796875,96.984375 Z M117.015625,94.59375 C117.484375,94.59375 117.75,94.578125 117.8125,94.546875 L117.8125,94.546875 L128.125,94.546875 C128.21875,94.546875 128.25,94.484375 128.21875,94.359375 C128.09375,94.140625 127.640625,93.796875 126.859375,93.328125 L126.859375,93.328125 L126.71875,93.328125 C126.5625,93.453125 126.296875,93.765625 125.921875,94.265625 L125.921875,94.265625 L125.921875,94.3125 L123.015625,94.3125 L123.015625,92.0625 L127,92.0625 C127.09375,92.03125 127.109375,91.9375 127.046875,91.78125 C126.796875,91.53125 126.328125,91.171875 125.640625,90.703125 L125.640625,90.703125 L125.5,90.703125 C125.15625,91.046875 124.859375,91.421875 124.609375,91.828125 L124.609375,91.828125 L123.015625,91.828125 L123.015625,89.671875 C123.015625,89.671875 123.017578,89.6699219 123.021484,89.6660156 L123.109375,89.578125 C123.265625,89.484375 123.34375,89.40625 123.34375,89.34375 C123.03125,89.09375 122.421875,88.9375 121.515625,88.875 C121.453125,88.96875 121.453125,89.125 121.515625,89.34375 C121.578125,89.5 121.609375,89.609375 121.609375,89.671875 L121.609375,89.671875 L121.609375,91.828125 L119.59375,91.828125 C119.84375,91.421875 120.09375,91 120.34375,90.5625 C120.375,90.40625 120.453125,90.328125 120.578125,90.328125 C120.578125,90.328125 120.59375,90.3125 120.625,90.28125 C120.78125,90.1875 120.84375,90.125 120.8125,90.09375 C120.84375,90.03125 120.78125,89.96875 120.625,89.90625 C120.4375,89.84375 120.171875,89.75 119.828125,89.625 C119.578125,89.53125 119.40625,89.453125 119.3125,89.390625 C119.15625,89.359375 119.0625,89.359375 119.03125,89.390625 C118.96875,89.390625 118.953125,89.453125 118.984375,89.578125 C118.671875,91.453125 118.28125,92.84375 117.8125,93.75 C117.6875,93.9375 117.640625,94.046875 117.671875,94.078125 C117.703125,94.109375 117.796875,94.046875 117.953125,93.890625 C118.453125,93.390625 118.9375,92.78125 119.40625,92.0625 L119.40625,92.0625 L121.609375,92.0625 L121.609375,94.3125 L117.15625,94.3125 C117.03125,94.3125 116.90625,94.296875 116.78125,94.265625 L116.78125,94.265625 L117.015625,94.59375 Z M118.609375,100.3125 C118.703125,100.40625 119,100.40625 119.5,100.3125 C119.8125,100.21875 119.984375,100.09375 120.015625,99.9375 L120.015625,99.9375 L120.015625,99.328125 L124.75,99.328125 L124.75,100.078125 C124.75,100.203125 125,100.25 125.5,100.21875 C125.96875,100.125 126.21875,100 126.25,99.84375 L126.25,99.84375 L126.109375,96.703125 C126.328125,96.546875 126.453125,96.375 126.484375,96.1875 C126.109375,95.90625 125.671875,95.65625 125.171875,95.4375 C125.078125,95.46875 124.890625,95.671875 124.609375,96.046875 L124.609375,96.046875 L120.015625,96.046875 C119.265625,95.546875 118.796875,95.34375 118.609375,95.4375 L118.609375,95.4375 L118.609375,98.765625 C118.578125,99.140625 118.5625,99.4375 118.5625,99.65625 C118.53125,100 118.546875,100.21875 118.609375,100.3125 Z M124.75,99.09375 L120.015625,99.09375 L120.015625,96.328125 L124.75,96.328125 L124.75,99.09375 Z" id="××关于××的报告" fill="#333333" fill-rule="nonzero"></path>
            <g id="编组-12" transform="translate(13.000000, 159.000000)" fill="#CCCCCC">
                <rect id="矩形备份-9" x="0" y="18" width="124" height="1"></rect>
                <rect id="矩形备份-10" x="0" y="27" width="124" height="1"></rect>
                <rect id="矩形" x="0" y="9" width="124" height="1"></rect>
                <rect id="矩形备份-13" x="0" y="0" width="124" height="1"></rect>
            </g>
            <g id="编组-27" transform="translate(62.000000, 129.000000)" fill="#D8D8D8">
                <circle id="椭圆形" cx="1.5" cy="1.5" r="1.5"></circle>
                <circle id="椭圆形备份" cx="7.5" cy="1.5" r="1.5"></circle>
                <circle id="椭圆形备份-2" cx="13.5" cy="1.5" r="1.5"></circle>
                <circle id="椭圆形备份-5" cx="19.5" cy="1.5" r="1.5"></circle>
                <circle id="椭圆形备份-4" cx="25.5" cy="1.5" r="1.5"></circle>
                <circle id="椭圆形备份-3" cx="31.5" cy="1.5" r="1.5"></circle>
            </g>
            <g id="编组-18备份-3" transform="translate(118.000000, 170.000000)" fill="#DA4141" fill-rule="nonzero" opacity="0.800000012">
                <path d="M4.58235627,21.0658318 L4.58235627,20.4681756 L13.031575,20.4681756 L13.031575,21.0541131 L13.9339188,21.0541131 L13.9339188,10.1205193 L3.68001252,10.1205193 L3.68001252,21.0658318 L4.58235627,21.0658318 Z M13.031575,19.6361443 L4.58235627,19.6361443 L4.58235627,10.9525506 L13.031575,10.9525506 L13.031575,19.6361443 Z M12.4807938,18.3939568 L12.4807938,17.5970818 L9.22298127,17.5970818 L9.22298127,15.2767693 L12.0589188,15.2767693 L12.0589188,14.4798943 L9.22298127,14.4798943 L9.22298127,12.9095818 L12.2932938,12.9095818 L12.2932938,12.1127068 L5.30891877,12.1127068 L5.30891877,12.9095818 L8.35579377,12.9095818 L8.35579377,14.4798943 L5.53157502,14.4798943 L5.53157502,15.2767693 L8.35579377,15.2767693 L8.35579377,17.5970818 L5.12141877,17.5970818 L5.12141877,18.3939568 L12.4807938,18.3939568 Z M10.8987625,17.3158318 L11.5901688,16.7884881 C11.2854813,16.3978631 10.9182938,15.9798943 10.4886063,15.5345818 L10.4886063,15.5345818 L9.83235627,16.0267693 C10.1682938,16.3783318 10.5237625,16.8080193 10.8987625,17.3158318 L10.8987625,17.3158318 Z M17.625325,20.9838006 L17.625325,14.7963006 C18.0550125,15.2298943 18.4573563,15.6595818 18.8323563,16.0853631 L18.8323563,16.0853631 L19.45345,15.4408318 C19.0706375,15.0423943 18.6292313,14.6283318 18.1292313,14.1986443 L18.1292313,14.1986443 L17.625325,14.7259881 L17.625325,12.6517693 L19.219075,12.6517693 L19.219075,11.8548943 L17.625325,11.8548943 L17.625325,9.55801932 L16.8050125,9.55801932 L16.8050125,11.8548943 L15.0237625,11.8548943 L15.0237625,12.6517693 L16.7229813,12.6517693 C16.4026688,14.1127068 15.8089188,15.5111443 14.9417313,16.8470818 C15.0901688,17.1986443 15.219075,17.5423943 15.32845,17.8783318 C15.8987625,17.0619256 16.39095,15.9818474 16.8050125,14.6380974 L16.8050125,14.6380974 L16.8050125,20.9838006 L17.625325,20.9838006 Z M25.9807938,11.0697381 L25.9807938,10.2494256 L19.7464188,10.2494256 L19.7464188,11.0697381 L25.9807938,11.0697381 Z M20.3792313,20.8548943 C20.9964188,20.8705193 21.51595,20.8744256 21.937825,20.8666131 C22.8362625,20.8666131 23.2854813,20.3783318 23.2854813,19.4017693 L23.2854813,19.4017693 L23.2854813,14.5033318 L26.5198563,14.5033318 L26.5198563,13.6830193 L19.2073563,13.6830193 L19.2073563,14.5033318 L22.3948563,14.5033318 L22.3948563,19.1088006 C22.3948563,19.6869256 22.1604813,19.9759881 21.6917313,19.9759881 C21.2464188,19.9759881 20.7542313,19.9447381 20.2151688,19.8822381 C20.2854813,20.2494256 20.3401688,20.5736443 20.3792313,20.8548943 Z M25.8050125,19.7650506 L26.7425125,19.3548943 C26.250325,18.2845818 25.6331375,17.0384881 24.89095,15.6166131 L24.89095,15.6166131 L24.0589188,16.0150506 C24.7151688,17.3041131 25.2972,18.5541131 25.8050125,19.7650506 L25.8050125,19.7650506 Z M19.26595,19.7767693 C19.8987625,18.6673943 20.5354813,17.3978631 21.1761063,15.9681756 L21.1761063,15.9681756 L20.2972,15.6166131 C19.6643875,17.1088006 19.0354813,18.3588006 18.4104813,19.3666131 C18.7386063,19.4994256 19.0237625,19.6361443 19.26595,19.7767693 Z" id="国标" transform="translate(15.211263, 15.311926) rotate(20.000000) translate(-15.211263, -15.311926) "></path>
                <path d="M15,0 C23.2842712,0 30,6.71572875 30,15 C30,23.2842712 23.2842712,30 15,30 C6.71572875,30 0,23.2842712 0,15 C0,6.71572875 6.71572875,0 15,0 Z M15,1 C7.2680135,1 1,7.2680135 1,15 C1,22.7319865 7.2680135,29 15,29 C22.7319865,29 29,22.7319865 29,15 C29,7.2680135 22.7319865,1 15,1 Z" id="椭圆形"></path>
            </g>
        </g>
    </g>
</svg>