<?xml version="1.0" encoding="UTF-8"?>
<svg width="150px" height="202px" viewBox="0 0 150 202" version="1.1" xmlns="http://www.w3.org/2000/svg" xmlns:xlink="http://www.w3.org/1999/xlink">
    <!-- Generator: Sketch 60.1 (88133) - https://sketch.com -->
    <title>下行文多机关-决议</title>
    <desc>Created with Sketch.</desc>
    <g id="页面-1" stroke="none" stroke-width="1" fill="none" fill-rule="evenodd">
        <g id="编组备份-8">
            <rect id="矩形备份-14" x="0" y="0" width="150" height="202" rx="4"></rect>
            <rect id="矩形" stroke="none" fill="#FFFFFF" x="5.5" y="5.5" width="139" height="191" rx="4"></rect>
            <path d="M45.21875,83.625 L45.5,83.34375 L43.25,81.125 L45.4375,78.875 L45.15625,78.625 L43,80.875 L40.75,78.625 L40.5,78.875 L42.75,81.125 L40.5,83.375 L40.75,83.625 L43,81.375 L45.21875,83.625 Z M53.21875,83.625 L53.5,83.34375 L51.25,81.125 L53.4375,78.875 L53.15625,78.625 L51,80.875 L48.75,78.625 L48.5,78.875 L50.75,81.125 L48.5,83.375 L48.75,83.625 L51,81.375 L53.21875,83.625 Z M61.375,84.375 L61.625,84.21875 L60.53125,83.09375 L60.53125,79.15625 L61.65625,78 L61.4375,77.8125 L60.21875,79.09375 L60.21875,83.15625 L61.375,84.375 Z M66.28125,84 L66.46875,82.65625 L66.28125,82.65625 C66.2395833,82.9479167 66.15625,83.1666667 66.03125,83.3125 C65.90625,83.4583333 65.75,83.53125 65.5625,83.53125 L65.5625,83.53125 L63.71875,83.53125 C63.78125,83.40625 63.9739583,83.1614583 64.296875,82.796875 C64.6197917,82.4322917 65.0833333,81.9583333 65.6875,81.375 C65.9375,81.1458333 66.1197917,80.90625 66.234375,80.65625 C66.3489583,80.40625 66.40625,80.15625 66.40625,79.90625 C66.40625,79.53125 66.2864583,79.21875 66.046875,78.96875 C65.8072917,78.71875 65.4375,78.59375 64.9375,78.59375 C64.5833333,78.59375 64.25,78.7083333 63.9375,78.9375 C63.625,79.1666667 63.46875,79.5 63.46875,79.9375 C63.46875,80.1041667 63.5052083,80.2239583 63.578125,80.296875 C63.6510417,80.3697917 63.75,80.40625 63.875,80.40625 C63.9791667,80.40625 64.0572917,80.3802083 64.109375,80.328125 C64.1614583,80.2760417 64.1875,80.1979167 64.1875,80.09375 C64.1875,80.0104167 64.1510417,79.9270833 64.078125,79.84375 C64.0052083,79.7604167 63.96875,79.65625 63.96875,79.53125 C63.96875,79.3229167 64.0572917,79.1510417 64.234375,79.015625 C64.4114583,78.8802083 64.625,78.8125 64.875,78.8125 C65.2083333,78.8125 65.4583333,78.9114583 65.625,79.109375 C65.7916667,79.3072917 65.875,79.59375 65.875,79.96875 C65.875,80.2395833 65.7916667,80.53125 65.625,80.84375 C65.4583333,81.15625 65.1979167,81.4895833 64.84375,81.84375 C64.4479167,82.2395833 64.1302083,82.5833333 63.890625,82.875 C63.6510417,83.1666667 63.4791667,83.40625 63.375,83.59375 L63.375,83.59375 L63.375,84 L66.28125,84 Z M68.96875,84.0625 C69.4270833,84.0625 69.8072917,83.8177083 70.109375,83.328125 C70.4114583,82.8385417 70.5625,82.1666667 70.5625,81.3125 C70.5625,80.4583333 70.4114583,79.7916667 70.109375,79.3125 C69.8072917,78.8333333 69.4270833,78.59375 68.96875,78.59375 C68.4895833,78.59375 68.0989583,78.84375 67.796875,79.34375 C67.4947917,79.84375 67.34375,80.5 67.34375,81.3125 C67.34375,82.1875 67.5,82.8645833 67.8125,83.34375 C68.125,83.8229167 68.5104167,84.0625 68.96875,84.0625 Z M68.96875,83.8125 C68.6770833,83.8125 68.4322917,83.59375 68.234375,83.15625 C68.0364583,82.71875 67.9375,82.1041667 67.9375,81.3125 C67.9375,80.5625 68.0364583,79.9635417 68.234375,79.515625 C68.4322917,79.0677083 68.6770833,78.84375 68.96875,78.84375 C69.3020833,78.84375 69.5520833,79.0677083 69.71875,79.515625 C69.8854167,79.9635417 69.96875,80.5625 69.96875,81.3125 C69.96875,82.1041667 69.8802083,82.71875 69.703125,83.15625 C69.5260417,83.59375 69.28125,83.8125 68.96875,83.8125 Z M77.21875,83.625 L77.5,83.34375 L75.25,81.125 L77.4375,78.875 L77.15625,78.625 L75,80.875 L72.75,78.625 L72.5,78.875 L74.75,81.125 L72.5,83.375 L72.75,83.625 L75,81.375 L77.21875,83.625 Z M85.21875,83.625 L85.5,83.34375 L83.25,81.125 L85.4375,78.875 L85.15625,78.625 L83,80.875 L80.75,78.625 L80.5,78.875 L82.75,81.125 L80.5,83.375 L80.75,83.625 L83,81.375 L85.21875,83.625 Z M88.5,84.34375 L89.6875,83.0625 L89.6875,79 L88.53125,77.8125 L88.3125,78 L89.375,79.09375 L89.375,82.96875 L88.28125,84.15625 L88.5,84.34375 Z M101.21875,83.625 L101.5,83.34375 L99.25,81.125 L101.4375,78.875 L101.15625,78.625 L99,80.875 L96.75,78.625 L96.5,78.875 L98.75,81.125 L96.5,83.375 L96.75,83.625 L99,81.375 L101.21875,83.625 Z M105.65625,80.09375 C105.760417,80.1979167 105.802083,80.1458333 105.78125,79.9375 L105.78125,79.9375 L108.71875,79.71875 L108.46875,79.4375 L108.65625,78.25 L108.90625,78.03125 L108.5,77.71875 L108.3125,78 L105.6875,78.21875 L105.40625,77.75 L105.34375,77.78125 C105.427083,78.0729167 105.46875,78.3333333 105.46875,78.5625 C105.46875,78.7916667 105.473958,79.03125 105.484375,79.28125 C105.494792,79.53125 105.447917,79.6666667 105.34375,79.6875 L105.34375,79.6875 L105.65625,80.09375 Z M105.78125,79.65625 L105.75,78.46875 L108.34375,78.25 L108.1875,79.46875 L105.78125,79.65625 Z M107.1875,84.8125 C107.520833,84.4375 108.010417,83.4791667 108.65625,81.9375 L108.65625,81.9375 L108.9375,81.71875 L108.5625,81.34375 L108.34375,81.625 L105.9375,81.84375 L106.28125,80.96875 C108.510417,80.8020833 109.864583,80.71875 110.34375,80.71875 L110.34375,80.71875 L109.84375,80.34375 C109.71875,80.40625 108.770833,80.5104167 107,80.65625 C105.229167,80.8020833 104.135417,80.8645833 103.71875,80.84375 L103.71875,80.84375 L104.15625,81.1875 C104.239583,81.1458333 104.822917,81.0833333 105.90625,81 L105.90625,81 L105.59375,81.875 L105.375,81.9375 L105.625,82.34375 L105.90625,82.15625 L108.3125,81.9375 C107.791667,83.1875 107.427083,83.9583333 107.21875,84.25 L107.21875,84.25 L106.125,83.3125 L106.0625,83.375 C106.5625,83.9583333 106.9375,84.4375 107.1875,84.8125 Z" id="××〔20××〕×号" fill="#333333" fill-rule="nonzero"></path>
            <rect id="矩形" fill="#DA4141" x="13" y="91" width="124" height="1"></rect>
            <g id="编组-6" transform="translate(25.000000, 29.000000)" fill="#DA4141" fill-rule="nonzero">
                <path d="M5.5625,17 L5.5625,16.53125 C4.41666667,16.4791667 3.86979167,16.1927083 3.921875,15.671875 C3.765625,15.515625 4.390625,14.5 5.796875,12.625 L5.796875,12.625 L6.578125,11.609375 L8.609375,14.8125 C8.765625,15.125 8.89583333,15.4635417 9,15.828125 C9.05208333,16.296875 8.53125,16.53125 7.4375,16.53125 L7.4375,16.53125 L7.4375,17 L14.234375,17 L14.234375,16.53125 C13.7135417,16.6354167 13.0625,16.0625 12.28125,14.8125 L12.28125,14.8125 L8.6875,9.109375 C11.1875,5.203125 12.9583333,3.484375 14,3.953125 L14,3.953125 L14,3.484375 L9,3.484375 L9,3.953125 C9.05208333,4.00520833 9.10416667,4.03125 9.15625,4.03125 C10.0416667,4.08333333 10.484375,4.29166667 10.484375,4.65625 C10.8489583,4.60416667 10.0677083,5.85416667 8.140625,8.40625 L8.140625,8.40625 L6.265625,5.359375 C6.00520833,5.15104167 5.90104167,4.91666667 5.953125,4.65625 C5.796875,4.1875 6.31770833,3.953125 7.515625,3.953125 L7.515625,3.953125 L7.515625,3.484375 L0.5625,3.484375 L0.5625,3.953125 C1.13541667,4.00520833 1.68229167,4.39583333 2.203125,5.125 L2.203125,5.125 L6.1875,10.984375 L2.671875,15.359375 C2.203125,16.0364583 1.5,16.4270833 0.5625,16.53125 L0.5625,16.53125 L0.5625,17 L5.5625,17 Z M19.9375,17 L19.9375,16.53125 C18.7916667,16.4791667 18.2447917,16.1927083 18.296875,15.671875 C18.140625,15.515625 18.765625,14.5 20.171875,12.625 L20.171875,12.625 L20.953125,11.609375 L22.984375,14.8125 C23.140625,15.125 23.2708333,15.4635417 23.375,15.828125 C23.4270833,16.296875 22.90625,16.53125 21.8125,16.53125 L21.8125,16.53125 L21.8125,17 L28.609375,17 L28.609375,16.53125 C28.0885417,16.6354167 27.4375,16.0625 26.65625,14.8125 L26.65625,14.8125 L23.0625,9.109375 C25.5625,5.203125 27.3333333,3.484375 28.375,3.953125 L28.375,3.953125 L28.375,3.484375 L23.375,3.484375 L23.375,3.953125 C23.4270833,4.00520833 23.4791667,4.03125 23.53125,4.03125 C24.4166667,4.08333333 24.859375,4.29166667 24.859375,4.65625 C25.2239583,4.60416667 24.4427083,5.85416667 22.515625,8.40625 L22.515625,8.40625 L20.640625,5.359375 C20.3802083,5.15104167 20.2760417,4.91666667 20.328125,4.65625 C20.171875,4.1875 20.6927083,3.953125 21.890625,3.953125 L21.890625,3.953125 L21.890625,3.484375 L14.9375,3.484375 L14.9375,3.953125 C15.5104167,4.00520833 16.0572917,4.39583333 16.578125,5.125 L16.578125,5.125 L20.5625,10.984375 L17.046875,15.359375 C16.578125,16.0364583 15.875,16.4270833 14.9375,16.53125 L14.9375,16.53125 L14.9375,17 L19.9375,17 Z M34.3125,17 L34.3125,16.53125 C33.1666667,16.4791667 32.6197917,16.1927083 32.671875,15.671875 C32.515625,15.515625 33.140625,14.5 34.546875,12.625 L34.546875,12.625 L35.328125,11.609375 L37.359375,14.8125 C37.515625,15.125 37.6458333,15.4635417 37.75,15.828125 C37.8020833,16.296875 37.28125,16.53125 36.1875,16.53125 L36.1875,16.53125 L36.1875,17 L42.984375,17 L42.984375,16.53125 C42.4635417,16.6354167 41.8125,16.0625 41.03125,14.8125 L41.03125,14.8125 L37.4375,9.109375 C39.9375,5.203125 41.7083333,3.484375 42.75,3.953125 L42.75,3.953125 L42.75,3.484375 L37.75,3.484375 L37.75,3.953125 C37.8020833,4.00520833 37.8541667,4.03125 37.90625,4.03125 C38.7916667,4.08333333 39.234375,4.29166667 39.234375,4.65625 C39.5989583,4.60416667 38.8177083,5.85416667 36.890625,8.40625 L36.890625,8.40625 L35.015625,5.359375 C34.7552083,5.15104167 34.6510417,4.91666667 34.703125,4.65625 C34.546875,4.1875 35.0677083,3.953125 36.265625,3.953125 L36.265625,3.953125 L36.265625,3.484375 L29.3125,3.484375 L29.3125,3.953125 C29.8854167,4.00520833 30.4322917,4.39583333 30.953125,5.125 L30.953125,5.125 L34.9375,10.984375 L31.421875,15.359375 C30.953125,16.0364583 30.25,16.4270833 29.3125,16.53125 L29.3125,16.53125 L29.3125,17 L34.3125,17 Z M48.6875,17 L48.6875,16.53125 C47.5416667,16.4791667 46.9947917,16.1927083 47.046875,15.671875 C46.890625,15.515625 47.515625,14.5 48.921875,12.625 L48.921875,12.625 L49.703125,11.609375 L51.734375,14.8125 C51.890625,15.125 52.0208333,15.4635417 52.125,15.828125 C52.1770833,16.296875 51.65625,16.53125 50.5625,16.53125 L50.5625,16.53125 L50.5625,17 L57.359375,17 L57.359375,16.53125 C56.8385417,16.6354167 56.1875,16.0625 55.40625,14.8125 L55.40625,14.8125 L51.8125,9.109375 C54.3125,5.203125 56.0833333,3.484375 57.125,3.953125 L57.125,3.953125 L57.125,3.484375 L52.125,3.484375 L52.125,3.953125 C52.1770833,4.00520833 52.2291667,4.03125 52.28125,4.03125 C53.1666667,4.08333333 53.609375,4.29166667 53.609375,4.65625 C53.9739583,4.60416667 53.1927083,5.85416667 51.265625,8.40625 L51.265625,8.40625 L49.390625,5.359375 C49.1302083,5.15104167 49.0260417,4.91666667 49.078125,4.65625 C48.921875,4.1875 49.4427083,3.953125 50.640625,3.953125 L50.640625,3.953125 L50.640625,3.484375 L43.6875,3.484375 L43.6875,3.953125 C44.2604167,4.00520833 44.8072917,4.39583333 45.328125,5.125 L45.328125,5.125 L49.3125,10.984375 L45.796875,15.359375 C45.328125,16.0364583 44.625,16.4270833 43.6875,16.53125 L43.6875,16.53125 L43.6875,17 L48.6875,17 Z M5.5625,39 L5.5625,38.53125 C4.41666667,38.4791667 3.86979167,38.1927083 3.921875,37.671875 C3.765625,37.515625 4.390625,36.5 5.796875,34.625 L5.796875,34.625 L6.578125,33.609375 L8.609375,36.8125 C8.765625,37.125 8.89583333,37.4635417 9,37.828125 C9.05208333,38.296875 8.53125,38.53125 7.4375,38.53125 L7.4375,38.53125 L7.4375,39 L14.234375,39 L14.234375,38.53125 C13.7135417,38.6354167 13.0625,38.0625 12.28125,36.8125 L12.28125,36.8125 L8.6875,31.109375 C11.1875,27.203125 12.9583333,25.484375 14,25.953125 L14,25.953125 L14,25.484375 L9,25.484375 L9,25.953125 C9.05208333,26.0052083 9.10416667,26.03125 9.15625,26.03125 C10.0416667,26.0833333 10.484375,26.2916667 10.484375,26.65625 C10.8489583,26.6041667 10.0677083,27.8541667 8.140625,30.40625 L8.140625,30.40625 L6.265625,27.359375 C6.00520833,27.1510417 5.90104167,26.9166667 5.953125,26.65625 C5.796875,26.1875 6.31770833,25.953125 7.515625,25.953125 L7.515625,25.953125 L7.515625,25.484375 L0.5625,25.484375 L0.5625,25.953125 C1.13541667,26.0052083 1.68229167,26.3958333 2.203125,27.125 L2.203125,27.125 L6.1875,32.984375 L2.671875,37.359375 C2.203125,38.0364583 1.5,38.4270833 0.5625,38.53125 L0.5625,38.53125 L0.5625,39 L5.5625,39 Z M19.9375,39 L19.9375,38.53125 C18.7916667,38.4791667 18.2447917,38.1927083 18.296875,37.671875 C18.140625,37.515625 18.765625,36.5 20.171875,34.625 L20.171875,34.625 L20.953125,33.609375 L22.984375,36.8125 C23.140625,37.125 23.2708333,37.4635417 23.375,37.828125 C23.4270833,38.296875 22.90625,38.53125 21.8125,38.53125 L21.8125,38.53125 L21.8125,39 L28.609375,39 L28.609375,38.53125 C28.0885417,38.6354167 27.4375,38.0625 26.65625,36.8125 L26.65625,36.8125 L23.0625,31.109375 C25.5625,27.203125 27.3333333,25.484375 28.375,25.953125 L28.375,25.953125 L28.375,25.484375 L23.375,25.484375 L23.375,25.953125 C23.4270833,26.0052083 23.4791667,26.03125 23.53125,26.03125 C24.4166667,26.0833333 24.859375,26.2916667 24.859375,26.65625 C25.2239583,26.6041667 24.4427083,27.8541667 22.515625,30.40625 L22.515625,30.40625 L20.640625,27.359375 C20.3802083,27.1510417 20.2760417,26.9166667 20.328125,26.65625 C20.171875,26.1875 20.6927083,25.953125 21.890625,25.953125 L21.890625,25.953125 L21.890625,25.484375 L14.9375,25.484375 L14.9375,25.953125 C15.5104167,26.0052083 16.0572917,26.3958333 16.578125,27.125 L16.578125,27.125 L20.5625,32.984375 L17.046875,37.359375 C16.578125,38.0364583 15.875,38.4270833 14.9375,38.53125 L14.9375,38.53125 L14.9375,39 L19.9375,39 Z M34.3125,39 L34.3125,38.53125 C33.1666667,38.4791667 32.6197917,38.1927083 32.671875,37.671875 C32.515625,37.515625 33.140625,36.5 34.546875,34.625 L34.546875,34.625 L35.328125,33.609375 L37.359375,36.8125 C37.515625,37.125 37.6458333,37.4635417 37.75,37.828125 C37.8020833,38.296875 37.28125,38.53125 36.1875,38.53125 L36.1875,38.53125 L36.1875,39 L42.984375,39 L42.984375,38.53125 C42.4635417,38.6354167 41.8125,38.0625 41.03125,36.8125 L41.03125,36.8125 L37.4375,31.109375 C39.9375,27.203125 41.7083333,25.484375 42.75,25.953125 L42.75,25.953125 L42.75,25.484375 L37.75,25.484375 L37.75,25.953125 C37.8020833,26.0052083 37.8541667,26.03125 37.90625,26.03125 C38.7916667,26.0833333 39.234375,26.2916667 39.234375,26.65625 C39.5989583,26.6041667 38.8177083,27.8541667 36.890625,30.40625 L36.890625,30.40625 L35.015625,27.359375 C34.7552083,27.1510417 34.6510417,26.9166667 34.703125,26.65625 C34.546875,26.1875 35.0677083,25.953125 36.265625,25.953125 L36.265625,25.953125 L36.265625,25.484375 L29.3125,25.484375 L29.3125,25.953125 C29.8854167,26.0052083 30.4322917,26.3958333 30.953125,27.125 L30.953125,27.125 L34.9375,32.984375 L31.421875,37.359375 C30.953125,38.0364583 30.25,38.4270833 29.3125,38.53125 L29.3125,38.53125 L29.3125,39 L34.3125,39 Z M48.6875,39 L48.6875,38.53125 C47.5416667,38.4791667 46.9947917,38.1927083 47.046875,37.671875 C46.890625,37.515625 47.515625,36.5 48.921875,34.625 L48.921875,34.625 L49.703125,33.609375 L51.734375,36.8125 C51.890625,37.125 52.0208333,37.4635417 52.125,37.828125 C52.1770833,38.296875 51.65625,38.53125 50.5625,38.53125 L50.5625,38.53125 L50.5625,39 L57.359375,39 L57.359375,38.53125 C56.8385417,38.6354167 56.1875,38.0625 55.40625,36.8125 L55.40625,36.8125 L51.8125,31.109375 C54.3125,27.203125 56.0833333,25.484375 57.125,25.953125 L57.125,25.953125 L57.125,25.484375 L52.125,25.484375 L52.125,25.953125 C52.1770833,26.0052083 52.2291667,26.03125 52.28125,26.03125 C53.1666667,26.0833333 53.609375,26.2916667 53.609375,26.65625 C53.9739583,26.6041667 53.1927083,27.8541667 51.265625,30.40625 L51.265625,30.40625 L49.390625,27.359375 C49.1302083,27.1510417 49.0260417,26.9166667 49.078125,26.65625 C48.921875,26.1875 49.4427083,25.953125 50.640625,25.953125 L50.640625,25.953125 L50.640625,25.484375 L43.6875,25.484375 L43.6875,25.953125 C44.2604167,26.0052083 44.8072917,26.3958333 45.328125,27.125 L45.328125,27.125 L49.3125,32.984375 L45.796875,37.359375 C45.328125,38.0364583 44.625,38.4270833 43.6875,38.53125 L43.6875,38.53125 L43.6875,39 L48.6875,39 Z" id="XXXXXXXX"></path>
                <path d="M69.515625,15.03125 C69.828125,15.7083333 70.3489583,15.8645833 71.078125,15.5 C71.7552083,15.03125 72.0416667,14.40625 71.9375,13.625 C71.5729167,12.4270833 70.2708333,11.671875 68.03125,11.359375 C67.8229167,11.4635417 67.796875,11.5416667 67.953125,11.59375 C68.6822917,12.1145833 69.0989583,12.921875 69.203125,14.015625 C69.2552083,14.5364583 69.359375,14.875 69.515625,15.03125 Z M78.03125,30.5 C78.1875,30.5 78.2916667,30.421875 78.34375,30.265625 C78.7083333,28.9114583 79.4114583,28.1041667 80.453125,27.84375 C80.5052083,27.7916667 80.4791667,27.7135417 80.375,27.609375 C77.1979167,27.5572917 74.5416667,26.7760417 72.40625,25.265625 C73.8125,23.4427083 74.75,21.0729167 75.21875,18.15625 C75.21875,18.1041667 75.3229167,18 75.53125,17.84375 C75.6875,17.7395833 75.7916667,17.6354167 75.84375,17.53125 C75.9479167,17.4270833 75.9479167,17.3229167 75.84375,17.21875 C75.4270833,17.0104167 75.0364583,16.828125 74.671875,16.671875 L74.671875,16.671875 L80.375,16.671875 C80.53125,16.5677083 80.5572917,16.4114583 80.453125,16.203125 C80.0364583,15.7864583 79.2552083,15.1875 78.109375,14.40625 L78.109375,14.40625 L77.875,14.40625 C77.5625,14.6666667 77.1458333,15.1614583 76.625,15.890625 C76.5208333,15.9947917 76.4427083,16.0989583 76.390625,16.203125 L76.390625,16.203125 L62.328125,16.203125 C62.0677083,16.203125 61.8333333,16.1770833 61.625,16.125 L61.625,16.125 L62.09375,16.671875 L62.09375,16.671875 L66.625,16.671875 C66.8333333,20.109375 67.9010417,23.0260417 69.828125,25.421875 C67.8489583,27.8177083 65.1145833,29.4583333 61.625,30.34375 C61.4166667,30.34375 61.4166667,30.3958333 61.625,30.5 C65.53125,30.0833333 68.65625,28.859375 71,26.828125 C72.9791667,28.5989583 75.3229167,29.8229167 78.03125,30.5 Z M70.84375,24.015625 C68.8645833,22.2447917 67.6145833,19.796875 67.09375,16.671875 L67.09375,16.671875 L72.875,16.671875 C72.71875,19.4322917 72.0416667,21.8802083 70.84375,24.015625 Z M92.796875,29.71875 C93.6302083,30.1875 94.3854167,30.03125 95.0625,29.25 C95.0625,28.9895833 95.0364583,28.5989583 94.984375,28.078125 L94.984375,28.078125 L94.984375,23.078125 L100.765625,23.078125 C100.921875,23.078125 101,22.9739583 101,22.765625 C100.84375,22.5052083 100.140625,21.984375 98.890625,21.203125 C98.7864583,21.1510417 98.734375,21.0989583 98.734375,21.046875 L98.734375,21.046875 L98.421875,21.046875 C98.2135417,21.203125 97.953125,21.515625 97.640625,21.984375 C97.3802083,22.3489583 97.1979167,22.5833333 97.09375,22.6875 L97.09375,22.6875 L94.984375,22.6875 L94.984375,18.078125 L99.984375,18.078125 C100.140625,18.078125 100.192708,17.9739583 100.140625,17.765625 C99.9322917,17.4010417 99.1770833,16.828125 97.875,16.046875 L97.875,16.046875 L97.640625,16.046875 C97.3802083,16.2552083 96.9375,16.7760417 96.3125,17.609375 L96.3125,17.609375 L96.3125,17.6875 L94.984375,17.6875 L94.984375,12.921875 C95.2447917,12.765625 95.4270833,12.6354167 95.53125,12.53125 L95.53125,12.53125 L95.53125,12.21875 C94.90625,12.0625 94.359375,11.9322917 93.890625,11.828125 C93.3697917,11.7239583 93.03125,11.671875 92.875,11.671875 C92.7708333,11.7239583 92.7447917,11.75 92.796875,11.75 L92.796875,11.75 L92.875,12.921875 L92.875,17.6875 L90.6875,17.6875 C90.8958333,17.0625 91.1041667,16.3854167 91.3125,15.65625 C91.3125,15.5 91.46875,15.34375 91.78125,15.1875 C91.8854167,15.1354167 91.9635417,15.0833333 92.015625,15.03125 C92.0677083,14.9270833 92.0677083,14.8229167 92.015625,14.71875 C91.4947917,14.5104167 90.9739583,14.3020833 90.453125,14.09375 C90.140625,13.9895833 89.8541667,13.859375 89.59375,13.703125 C89.4375,13.7552083 89.359375,13.8072917 89.359375,13.859375 C89.1510417,17.0364583 88.6822917,19.6666667 87.953125,21.75 C88.0052083,21.90625 88.0833333,21.9583333 88.1875,21.90625 C89.0208333,21.0208333 89.8020833,19.7447917 90.53125,18.078125 L90.53125,18.078125 L92.875,18.078125 L92.875,22.6875 L87.953125,22.6875 C87.6927083,22.6875 87.4583333,22.6614583 87.25,22.609375 L87.25,22.609375 L87.71875,23.15625 C88.1354167,23.15625 88.5520833,23.1302083 88.96875,23.078125 L88.96875,23.078125 L92.875,23.078125 L92.875,26.671875 C92.8229167,27.2447917 92.7708333,27.84375 92.71875,28.46875 C92.6666667,29.1458333 92.6927083,29.5625 92.796875,29.71875 Z M84.4375,29.796875 C85.1145833,30.1614583 85.7916667,30.03125 86.46875,29.40625 C86.46875,29.1979167 86.4427083,28.7291667 86.390625,28 L86.390625,28 L86.390625,17.6875 C86.390625,17.6875 86.409375,17.678125 86.446875,17.659375 L86.546875,17.609375 C86.703125,17.5052083 86.8333333,17.4010417 86.9375,17.296875 L86.9375,17.296875 L86.9375,16.984375 C86.8854167,16.9322917 86.6510417,16.7760417 86.234375,16.515625 C86.703125,15.6822917 87.1197917,14.8229167 87.484375,13.9375 C87.9010417,13.625 88.2135417,13.46875 88.421875,13.46875 C88.578125,13.3645833 88.6041667,13.234375 88.5,13.078125 C88.03125,12.8697917 87.3802083,12.5833333 86.546875,12.21875 C86.2864583,12.1145833 86.078125,12.0104167 85.921875,11.90625 C85.7135417,11.8541667 85.5833333,11.90625 85.53125,12.0625 C84.4375,16.3333333 83.0572917,19.6666667 81.390625,22.0625 C81.3385417,22.1145833 81.390625,22.1666667 81.546875,22.21875 C82.5364583,21.3854167 83.5260417,20.3177083 84.515625,19.015625 L84.515625,19.015625 L84.515625,26.828125 C84.4635417,27.7135417 84.4114583,28.3645833 84.359375,28.78125 C84.3072917,29.3020833 84.3333333,29.640625 84.4375,29.796875 Z" id="文件"></path>
            </g>
            <g id="编组-12" transform="translate(13.000000, 159.000000)" fill="#CCCCCC">
                <rect id="矩形备份-9" x="0" y="18" width="124" height="1"></rect>
                <rect id="矩形备份-10" x="0" y="27" width="124" height="1"></rect>
                <rect id="矩形" x="0" y="9" width="124" height="1"></rect>
                <rect id="矩形备份-13" x="0" y="0" width="124" height="1"></rect>
            </g>
            <g id="编组-27" transform="translate(62.000000, 136.000000)" fill="#D8D8D8">
                <circle id="椭圆形" cx="1.5" cy="1.5" r="1.5"></circle>
                <circle id="椭圆形备份" cx="7.5" cy="1.5" r="1.5"></circle>
                <circle id="椭圆形备份-2" cx="13.5" cy="1.5" r="1.5"></circle>
                <circle id="椭圆形备份-5" cx="19.5" cy="1.5" r="1.5"></circle>
                <circle id="椭圆形备份-4" cx="25.5" cy="1.5" r="1.5"></circle>
                <circle id="椭圆形备份-3" cx="31.5" cy="1.5" r="1.5"></circle>
            </g>
            <g id="编组-18备份-3" transform="translate(118.000000, 170.000000)" fill="#DA4141" fill-rule="nonzero" opacity="0.800000012">
                <path d="M4.58235627,21.0658318 L4.58235627,20.4681756 L13.031575,20.4681756 L13.031575,21.0541131 L13.9339188,21.0541131 L13.9339188,10.1205193 L3.68001252,10.1205193 L3.68001252,21.0658318 L4.58235627,21.0658318 Z M13.031575,19.6361443 L4.58235627,19.6361443 L4.58235627,10.9525506 L13.031575,10.9525506 L13.031575,19.6361443 Z M12.4807938,18.3939568 L12.4807938,17.5970818 L9.22298127,17.5970818 L9.22298127,15.2767693 L12.0589188,15.2767693 L12.0589188,14.4798943 L9.22298127,14.4798943 L9.22298127,12.9095818 L12.2932938,12.9095818 L12.2932938,12.1127068 L5.30891877,12.1127068 L5.30891877,12.9095818 L8.35579377,12.9095818 L8.35579377,14.4798943 L5.53157502,14.4798943 L5.53157502,15.2767693 L8.35579377,15.2767693 L8.35579377,17.5970818 L5.12141877,17.5970818 L5.12141877,18.3939568 L12.4807938,18.3939568 Z M10.8987625,17.3158318 L11.5901688,16.7884881 C11.2854813,16.3978631 10.9182938,15.9798943 10.4886063,15.5345818 L10.4886063,15.5345818 L9.83235627,16.0267693 C10.1682938,16.3783318 10.5237625,16.8080193 10.8987625,17.3158318 L10.8987625,17.3158318 Z M17.625325,20.9838006 L17.625325,14.7963006 C18.0550125,15.2298943 18.4573563,15.6595818 18.8323563,16.0853631 L18.8323563,16.0853631 L19.45345,15.4408318 C19.0706375,15.0423943 18.6292313,14.6283318 18.1292313,14.1986443 L18.1292313,14.1986443 L17.625325,14.7259881 L17.625325,12.6517693 L19.219075,12.6517693 L19.219075,11.8548943 L17.625325,11.8548943 L17.625325,9.55801932 L16.8050125,9.55801932 L16.8050125,11.8548943 L15.0237625,11.8548943 L15.0237625,12.6517693 L16.7229813,12.6517693 C16.4026688,14.1127068 15.8089188,15.5111443 14.9417313,16.8470818 C15.0901688,17.1986443 15.219075,17.5423943 15.32845,17.8783318 C15.8987625,17.0619256 16.39095,15.9818474 16.8050125,14.6380974 L16.8050125,14.6380974 L16.8050125,20.9838006 L17.625325,20.9838006 Z M25.9807938,11.0697381 L25.9807938,10.2494256 L19.7464188,10.2494256 L19.7464188,11.0697381 L25.9807938,11.0697381 Z M20.3792313,20.8548943 C20.9964188,20.8705193 21.51595,20.8744256 21.937825,20.8666131 C22.8362625,20.8666131 23.2854813,20.3783318 23.2854813,19.4017693 L23.2854813,19.4017693 L23.2854813,14.5033318 L26.5198563,14.5033318 L26.5198563,13.6830193 L19.2073563,13.6830193 L19.2073563,14.5033318 L22.3948563,14.5033318 L22.3948563,19.1088006 C22.3948563,19.6869256 22.1604813,19.9759881 21.6917313,19.9759881 C21.2464188,19.9759881 20.7542313,19.9447381 20.2151688,19.8822381 C20.2854813,20.2494256 20.3401688,20.5736443 20.3792313,20.8548943 Z M25.8050125,19.7650506 L26.7425125,19.3548943 C26.250325,18.2845818 25.6331375,17.0384881 24.89095,15.6166131 L24.89095,15.6166131 L24.0589188,16.0150506 C24.7151688,17.3041131 25.2972,18.5541131 25.8050125,19.7650506 L25.8050125,19.7650506 Z M19.26595,19.7767693 C19.8987625,18.6673943 20.5354813,17.3978631 21.1761063,15.9681756 L21.1761063,15.9681756 L20.2972,15.6166131 C19.6643875,17.1088006 19.0354813,18.3588006 18.4104813,19.3666131 C18.7386063,19.4994256 19.0237625,19.6361443 19.26595,19.7767693 Z" id="国标" transform="translate(15.211263, 15.311926) rotate(20.000000) translate(-15.211263, -15.311926) "></path>
                <path d="M15,0 C23.2842712,0 30,6.71572875 30,15 C30,23.2842712 23.2842712,30 15,30 C6.71572875,30 0,23.2842712 0,15 C0,6.71572875 6.71572875,0 15,0 Z M15,1 C7.2680135,1 1,7.2680135 1,15 C1,22.7319865 7.2680135,29 15,29 C22.7319865,29 29,22.7319865 29,15 C29,7.2680135 22.7319865,1 15,1 Z" id="椭圆形"></path>
            </g>
            <path d="M29.8125,111.875 L30.1875,111.5 L27.375,108.6875 L30.1875,105.875 L29.8125,105.5 L27,108.3125 L24.1875,105.5 L23.765625,105.875 L26.625,108.6875 L23.765625,111.5 L24.1875,111.875 L27,109.0625 L29.8125,111.875 Z M41.8125,111.875 L42.1875,111.5 L39.375,108.6875 L42.1875,105.875 L41.8125,105.5 L39,108.3125 L36.1875,105.5 L35.765625,105.875 L38.625,108.6875 L35.765625,111.5 L36.1875,111.875 L39,109.0625 L41.8125,111.875 Z M45.28125,114.546875 C48.875,113.953125 50.765625,112.328125 50.953125,109.671875 L50.953125,109.671875 L51.140625,109.671875 C51.921875,112.109375 53.21875,113.6875 55.03125,114.40625 C55.15625,114.4375 55.25,114.421875 55.3125,114.359375 C55.4375,113.640625 55.875,113.1875 56.625,113 C56.75,112.9375 56.75,112.84375 56.625,112.71875 C54,112.75 52.296875,111.734375 51.515625,109.671875 L51.515625,109.671875 L56.484375,109.671875 C56.609375,109.640625 56.640625,109.546875 56.578125,109.390625 C56.203125,109.078125 55.734375,108.71875 55.171875,108.3125 L55.171875,108.3125 L54.984375,108.3125 C54.640625,108.65625 54.359375,109.03125 54.140625,109.4375 L54.140625,109.4375 L51,109.4375 L51,109.4375 L51,107.1875 C51.21875,107 51.3125,106.875 51.28125,106.8125 L51.28125,106.8125 L55.875,106.8125 C55.96875,106.78125 55.984375,106.6875 55.921875,106.53125 C55.671875,106.28125 55.203125,105.921875 54.515625,105.453125 L54.515625,105.453125 L54.375,105.453125 C54.03125,105.796875 53.734375,106.171875 53.484375,106.578125 L53.484375,106.578125 L51.28125,106.578125 C51.5,106.390625 51.859375,106.046875 52.359375,105.546875 C52.828125,105.046875 53.1875,104.6875 53.4375,104.46875 C53.59375,104.4375 53.828125,104.40625 54.140625,104.375 C54.265625,104.28125 54.28125,104.171875 54.1875,104.046875 C53.59375,103.640625 53.046875,103.28125 52.546875,102.96875 C52.453125,102.9375 52.359375,102.953125 52.265625,103.015625 C51.890625,104.046875 51.390625,105.234375 50.765625,106.578125 L50.765625,106.578125 L46.171875,106.578125 C46.015625,106.578125 45.875,106.5625 45.75,106.53125 L45.75,106.53125 L46.03125,106.859375 C46.28125,106.859375 46.53125,106.84375 46.78125,106.8125 L46.78125,106.8125 L49.640625,106.8125 L49.640625,108.828125 C49.640625,109.046875 49.625,109.25 49.59375,109.4375 L49.59375,109.4375 L45.65625,109.4375 C45.53125,109.4375 45.40625,109.421875 45.28125,109.390625 L45.28125,109.390625 L45.515625,109.71875 C45.984375,109.71875 46.25,109.703125 46.3125,109.671875 L46.3125,109.671875 L49.59375,109.671875 C49.40625,112.015625 47.953125,113.5625 45.234375,114.3125 C45.140625,114.375 45.15625,114.453125 45.28125,114.546875 Z M48.28125,105.6875 C48.34375,106.1875 48.6875,106.34375 49.3125,106.15625 C49.78125,105.96875 49.953125,105.546875 49.828125,104.890625 C49.453125,104.140625 48.640625,103.578125 47.390625,103.203125 C47.203125,103.265625 47.15625,103.34375 47.25,103.4375 C47.875,104.09375 48.21875,104.84375 48.28125,105.6875 Z M62.0625,114.171875 C62.90625,114.140625 63.40625,113.921875 63.5625,113.515625 C63.5625,113.421875 63.546875,113.25 63.515625,113 L63.515625,113 L63.515625,108.3125 L68.625,108.3125 C68.71875,108.28125 68.734375,108.1875 68.671875,108.03125 C68.421875,107.78125 67.953125,107.421875 67.265625,106.953125 L67.265625,106.953125 L67.125,106.953125 C66.78125,107.296875 66.484375,107.671875 66.234375,108.078125 L66.234375,108.078125 L63.515625,108.078125 L63.515625,104.9375 C63.703125,104.78125 63.796875,104.65625 63.796875,104.5625 L63.796875,104.5625 L67.5,104.5625 C67.59375,104.53125 67.609375,104.4375 67.546875,104.28125 C67.296875,104.03125 66.828125,103.671875 66.140625,103.203125 L66.140625,103.203125 L66,103.203125 C65.65625,103.546875 65.359375,103.921875 65.109375,104.328125 L65.109375,104.328125 L58.40625,104.328125 C58.28125,104.328125 58.15625,104.3125 58.03125,104.28125 L58.03125,104.28125 L58.265625,104.609375 C58.734375,104.609375 59,104.59375 59.0625,104.5625 L59.0625,104.5625 L62.109375,104.5625 L62.109375,108.078125 L57.5625,108.078125 C57.40625,108.078125 57.265625,108.0625 57.140625,108.03125 L57.140625,108.03125 L57.375,108.359375 C57.625,108.359375 57.890625,108.34375 58.171875,108.3125 L58.171875,108.3125 L62.109375,108.3125 L62.109375,112.90625 C61.828125,113 61.234375,113 60.328125,112.90625 C60.265625,112.90625 60.25,112.9375 60.28125,113 C61,113.125 61.53125,113.484375 61.875,114.078125 C61.90625,114.140625 61.96875,114.171875 62.0625,114.171875 Z M77.8125,111.875 L78.1875,111.5 L75.375,108.6875 L78.1875,105.875 L77.8125,105.5 L75,108.3125 L72.1875,105.5 L71.765625,105.875 L74.625,108.6875 L71.765625,111.5 L72.1875,111.875 L75,109.0625 L77.8125,111.875 Z M89.8125,111.875 L90.1875,111.5 L87.375,108.6875 L90.1875,105.875 L89.8125,105.5 L87,108.3125 L84.1875,105.5 L83.765625,105.875 L86.625,108.6875 L83.765625,111.5 L84.1875,111.875 L87,109.0625 L89.8125,111.875 Z M94.0538194,113.615741 L94.171875,113.609375 C94.609375,113.546875 94.84375,113.421875 94.875,113.234375 L94.875,113.234375 L94.875,112.671875 L96.984375,112.671875 L96.984375,113 C97.328125,113.375 97.75,113.375 98.25,113 L98.25,113 L98.109375,106.4375 C98.234375,106.375 98.359375,106.265625 98.484375,106.109375 C98.515625,106.046875 98.515625,105.984375 98.484375,105.921875 C98.109375,105.640625 97.75,105.421875 97.40625,105.265625 L97.40625,105.265625 L97.265625,105.265625 C97.046875,105.359375 96.828125,105.546875 96.609375,105.828125 L96.609375,105.828125 L95.765625,105.828125 C95.859375,105.671875 96.015625,105.390625 96.234375,104.984375 C96.390625,104.734375 96.5625,104.453125 96.75,104.140625 C96.75,104.109375 96.828125,104.0625 96.984375,104 C97.046875,104 97.09375,103.984375 97.125,103.953125 L97.125,103.953125 L97.125,103.90625 C97.15625,103.78125 97.15625,103.703125 97.125,103.671875 C96.53125,103.453125 96.046875,103.3125 95.671875,103.25 C95.546875,103.28125 95.484375,103.3125 95.484375,103.34375 C95.453125,103.71875 95.421875,104.109375 95.390625,104.515625 C95.328125,104.953125 95.28125,105.390625 95.25,105.828125 L95.25,105.828125 L94.875,105.828125 C94.5625,105.609375 94.203125,105.421875 93.796875,105.265625 C93.734375,105.296875 93.703125,105.328125 93.703125,105.359375 C93.734375,105.609375 93.75,105.96875 93.75,106.4375 L93.75,106.4375 L93.75,106.953125 L93.609375,113.375 C93.609375,113.5625 93.796875,113.640625 94.171875,113.609375 L94.0538194,113.615741 Z M101.8125,114.265625 C102.78125,114.203125 103.421875,113.71875 103.734375,112.8125 C103.921875,112.15625 104.015625,111.28125 104.015625,110.1875 L104.015625,110.1875 L104.015625,106.8125 C104.109375,106.75 104.203125,106.65625 104.296875,106.53125 C104.296875,106.53125 104.3125,106.484375 104.34375,106.390625 C103.9375,106.109375 103.484375,105.875 102.984375,105.6875 C102.921875,105.6875 102.859375,105.703125 102.796875,105.734375 C102.609375,105.921875 102.46875,106.078125 102.375,106.203125 L102.375,106.203125 L100.125,106.203125 C100.5625,105.515625 100.953125,104.828125 101.296875,104.140625 L101.296875,104.140625 L101.671875,103.90625 L101.671875,103.90625 L101.671875,103.671875 C100.921875,103.453125 100.375,103.3125 100.03125,103.25 C99.90625,103.25 99.84375,103.265625 99.84375,103.296875 C99.5625,105.109375 99.125,106.6875 98.53125,108.03125 C98.5,108.125 98.546875,108.15625 98.671875,108.125 C99.140625,107.625 99.5625,107.0625 99.9375,106.4375 L99.9375,106.4375 L102.609375,106.4375 L102.609375,110.5625 C102.703125,112.5625 101.921875,113.328125 100.265625,112.859375 C100.109375,112.921875 100.078125,112.96875 100.171875,113 C101.046875,113.28125 101.546875,113.671875 101.671875,114.171875 C101.671875,114.203125 101.71875,114.234375 101.8125,114.265625 Z M96.984375,108.921875 L94.875,108.921875 L94.875,106.0625 L96.984375,106.0625 L96.984375,108.921875 Z M100.567383,110.939453 L100.6875,110.9375 C101.125,110.84375 101.359375,110.515625 101.390625,109.953125 C101.203125,109.109375 100.53125,108.546875 99.375,108.265625 C99.28125,108.328125 99.25,108.375 99.28125,108.40625 C99.71875,108.84375 99.921875,109.4375 99.890625,110.1875 C99.921875,110.71875 100.1875,110.96875 100.6875,110.9375 L100.567383,110.939453 Z M96.984375,112.4375 L94.875,112.4375 L94.875,109.203125 L96.984375,109.203125 L96.984375,112.4375 Z M106.78125,114.125 C109.59375,113.65625 111.234375,112.09375 111.703125,109.4375 L111.703125,109.4375 L111.890625,109.4375 C112.046875,111.5625 113.09375,113.109375 115.03125,114.078125 C115.125,114.109375 115.171875,114.09375 115.171875,114.03125 C115.390625,113.40625 115.84375,113.015625 116.53125,112.859375 C116.625,112.796875 116.625,112.734375 116.53125,112.671875 C114.1875,112.328125 112.6875,111.25 112.03125,109.4375 L112.03125,109.4375 L116.765625,109.4375 C116.859375,109.40625 116.875,109.328125 116.8125,109.203125 C116.59375,108.953125 116.203125,108.65625 115.640625,108.3125 L115.640625,108.3125 L115.453125,108.3125 C115.390625,108.375 115.265625,108.515625 115.078125,108.734375 C114.890625,108.984375 114.78125,109.125 114.75,109.15625 L114.75,109.15625 L114.515625,109.15625 L114.515625,106.4375 C114.515625,106.4375 114.5625,106.375 114.65625,106.25 C114.8125,106.09375 114.890625,105.984375 114.890625,105.921875 C114.515625,105.578125 114.046875,105.328125 113.484375,105.171875 C113.390625,105.171875 113.25,105.34375 113.0625,105.6875 C113.046875,105.71875 113.035156,105.742188 113.027344,105.757812 L113.015625,105.78125 L111.890625,105.78125 L111.890625,104.046875 C111.890625,104.046875 111.9375,104 112.03125,103.90625 C112.125,103.84375 112.203125,103.78125 112.265625,103.71875 L112.265625,103.71875 L112.265625,103.53125 C111.703125,103.34375 111.09375,103.21875 110.4375,103.15625 C110.40625,103.1875 110.390625,103.21875 110.390625,103.25 L110.390625,103.25 L110.390625,103.578125 C110.421875,103.796875 110.453125,104.03125 110.484375,104.28125 L110.484375,104.28125 L110.484375,105.78125 L109.3125,105.78125 C109.03125,105.78125 108.828125,105.765625 108.703125,105.734375 L108.703125,105.734375 L108.984375,106.0625 L110.484375,106.0625 L110.484375,107.9375 C110.484375,108.28125 110.46875,108.53125 110.4375,108.6875 L110.4375,108.6875 L110.4375,109.15625 L108.28125,109.15625 C108.15625,109.15625 108.03125,109.140625 107.90625,109.109375 L107.90625,109.109375 L108.140625,109.4375 L108.140625,109.4375 L110.390625,109.4375 C110.046875,111.84375 108.828125,113.359375 106.734375,113.984375 C106.671875,113.984375 106.65625,114 106.6875,114.03125 C106.6875,114.09375 106.71875,114.125 106.78125,114.125 Z M106.078125,106.34375 C106.234375,106.78125 106.53125,106.9375 106.96875,106.8125 C107.34375,106.625 107.5,106.28125 107.4375,105.78125 C107.25,105.15625 106.578125,104.8125 105.421875,104.75 C105.359375,104.78125 105.34375,104.8125 105.375,104.84375 C105.71875,105.21875 105.921875,105.515625 105.984375,105.734375 C106.015625,105.859375 106.03125,106 106.03125,106.15625 C106.03125,106.25 106.046875,106.3125 106.078125,106.34375 Z M106.59375,113.375 C107.09375,113.3125 107.359375,112.953125 107.390625,112.296875 C107.390625,112.296875 107.359375,112.25 107.296875,112.15625 C107.140625,111.6875 107.0625,111.359375 107.0625,111.171875 C107.0625,110.328125 107.34375,109.0625 107.90625,107.375 C108.1875,106.625 108.421875,105.875 108.609375,105.125 C108.578125,105.0625 108.546875,105.015625 108.515625,104.984375 C108.484375,104.984375 108.46875,105 108.46875,105.03125 C108.03125,105.84375 107.453125,107.015625 106.734375,108.546875 C106.296875,109.421875 106.046875,109.9375 105.984375,110.09375 C105.921875,110.1875 105.84375,110.234375 105.75,110.234375 C105.65625,110.234375 105.546875,110.21875 105.421875,110.1875 C105.265625,110.15625 105.15625,110.125 105.09375,110.09375 C105.03125,110.15625 105.03125,110.203125 105.09375,110.234375 C105.8125,110.609375 106.0625,111.140625 105.84375,111.828125 C105.8125,112.078125 105.796875,112.265625 105.796875,112.390625 C105.796875,113.015625 106.0625,113.34375 106.59375,113.375 Z M113.25,109.15625 L111.75,109.15625 C111.84375,108.59375 111.890625,107.984375 111.890625,107.328125 L111.890625,107.328125 L111.890625,106.0625 L113.25,106.0625 L113.25,109.15625 Z M123.5625,105.640625 C123.6875,106.078125 123.984375,106.234375 124.453125,106.109375 C124.890625,105.890625 125.078125,105.546875 125.015625,105.078125 C124.890625,104.421875 124.28125,103.890625 123.1875,103.484375 C123.09375,103.515625 123.046875,103.5625 123.046875,103.625 C123.390625,104.09375 123.5625,104.53125 123.5625,104.9375 C123.5625,105.03125 123.546875,105.125 123.515625,105.21875 C123.515625,105.4375 123.53125,105.578125 123.5625,105.640625 Z M119.15625,105.453125 C119.46875,105.796875 119.78125,105.84375 120.09375,105.59375 C120.4375,105.28125 120.53125,104.90625 120.375,104.46875 C120.09375,103.90625 119.4375,103.640625 118.40625,103.671875 C118.28125,103.734375 118.25,103.796875 118.3125,103.859375 C118.6875,104.140625 118.90625,104.53125 118.96875,105.03125 C119,105.21875 119.0625,105.359375 119.15625,105.453125 Z M120.09375,114.078125 C121.90625,113.296875 123.265625,112.453125 124.171875,111.546875 C124.953125,112.671875 125.828125,113.484375 126.796875,113.984375 C126.859375,114.015625 126.921875,114 126.984375,113.9375 C127.203125,113.375 127.6875,113.0625 128.4375,113 C128.46875,112.96875 128.453125,112.90625 128.390625,112.8125 C127.109375,112.4375 125.984375,111.6875 125.015625,110.5625 C125.796875,109.5 126.453125,107.78125 126.984375,105.40625 C127.203125,105.25 127.34375,105.140625 127.40625,105.078125 C127.4375,105.015625 127.4375,104.9375 127.40625,104.84375 C127.0625,104.6875 126.578125,104.484375 125.953125,104.234375 C125.859375,104.203125 125.796875,104.21875 125.765625,104.28125 C125.390625,106.71875 124.90625,108.515625 124.3125,109.671875 C123.25,108.140625 122.5625,106.375 122.25,104.375 C122.1875,104.34375 122.140625,104.34375 122.109375,104.375 C122.203125,106.84375 122.734375,108.96875 123.703125,110.75 C123.015625,111.78125 121.78125,112.78125 120,113.75 C119.90625,113.90625 119.9375,114.015625 120.09375,114.078125 Z M119.25,113.65625 C119.28125,113.75 119.359375,113.75 119.484375,113.65625 C119.578125,113.5 119.921875,113.09375 120.515625,112.4375 C121.328125,111.46875 121.8125,110.875 121.96875,110.65625 C122,110.625 122,110.578125 121.96875,110.515625 C121.9375,110.484375 121.90625,110.46875 121.875,110.46875 C121.65625,110.59375 121.109375,110.96875 120.234375,111.59375 L120.234375,111.59375 L120.234375,107.65625 C120.234375,107.65625 120.25125,107.63375 120.285,107.58875 L120.375,107.46875 C120.53125,107.34375 120.609375,107.25 120.609375,107.1875 C120.296875,106.90625 119.875,106.6875 119.34375,106.53125 C119.21875,106.53125 119.046875,106.6875 118.828125,107 L118.828125,107 L118.03125,107 L117.46875,106.953125 L117.703125,107.28125 C117.953125,107.28125 118.21875,107.265625 118.5,107.234375 L118.5,107.234375 L119.109375,107.234375 L119.109375,112.0625 C119.046875,112.125 118.953125,112.1875 118.828125,112.25 C118.671875,112.3125 118.578125,112.375 118.546875,112.4375 C118.484375,112.5 118.484375,112.5625 118.546875,112.625 C118.578125,112.71875 118.6875,112.875 118.875,113.09375 C119.0625,113.375 119.1875,113.5625 119.25,113.65625 Z" id="××关于××的决议" fill="#333333" fill-rule="nonzero"></path>
        </g>
    </g>
</svg>