<?xml version="1.0" encoding="UTF-8"?>
<svg width="150px" height="202px" viewBox="0 0 150 202" version="1.1" xmlns="http://www.w3.org/2000/svg" xmlns:xlink="http://www.w3.org/1999/xlink">
    <!-- Generator: Sketch 60.1 (88133) - https://sketch.com -->
    <title>会议纪要备份</title>
    <desc>Created with Sketch.</desc>
    <g id="页面-1" stroke="none" stroke-width="1" fill="none" fill-rule="evenodd">
        <g id="编组-10备份" transform="translate(0.000000, -1.000000)">
            <g id="编组-2备份-2">
                <rect id="矩形" x="0" y="0" width="150" height="202" rx="4"></rect>
            </g>
            <rect id="矩形" stroke="none" fill="#FFFFFF" x="5.5" y="5.5" width="139" height="191" rx="4"></rect>
            <g id="编组-20" transform="translate(13.000000, 63.000000)">
                <path d="M6.21875,6.625 L6.5,6.34375 L4.25,4.125 L6.4375,1.875 L6.15625,1.625 L4,3.875 L1.75,1.625 L1.5,1.875 L3.75,4.125 L1.5,6.375 L1.75,6.625 L4,4.375 L6.21875,6.625 Z M14.21875,6.625 L14.5,6.34375 L12.25,4.125 L14.4375,1.875 L14.15625,1.625 L12,3.875 L9.75,1.625 L9.5,1.875 L11.75,4.125 L9.5,6.375 L9.75,6.625 L12,4.375 L14.21875,6.625 Z M20,7.78125 C20.0833333,7.88541667 20.125,7.79166667 20.125,7.5 L20.125,7.5 L20.15625,5.59375 C21.90625,5.44791667 23,5.38541667 23.4375,5.40625 L23.4375,5.40625 L23.03125,5.03125 C22.96875,5.09375 22.0104167,5.19791667 20.15625,5.34375 L20.15625,5.34375 L20.1875,4.46875 L22.21875,4.28125 L21.90625,4 L22.15625,2.25 L22.375,2.03125 L22,1.6875 L21.78125,1.96875 L20.65625,2.125 C20.8854167,1.75 21.0729167,1.45833333 21.21875,1.25 C21.34375,1.04166667 21.4270833,0.958333333 21.46875,1 L21.46875,1 L21.09375,0.4375 L21,0.5 C21.1041667,0.583333333 21.0885417,0.791666667 20.953125,1.125 C20.8177083,1.45833333 20.65625,1.79166667 20.46875,2.125 L20.46875,2.125 L18.4375,2.34375 L18.21875,1.875 L18.09375,1.9375 C18.15625,2.02083333 18.1979167,2.453125 18.21875,3.234375 C18.2395833,4.015625 18.2083333,4.4375 18.125,4.5 L18.125,4.5 L18.4375,4.9375 C18.5208333,4.9375 18.5520833,4.83333333 18.53125,4.625 L18.53125,4.625 L19.90625,4.5 L19.875,5.375 C18.0625,5.52083333 17,5.58333333 16.6875,5.5625 L16.6875,5.5625 L17.03125,5.875 C17.1770833,5.85416667 18.125,5.77083333 19.875,5.625 L19.875,5.625 L19.84375,6.875 C19.8645833,7.02083333 19.8229167,7.13541667 19.71875,7.21875 L19.71875,7.21875 L20,7.78125 Z M19.375,2.21875 C19.4583333,2.05208333 19.5416667,1.90625 19.625,1.78125 C19.3958333,1.55208333 19.0833333,1.21875 18.6875,0.78125 L18.6875,0.78125 L18.625,0.84375 C18.8958333,1.26041667 19.1458333,1.71875 19.375,2.21875 Z M20.1875,4.1875 L20.1875,3.46875 C20.7291667,3.38541667 21.1770833,3.34375 21.53125,3.34375 L21.53125,3.34375 L21.21875,3.03125 C21.1354167,3.07291667 20.7916667,3.125 20.1875,3.1875 L20.1875,3.1875 L20.1875,2.4375 L21.875,2.25 L21.625,4.0625 L20.1875,4.1875 Z M18.5,4.34375 L18.46875,2.625 L19.90625,2.46875 L19.90625,3.21875 C19.3229167,3.28125 18.8854167,3.3125 18.59375,3.3125 L18.59375,3.3125 L18.9375,3.625 C19.0625,3.58333333 19.3854167,3.54166667 19.90625,3.5 L19.90625,3.5 L19.90625,4.21875 L18.5,4.34375 Z M28.9375,2.25 C29.0416667,2.04166667 29.125,1.84375 29.1875,1.65625 C29.0208333,1.40625 28.75,1.04166667 28.375,0.5625 L28.375,0.5625 L28.25,0.625 C28.6041667,1.33333333 28.8333333,1.875 28.9375,2.25 Z M26.15625,7.6875 C26.2395833,7.83333333 26.28125,7.75 26.28125,7.4375 L26.28125,7.4375 L26.3125,2.4375 C26.5625,2.02083333 26.75,1.71354167 26.875,1.515625 C27,1.31770833 27.1041667,1.21875 27.1875,1.21875 L27.1875,1.21875 L26.875,0.59375 L26.75,0.625 C26.7916667,0.854166667 26.5989583,1.35416667 26.171875,2.125 C25.7447917,2.89583333 25.2083333,3.63541667 24.5625,4.34375 L24.5625,4.34375 L24.625,4.5 C25.25,3.89583333 25.71875,3.34375 26.03125,2.84375 L26.03125,2.84375 L26,6.59375 C26,6.86458333 25.9479167,7.04166667 25.84375,7.125 L25.84375,7.125 L26.15625,7.6875 Z M27.34375,3.125 C27.5104167,3.0625 28.0885417,2.984375 29.078125,2.890625 C30.0677083,2.796875 30.71875,2.73958333 31.03125,2.71875 L31.03125,2.71875 L30.625,2.375 C30.5416667,2.4375 30.0208333,2.52083333 29.0625,2.625 C28.1041667,2.72916667 27.40625,2.79166667 26.96875,2.8125 L26.96875,2.8125 L27.34375,3.125 Z M27.0625,7 C27.2291667,6.95833333 27.9010417,6.89583333 29.078125,6.8125 C30.2552083,6.72916667 31.0625,6.6875 31.5,6.6875 L31.5,6.6875 L31.09375,6.3125 C30.9479167,6.375 30.3229167,6.44791667 29.21875,6.53125 C29.4270833,5.82291667 29.6041667,5.16145833 29.75,4.546875 C29.8958333,3.93229167 30.03125,3.61458333 30.15625,3.59375 L30.15625,3.59375 L29.625,3.03125 L29.53125,3.09375 C29.65625,3.30208333 29.65625,3.72395833 29.53125,4.359375 C29.40625,4.99479167 29.2291667,5.72916667 29,6.5625 C27.875,6.64583333 27.1041667,6.6875 26.6875,6.6875 L26.6875,6.6875 L27.0625,7 Z M28.15625,5.84375 C28.3020833,5.67708333 28.40625,5.48958333 28.46875,5.28125 C28.3229167,4.96875 28.0520833,4.375 27.65625,3.5 L27.65625,3.5 L27.53125,3.5625 C27.84375,4.5 28.0520833,5.26041667 28.15625,5.84375 Z" id="××单位" fill="#333333" fill-rule="nonzero"></path>
                <g id="编组-3" transform="translate(60.000000, 0.000000)" fill="#333333" fill-rule="nonzero">
                    <path d="M3.28125,7 L3.46875,5.65625 L3.28125,5.65625 C3.23958333,5.94791667 3.15625,6.16666667 3.03125,6.3125 C2.90625,6.45833333 2.75,6.53125 2.5625,6.53125 L2.5625,6.53125 L0.71875,6.53125 C0.78125,6.40625 0.973958333,6.16145833 1.296875,5.796875 C1.61979167,5.43229167 2.08333333,4.95833333 2.6875,4.375 C2.9375,4.14583333 3.11979167,3.90625 3.234375,3.65625 C3.34895833,3.40625 3.40625,3.15625 3.40625,2.90625 C3.40625,2.53125 3.28645833,2.21875 3.046875,1.96875 C2.80729167,1.71875 2.4375,1.59375 1.9375,1.59375 C1.58333333,1.59375 1.25,1.70833333 0.9375,1.9375 C0.625,2.16666667 0.46875,2.5 0.46875,2.9375 C0.46875,3.10416667 0.505208333,3.22395833 0.578125,3.296875 C0.651041667,3.36979167 0.75,3.40625 0.875,3.40625 C0.979166667,3.40625 1.05729167,3.38020833 1.109375,3.328125 C1.16145833,3.27604167 1.1875,3.19791667 1.1875,3.09375 C1.1875,3.01041667 1.15104167,2.92708333 1.078125,2.84375 C1.00520833,2.76041667 0.96875,2.65625 0.96875,2.53125 C0.96875,2.32291667 1.05729167,2.15104167 1.234375,2.015625 C1.41145833,1.88020833 1.625,1.8125 1.875,1.8125 C2.20833333,1.8125 2.45833333,1.91145833 2.625,2.109375 C2.79166667,2.30729167 2.875,2.59375 2.875,2.96875 C2.875,3.23958333 2.79166667,3.53125 2.625,3.84375 C2.45833333,4.15625 2.19791667,4.48958333 1.84375,4.84375 C1.44791667,5.23958333 1.13020833,5.58333333 0.890625,5.875 C0.651041667,6.16666667 0.479166667,6.40625 0.375,6.59375 L0.375,6.59375 L0.375,7 L3.28125,7 Z M5.96875,7.0625 C6.42708333,7.0625 6.80729167,6.81770833 7.109375,6.328125 C7.41145833,5.83854167 7.5625,5.16666667 7.5625,4.3125 C7.5625,3.45833333 7.41145833,2.79166667 7.109375,2.3125 C6.80729167,1.83333333 6.42708333,1.59375 5.96875,1.59375 C5.48958333,1.59375 5.09895833,1.84375 4.796875,2.34375 C4.49479167,2.84375 4.34375,3.5 4.34375,4.3125 C4.34375,5.1875 4.5,5.86458333 4.8125,6.34375 C5.125,6.82291667 5.51041667,7.0625 5.96875,7.0625 Z M5.96875,6.8125 C5.67708333,6.8125 5.43229167,6.59375 5.234375,6.15625 C5.03645833,5.71875 4.9375,5.10416667 4.9375,4.3125 C4.9375,3.5625 5.03645833,2.96354167 5.234375,2.515625 C5.43229167,2.06770833 5.67708333,1.84375 5.96875,1.84375 C6.30208333,1.84375 6.55208333,2.06770833 6.71875,2.515625 C6.88541667,2.96354167 6.96875,3.5625 6.96875,4.3125 C6.96875,5.10416667 6.88020833,5.71875 6.703125,6.15625 C6.52604167,6.59375 6.28125,6.8125 5.96875,6.8125 Z M14.21875,6.625 L14.5,6.34375 L12.25,4.125 L14.4375,1.875 L14.15625,1.625 L12,3.875 L9.75,1.625 L9.5,1.875 L11.75,4.125 L9.5,6.375 L9.75,6.625 L12,4.375 L14.21875,6.625 Z M22.21875,6.625 L22.5,6.34375 L20.25,4.125 L22.4375,1.875 L22.15625,1.625 L20,3.875 L17.75,1.625 L17.5,1.875 L19.75,4.125 L17.5,6.375 L17.75,6.625 L20,4.375 L22.21875,6.625 Z M28.28125,7.78125 C28.3645833,7.84375 28.40625,7.72916667 28.40625,7.4375 L28.40625,7.4375 L28.4375,5.0625 C30.1666667,4.91666667 31.1770833,4.84375 31.46875,4.84375 L31.46875,4.84375 L31.0625,4.5 C30.8541667,4.5625 29.9791667,4.65625 28.4375,4.78125 L28.4375,4.78125 L28.4375,3.59375 C29.3541667,3.48958333 30.0104167,3.4375 30.40625,3.4375 L30.40625,3.4375 L29.90625,3.09375 C29.84375,3.15625 29.3541667,3.22916667 28.4375,3.3125 L28.4375,3.3125 L28.46875,2.125 C29.5104167,2.02083333 30.15625,1.96875 30.40625,1.96875 L30.40625,1.96875 L30.0625,1.625 C29.9791667,1.66666667 29.5885417,1.72395833 28.890625,1.796875 C28.1927083,1.86979167 27.5104167,1.9375 26.84375,2 C27.0729167,1.60416667 27.2291667,1.33333333 27.3125,1.1875 C27.3958333,1.04166667 27.4583333,0.989583333 27.5,1.03125 L27.5,1.03125 L27.15625,0.53125 L27.0625,0.5625 C27.125,0.708333333 26.9895833,1.09895833 26.65625,1.734375 C26.3229167,2.36979167 25.8541667,3.01041667 25.25,3.65625 L25.25,3.65625 L25.34375,3.75 C25.9270833,3.20833333 26.4166667,2.64583333 26.8125,2.0625 L26.8125,2.0625 L27.09375,2.3125 C27.09375,2.29166667 27.4583333,2.23958333 28.1875,2.15625 L28.1875,2.15625 L28.15625,3.34375 L26.78125,3.46875 L26.46875,3.09375 L26.375,3.15625 C26.4375,3.36458333 26.4791667,3.61458333 26.5,3.90625 L26.5,3.90625 L26.5,4.96875 C25.7083333,5.03125 25.1041667,5.0625 24.6875,5.0625 L24.6875,5.0625 L25.0625,5.40625 C25.2291667,5.34375 26.2604167,5.23958333 28.15625,5.09375 L28.15625,5.09375 L28.125,6.8125 C28.125,7.02083333 28.0729167,7.1875 27.96875,7.3125 L27.96875,7.3125 L28.28125,7.78125 Z M26.78125,4.9375 L26.78125,3.75 L28.15625,3.625 L28.15625,4.8125 L26.78125,4.9375 Z M38.21875,6.625 L38.5,6.34375 L36.25,4.125 L38.4375,1.875 L38.15625,1.625 L36,3.875 L33.75,1.625 L33.5,1.875 L35.75,4.125 L33.5,6.375 L33.75,6.625 L36,4.375 L38.21875,6.625 Z M45.40625,7.84375 C45.5520833,7.61458333 45.625,7.25 45.625,6.75 L45.625,6.75 L45.6875,1.21875 L45.9375,0.96875 L45.5625,0.625 L45.3125,0.96875 L43,1.28125 L42.75,0.625 L42.65625,0.65625 C42.6979167,1.03125 42.71875,1.46875 42.71875,1.96875 C42.71875,2.46875 42.6979167,3.04166667 42.65625,3.6875 C42.6145833,4.33333333 42.46875,4.97395833 42.21875,5.609375 C41.96875,6.24479167 41.53125,6.90625 40.90625,7.59375 L40.90625,7.59375 L41,7.71875 C41.9375,6.88541667 42.5520833,5.85416667 42.84375,4.625 C43.96875,4.4375 44.7395833,4.33333333 45.15625,4.3125 L45.15625,4.3125 L44.84375,4 C44.6979167,4.0625 44.0416667,4.15625 42.875,4.28125 C42.9375,3.92708333 42.9791667,3.55208333 43,3.15625 C44.1666667,2.96875 44.8645833,2.875 45.09375,2.875 L45.09375,2.875 L44.78125,2.53125 C44.6145833,2.61458333 44.0208333,2.71875 43,2.84375 L43,2.84375 L43.03125,1.59375 L45.40625,1.28125 L45.34375,6.34375 C45.3645833,6.63541667 45.34375,6.91666667 45.28125,7.1875 L45.28125,7.1875 L44.25,6.5625 L44.15625,6.625 C44.78125,7.16666667 45.1979167,7.57291667 45.40625,7.84375 Z M54.21875,6.625 L54.5,6.34375 L52.25,4.125 L54.4375,1.875 L54.15625,1.625 L52,3.875 L49.75,1.625 L49.5,1.875 L51.75,4.125 L49.5,6.375 L49.75,6.625 L52,4.375 L54.21875,6.625 Z M58.53125,7.40625 C58.6354167,7.57291667 58.6770833,7.375 58.65625,6.8125 L58.65625,6.8125 L61.5625,6.625 C61.6041667,7.04166667 61.6510417,7.30208333 61.703125,7.40625 C61.7552083,7.51041667 61.8177083,7.359375 61.890625,6.953125 C61.9635417,6.546875 62.0625,4.71875 62.1875,1.46875 L62.1875,1.46875 L62.4375,1.21875 L62.03125,0.875 L61.8125,1.21875 L58.59375,1.5 L58.3125,0.875 L58.21875,0.90625 C58.3020833,1.28125 58.34375,1.61458333 58.34375,1.90625 L58.34375,1.90625 L58.375,6.15625 C58.3958333,6.51041667 58.34375,6.75 58.21875,6.875 L58.21875,6.875 L58.53125,7.40625 Z M61.59375,6.625 L61.25,6.3125 C61.0625,6.375 60.1979167,6.44791667 58.65625,6.53125 L58.65625,6.53125 L58.625,4.125 C60.1041667,3.95833333 61.0416667,3.86458333 61.4375,3.84375 L61.4375,3.84375 L61.09375,3.5 C60.9895833,3.58333333 60.1666667,3.6875 58.625,3.8125 L58.625,3.8125 L58.59375,1.8125 L61.90625,1.5 C61.78125,4.75 61.6770833,6.45833333 61.59375,6.625 L61.59375,6.625 Z" id="20××年×月×日"></path>
                </g>
                <rect id="矩形" fill="#DA4141" x="0" y="14" width="124" height="1"></rect>
            </g>
            <path d="M31.5625,51 L31.5625,50.53125 C30.4166667,50.4791667 29.8697917,50.1927083 29.921875,49.671875 C29.765625,49.515625 30.390625,48.5 31.796875,46.625 L31.796875,46.625 L32.578125,45.609375 L34.609375,48.8125 C34.765625,49.125 34.8958333,49.4635417 35,49.828125 C35.0520833,50.296875 34.53125,50.53125 33.4375,50.53125 L33.4375,50.53125 L33.4375,51 L40.234375,51 L40.234375,50.53125 C39.7135417,50.6354167 39.0625,50.0625 38.28125,48.8125 L38.28125,48.8125 L34.6875,43.109375 C37.1875,39.203125 38.9583333,37.484375 40,37.953125 L40,37.953125 L40,37.484375 L35,37.484375 L35,37.953125 C35.0520833,38.0052083 35.1041667,38.03125 35.15625,38.03125 C36.0416667,38.0833333 36.484375,38.2916667 36.484375,38.65625 C36.8489583,38.6041667 36.0677083,39.8541667 34.140625,42.40625 L34.140625,42.40625 L32.265625,39.359375 C32.0052083,39.1510417 31.9010417,38.9166667 31.953125,38.65625 C31.796875,38.1875 32.3177083,37.953125 33.515625,37.953125 L33.515625,37.953125 L33.515625,37.484375 L26.5625,37.484375 L26.5625,37.953125 C27.1354167,38.0052083 27.6822917,38.3958333 28.203125,39.125 L28.203125,39.125 L32.1875,44.984375 L28.671875,49.359375 C28.203125,50.0364583 27.5,50.4270833 26.5625,50.53125 L26.5625,50.53125 L26.5625,51 L31.5625,51 Z M45.9375,51 L45.9375,50.53125 C44.7916667,50.4791667 44.2447917,50.1927083 44.296875,49.671875 C44.140625,49.515625 44.765625,48.5 46.171875,46.625 L46.171875,46.625 L46.953125,45.609375 L48.984375,48.8125 C49.140625,49.125 49.2708333,49.4635417 49.375,49.828125 C49.4270833,50.296875 48.90625,50.53125 47.8125,50.53125 L47.8125,50.53125 L47.8125,51 L54.609375,51 L54.609375,50.53125 C54.0885417,50.6354167 53.4375,50.0625 52.65625,48.8125 L52.65625,48.8125 L49.0625,43.109375 C51.5625,39.203125 53.3333333,37.484375 54.375,37.953125 L54.375,37.953125 L54.375,37.484375 L49.375,37.484375 L49.375,37.953125 C49.4270833,38.0052083 49.4791667,38.03125 49.53125,38.03125 C50.4166667,38.0833333 50.859375,38.2916667 50.859375,38.65625 C51.2239583,38.6041667 50.4427083,39.8541667 48.515625,42.40625 L48.515625,42.40625 L46.640625,39.359375 C46.3802083,39.1510417 46.2760417,38.9166667 46.328125,38.65625 C46.171875,38.1875 46.6927083,37.953125 47.890625,37.953125 L47.890625,37.953125 L47.890625,37.484375 L40.9375,37.484375 L40.9375,37.953125 C41.5104167,38.0052083 42.0572917,38.3958333 42.578125,39.125 L42.578125,39.125 L46.5625,44.984375 L43.046875,49.359375 C42.578125,50.0364583 41.875,50.4270833 40.9375,50.53125 L40.9375,50.53125 L40.9375,51 L45.9375,51 Z M60.3125,51 L60.3125,50.53125 C59.1666667,50.4791667 58.6197917,50.1927083 58.671875,49.671875 C58.515625,49.515625 59.140625,48.5 60.546875,46.625 L60.546875,46.625 L61.328125,45.609375 L63.359375,48.8125 C63.515625,49.125 63.6458333,49.4635417 63.75,49.828125 C63.8020833,50.296875 63.28125,50.53125 62.1875,50.53125 L62.1875,50.53125 L62.1875,51 L68.984375,51 L68.984375,50.53125 C68.4635417,50.6354167 67.8125,50.0625 67.03125,48.8125 L67.03125,48.8125 L63.4375,43.109375 C65.9375,39.203125 67.7083333,37.484375 68.75,37.953125 L68.75,37.953125 L68.75,37.484375 L63.75,37.484375 L63.75,37.953125 C63.8020833,38.0052083 63.8541667,38.03125 63.90625,38.03125 C64.7916667,38.0833333 65.234375,38.2916667 65.234375,38.65625 C65.5989583,38.6041667 64.8177083,39.8541667 62.890625,42.40625 L62.890625,42.40625 L61.015625,39.359375 C60.7552083,39.1510417 60.6510417,38.9166667 60.703125,38.65625 C60.546875,38.1875 61.0677083,37.953125 62.265625,37.953125 L62.265625,37.953125 L62.265625,37.484375 L55.3125,37.484375 L55.3125,37.953125 C55.8854167,38.0052083 56.4322917,38.3958333 56.953125,39.125 L56.953125,39.125 L60.9375,44.984375 L57.421875,49.359375 C56.953125,50.0364583 56.25,50.4270833 55.3125,50.53125 L55.3125,50.53125 L55.3125,51 L60.3125,51 Z M74.6875,51 L74.6875,50.53125 C73.5416667,50.4791667 72.9947917,50.1927083 73.046875,49.671875 C72.890625,49.515625 73.515625,48.5 74.921875,46.625 L74.921875,46.625 L75.703125,45.609375 L77.734375,48.8125 C77.890625,49.125 78.0208333,49.4635417 78.125,49.828125 C78.1770833,50.296875 77.65625,50.53125 76.5625,50.53125 L76.5625,50.53125 L76.5625,51 L83.359375,51 L83.359375,50.53125 C82.8385417,50.6354167 82.1875,50.0625 81.40625,48.8125 L81.40625,48.8125 L77.8125,43.109375 C80.3125,39.203125 82.0833333,37.484375 83.125,37.953125 L83.125,37.953125 L83.125,37.484375 L78.125,37.484375 L78.125,37.953125 C78.1770833,38.0052083 78.2291667,38.03125 78.28125,38.03125 C79.1666667,38.0833333 79.609375,38.2916667 79.609375,38.65625 C79.9739583,38.6041667 79.1927083,39.8541667 77.265625,42.40625 L77.265625,42.40625 L75.390625,39.359375 C75.1302083,39.1510417 75.0260417,38.9166667 75.078125,38.65625 C74.921875,38.1875 75.4427083,37.953125 76.640625,37.953125 L76.640625,37.953125 L76.640625,37.484375 L69.6875,37.484375 L69.6875,37.953125 C70.2604167,38.0052083 70.8072917,38.3958333 71.328125,39.125 L71.328125,39.125 L75.3125,44.984375 L71.796875,49.359375 C71.328125,50.0364583 70.625,50.4270833 69.6875,50.53125 L69.6875,50.53125 L69.6875,51 L74.6875,51 Z M85.078125,47.875 C85.078125,48.03125 85.2083333,48.03125 85.46875,47.875 C87.7604167,46.7291667 89.6614583,45.8177083 91.171875,45.140625 C91.3802083,44.9322917 91.3802083,44.7760417 91.171875,44.671875 C90.3385417,44.7760417 88.8541667,44.9583333 86.71875,45.21875 C88.5416667,43.34375 89.9479167,41.7291667 90.9375,40.375 C91.3020833,40.2708333 91.5625,40.1666667 91.71875,40.0625 C91.8229167,40.0104167 91.8489583,39.90625 91.796875,39.75 C91.0677083,39.2291667 90.4427083,38.7864583 89.921875,38.421875 C89.8697917,38.4739583 89.765625,38.5 89.609375,38.5 C89.2447917,39.4375 88.828125,40.296875 88.359375,41.078125 C87.1614583,40.8697917 86.3802083,40.7135417 86.015625,40.609375 C86.9010417,39.5677083 87.7864583,38.2916667 88.671875,36.78125 C88.984375,36.6770833 89.21875,36.5729167 89.375,36.46875 C89.4791667,36.4166667 89.5052083,36.3125 89.453125,36.15625 C89.2447917,36.1041667 89.0104167,36 88.75,35.84375 C88.0208333,35.4270833 87.5520833,35.1666667 87.34375,35.0625 C87.2916667,35.0625 87.1875,35.0885417 87.03125,35.140625 C86.1979167,38.3697917 85.2864583,40.1145833 84.296875,40.375 C84.1927083,40.4270833 84.140625,40.53125 84.140625,40.6875 C84.140625,40.7916667 84.21875,41.078125 84.375,41.546875 C84.4791667,42.0677083 84.5572917,42.3541667 84.609375,42.40625 C84.5572917,42.5104167 84.6614583,42.5625 84.921875,42.5625 C84.921875,42.5104167 84.9479167,42.484375 85,42.484375 C85.9895833,42.171875 87.03125,41.8854167 88.125,41.625 C87.0833333,43.1875 85.8072917,44.4114583 84.296875,45.296875 C84.1927083,45.3489583 84.140625,45.5052083 84.140625,45.765625 C84.1927083,45.9739583 84.296875,46.234375 84.453125,46.546875 C84.765625,47.2760417 84.9739583,47.71875 85.078125,47.875 Z M99.6875,52.875 C101.927083,52.875 103.125,52.40625 103.28125,51.46875 C103.28125,51.2083333 103.177083,51.0260417 102.96875,50.921875 C102.864583,50.8177083 102.786458,50.6875 102.734375,50.53125 C102.578125,50.2708333 102.526042,49.90625 102.578125,49.4375 C102.578125,48.9166667 102.682292,48.2916667 102.890625,47.5625 C102.734375,47.3541667 102.578125,47.328125 102.421875,47.484375 C101.901042,50.0364583 100.651042,51.1822917 98.671875,50.921875 L98.671875,50.921875 L95.546875,50.921875 C94.5572917,50.921875 94.0625,50.5833333 94.0625,49.90625 L94.0625,49.90625 L94.0625,43.8125 L98.75,43.8125 L98.75,44.671875 C99.0625,45.6614583 99.7916667,45.6875 100.9375,44.75 L100.9375,44.75 L100.78125,38.03125 C100.989583,37.9270833 101.197917,37.7447917 101.40625,37.484375 L101.40625,37.484375 L101.40625,37.25 C100.729167,36.7291667 100.052083,36.2864583 99.375,35.921875 C99.1666667,35.9739583 99.0625,36 99.0625,36 C98.75,36.3125 98.4895833,36.625 98.28125,36.9375 L98.28125,36.9375 L91.640625,36.9375 C91.328125,36.8854167 91.1458333,36.859375 91.09375,36.859375 L91.09375,36.859375 L91.40625,37.40625 L98.75,37.40625 L98.75,43.421875 L94.0625,43.421875 L94.0625,43.34375 C93.6979167,43.1354167 93.0989583,42.8489583 92.265625,42.484375 C92.109375,42.5364583 92.0572917,42.5625 92.109375,42.5625 L92.109375,42.5625 L92.1875,44.4375 L92.1875,51.390625 C92.1875,52.328125 93.2291667,52.8229167 95.3125,52.875 L95.3125,52.875 L99.6875,52.875 Z M85.625,52.71875 C86.5104167,52.09375 87.8125,51.3385417 89.53125,50.453125 C90.1041667,50.0885417 90.703125,49.7239583 91.328125,49.359375 C91.4322917,49.2552083 91.40625,49.125 91.25,48.96875 C88.4375,49.59375 86.1458333,49.984375 84.375,50.140625 C84.2708333,50.3489583 84.2447917,50.453125 84.296875,50.453125 C84.3489583,50.6614583 84.5572917,51.1041667 84.921875,51.78125 C85.1302083,52.1979167 85.2864583,52.5104167 85.390625,52.71875 L85.390625,52.71875 L85.625,52.71875 Z M105.390625,53.1875 C108.567708,53.1875 111.5625,52.2760417 114.375,50.453125 C115.416667,50.8177083 116.5625,51.390625 117.8125,52.171875 C118.28125,52.484375 118.619792,52.6927083 118.828125,52.796875 C119.661458,53.109375 120.234375,52.9791667 120.546875,52.40625 C120.755208,51.7291667 120.520833,51.15625 119.84375,50.6875 C118.854167,50.0104167 117.578125,49.5416667 116.015625,49.28125 C116.744792,48.65625 117.213542,48.2395833 117.421875,48.03125 C117.682292,47.8229167 117.942708,47.5885417 118.203125,47.328125 C118.255208,47.2760417 118.411458,47.25 118.671875,47.25 C118.880208,47.25 119.010417,47.2239583 119.0625,47.171875 C119.166667,47.015625 119.192708,46.8854167 119.140625,46.78125 C118.932292,46.625 118.645833,46.46875 118.28125,46.3125 L118.28125,46.3125 L123.125,46.3125 C123.333333,46.3125 123.385417,46.2083333 123.28125,46 C122.864583,45.53125 122.1875,45.0104167 121.25,44.4375 L121.25,44.4375 L121.015625,44.4375 C120.755208,44.6979167 120.338542,45.1927083 119.765625,45.921875 L119.765625,45.921875 L112.65625,45.921875 C112.8125,45.7135417 113.020833,45.4010417 113.28125,44.984375 C113.504464,44.686756 113.687819,44.4422832 113.831314,44.2509566 L113.984375,44.046875 L114.6875,43.8125 C114.791667,43.7083333 114.817708,43.578125 114.765625,43.421875 C114.401042,43.2135417 113.984375,43.0052083 113.515625,42.796875 L113.515625,42.796875 L118.59375,42.796875 L118.59375,42.953125 C118.90625,43.7864583 119.661458,43.7864583 120.859375,42.953125 L120.859375,42.953125 L120.625,39.671875 C120.989583,39.4635417 121.197917,39.3072917 121.25,39.203125 L121.25,39.203125 L121.25,38.890625 C120.364583,38.3177083 119.635417,37.953125 119.0625,37.796875 C118.958333,37.796875 118.880208,37.8229167 118.828125,37.875 C118.765625,37.9375 118.684375,38.01875 118.584375,38.11875 L118.183594,38.5195312 C118.144531,38.5585938 118.125,38.578125 118.125,38.578125 L118.125,38.578125 L116.484375,38.578125 L116.484375,36.9375 L116.484375,36.9375 L116.640625,36.78125 C116.796875,36.6770833 116.901042,36.5989583 116.953125,36.546875 C117.005208,36.4947917 117.057292,36.4166667 117.109375,36.3125 L117.109375,36.3125 L122.734375,36.3125 C122.890625,36.3125 122.916667,36.2083333 122.8125,36 C122.447917,35.53125 121.796875,35.0104167 120.859375,34.4375 L120.859375,34.4375 L120.546875,34.4375 C120.442708,34.5416667 120.3125,34.6979167 120.15625,34.90625 C119.6875,35.4270833 119.427083,35.765625 119.375,35.921875 L119.375,35.921875 L105.3125,35.921875 C105.052083,35.921875 104.817708,35.8958333 104.609375,35.84375 L104.609375,35.84375 L105,36.390625 C105.416667,36.390625 105.859375,36.3645833 106.328125,36.3125 L106.328125,36.3125 L110.703125,36.3125 L110.703125,38.578125 L108.90625,38.578125 C107.552083,38.0572917 106.744792,37.796875 106.484375,37.796875 L106.484375,37.796875 L106.484375,39.4375 L106.25,43.421875 C106.197917,43.8385417 106.536458,44.0208333 107.265625,43.96875 C108.046875,43.8125 108.489583,43.5520833 108.59375,43.1875 L108.59375,43.1875 L108.59375,42.796875 L112.109375,42.796875 C111.796875,43.4739583 111.119792,44.515625 110.078125,45.921875 L110.078125,45.921875 L104.84375,45.921875 C104.635417,45.921875 104.427083,45.8958333 104.21875,45.84375 L104.21875,45.84375 L104.609375,46.390625 C105.390625,46.390625 105.833333,46.3645833 105.9375,46.3125 L105.9375,46.3125 L109.765625,46.3125 C109.453125,46.7291667 109.166667,47.09375 108.90625,47.40625 C108.4375,47.9791667 108.203125,48.2916667 108.203125,48.34375 C107.838542,49.3333333 108.411458,49.671875 109.921875,49.359375 C110.911458,49.515625 111.796875,49.6979167 112.578125,49.90625 C110.338542,51.4166667 107.942708,52.3802083 105.390625,52.796875 C105.234375,52.796875 105.15625,52.8489583 105.15625,52.953125 C105.15625,53.0572917 105.234375,53.1354167 105.390625,53.1875 Z M114.609375,38.578125 L112.578125,38.578125 L112.578125,36.9375 C112.473958,36.9375 112.552083,36.859375 112.8125,36.703125 C112.864583,36.6510417 112.942708,36.5989583 113.046875,36.546875 C113.098958,36.4947917 113.125,36.4166667 113.125,36.3125 L113.125,36.3125 L114.609375,36.3125 L114.609375,38.578125 Z M110.703125,42.328125 L108.59375,42.328125 L108.59375,39.203125 C108.59375,39.203125 108.645833,39.1510417 108.75,39.046875 L108.75,39.046875 L110.703125,39.046875 L110.703125,42.328125 Z M118.59375,42.328125 L116.484375,42.328125 L116.484375,39.046875 L118.59375,39.046875 L118.59375,42.328125 Z M114.609375,42.328125 L112.578125,42.328125 L112.578125,39.046875 L114.609375,39.046875 L114.609375,42.328125 Z M113.59375,49.046875 L110.3125,49.046875 C110.416667,48.9427083 110.625,48.6822917 110.9375,48.265625 C111.5625,47.4322917 112.057292,46.78125 112.421875,46.3125 L112.421875,46.3125 L115.625,46.3125 C115.104167,47.3020833 114.427083,48.2135417 113.59375,49.046875 L113.59375,49.046875 Z" id="XXXX纪要" fill="#DA4141" fill-rule="nonzero"></path>
            <g id="编组-12" transform="translate(13.000000, 159.000000)" fill="#CCCCCC">
                <rect id="矩形备份-9" x="0" y="18" width="124" height="1"></rect>
                <rect id="矩形备份-10" x="0" y="27" width="124" height="1"></rect>
                <rect id="矩形" x="0" y="9" width="124" height="1"></rect>
                <rect id="矩形备份-13" x="0" y="0" width="124" height="1"></rect>
            </g>
            <g id="编组-27" transform="translate(62.000000, 117.000000)" fill="#D8D8D8">
                <circle id="椭圆形" cx="1.5" cy="1.5" r="1.5"></circle>
                <circle id="椭圆形备份" cx="7.5" cy="1.5" r="1.5"></circle>
                <circle id="椭圆形备份-2" cx="13.5" cy="1.5" r="1.5"></circle>
                <circle id="椭圆形备份-5" cx="19.5" cy="1.5" r="1.5"></circle>
                <circle id="椭圆形备份-4" cx="25.5" cy="1.5" r="1.5"></circle>
                <circle id="椭圆形备份-3" cx="31.5" cy="1.5" r="1.5"></circle>
            </g>
            <g id="编组-18备份-3" transform="translate(118.000000, 170.000000)" fill="#DA4141" fill-rule="nonzero" opacity="0.800000012">
                <path d="M4.58235627,21.0658318 L4.58235627,20.4681756 L13.031575,20.4681756 L13.031575,21.0541131 L13.9339188,21.0541131 L13.9339188,10.1205193 L3.68001252,10.1205193 L3.68001252,21.0658318 L4.58235627,21.0658318 Z M13.031575,19.6361443 L4.58235627,19.6361443 L4.58235627,10.9525506 L13.031575,10.9525506 L13.031575,19.6361443 Z M12.4807938,18.3939568 L12.4807938,17.5970818 L9.22298127,17.5970818 L9.22298127,15.2767693 L12.0589188,15.2767693 L12.0589188,14.4798943 L9.22298127,14.4798943 L9.22298127,12.9095818 L12.2932938,12.9095818 L12.2932938,12.1127068 L5.30891877,12.1127068 L5.30891877,12.9095818 L8.35579377,12.9095818 L8.35579377,14.4798943 L5.53157502,14.4798943 L5.53157502,15.2767693 L8.35579377,15.2767693 L8.35579377,17.5970818 L5.12141877,17.5970818 L5.12141877,18.3939568 L12.4807938,18.3939568 Z M10.8987625,17.3158318 L11.5901688,16.7884881 C11.2854813,16.3978631 10.9182938,15.9798943 10.4886063,15.5345818 L10.4886063,15.5345818 L9.83235627,16.0267693 C10.1682938,16.3783318 10.5237625,16.8080193 10.8987625,17.3158318 L10.8987625,17.3158318 Z M17.625325,20.9838006 L17.625325,14.7963006 C18.0550125,15.2298943 18.4573563,15.6595818 18.8323563,16.0853631 L18.8323563,16.0853631 L19.45345,15.4408318 C19.0706375,15.0423943 18.6292313,14.6283318 18.1292313,14.1986443 L18.1292313,14.1986443 L17.625325,14.7259881 L17.625325,12.6517693 L19.219075,12.6517693 L19.219075,11.8548943 L17.625325,11.8548943 L17.625325,9.55801932 L16.8050125,9.55801932 L16.8050125,11.8548943 L15.0237625,11.8548943 L15.0237625,12.6517693 L16.7229813,12.6517693 C16.4026688,14.1127068 15.8089188,15.5111443 14.9417313,16.8470818 C15.0901688,17.1986443 15.219075,17.5423943 15.32845,17.8783318 C15.8987625,17.0619256 16.39095,15.9818474 16.8050125,14.6380974 L16.8050125,14.6380974 L16.8050125,20.9838006 L17.625325,20.9838006 Z M25.9807938,11.0697381 L25.9807938,10.2494256 L19.7464188,10.2494256 L19.7464188,11.0697381 L25.9807938,11.0697381 Z M20.3792313,20.8548943 C20.9964188,20.8705193 21.51595,20.8744256 21.937825,20.8666131 C22.8362625,20.8666131 23.2854813,20.3783318 23.2854813,19.4017693 L23.2854813,19.4017693 L23.2854813,14.5033318 L26.5198563,14.5033318 L26.5198563,13.6830193 L19.2073563,13.6830193 L19.2073563,14.5033318 L22.3948563,14.5033318 L22.3948563,19.1088006 C22.3948563,19.6869256 22.1604813,19.9759881 21.6917313,19.9759881 C21.2464188,19.9759881 20.7542313,19.9447381 20.2151688,19.8822381 C20.2854813,20.2494256 20.3401688,20.5736443 20.3792313,20.8548943 Z M25.8050125,19.7650506 L26.7425125,19.3548943 C26.250325,18.2845818 25.6331375,17.0384881 24.89095,15.6166131 L24.89095,15.6166131 L24.0589188,16.0150506 C24.7151688,17.3041131 25.2972,18.5541131 25.8050125,19.7650506 L25.8050125,19.7650506 Z M19.26595,19.7767693 C19.8987625,18.6673943 20.5354813,17.3978631 21.1761063,15.9681756 L21.1761063,15.9681756 L20.2972,15.6166131 C19.6643875,17.1088006 19.0354813,18.3588006 18.4104813,19.3666131 C18.7386063,19.4994256 19.0237625,19.6361443 19.26595,19.7767693 Z" id="国标" transform="translate(15.211263, 15.311926) rotate(20.000000) translate(-15.211263, -15.311926) "></path>
                <path d="M15,0 C23.2842712,0 30,6.71572875 30,15 C30,23.2842712 23.2842712,30 15,30 C6.71572875,30 0,23.2842712 0,15 C0,6.71572875 6.71572875,0 15,0 Z M15,1 C7.2680135,1 1,7.2680135 1,15 C1,22.7319865 7.2680135,29 15,29 C22.7319865,29 29,22.7319865 29,15 C29,7.2680135 22.7319865,1 15,1 Z" id="椭圆形"></path>
            </g>
            <path d="M39.28125,100.546875 C42.875,99.953125 44.765625,98.328125 44.953125,95.671875 L44.953125,95.671875 L45.140625,95.671875 C45.921875,98.109375 47.21875,99.6875 49.03125,100.40625 C49.15625,100.4375 49.25,100.421875 49.3125,100.359375 C49.4375,99.640625 49.875,99.1875 50.625,99 C50.75,98.9375 50.75,98.84375 50.625,98.71875 C48,98.75 46.296875,97.734375 45.515625,95.671875 L45.515625,95.671875 L50.484375,95.671875 C50.609375,95.640625 50.640625,95.546875 50.578125,95.390625 C50.203125,95.078125 49.734375,94.71875 49.171875,94.3125 L49.171875,94.3125 L48.984375,94.3125 C48.640625,94.65625 48.359375,95.03125 48.140625,95.4375 L48.140625,95.4375 L45,95.4375 L45,95.4375 L45,93.1875 C45.21875,93 45.3125,92.875 45.28125,92.8125 L45.28125,92.8125 L49.875,92.8125 C49.96875,92.78125 49.984375,92.6875 49.921875,92.53125 C49.671875,92.28125 49.203125,91.921875 48.515625,91.453125 L48.515625,91.453125 L48.375,91.453125 C48.03125,91.796875 47.734375,92.171875 47.484375,92.578125 L47.484375,92.578125 L45.28125,92.578125 C45.5,92.390625 45.859375,92.046875 46.359375,91.546875 C46.828125,91.046875 47.1875,90.6875 47.4375,90.46875 C47.59375,90.4375 47.828125,90.40625 48.140625,90.375 C48.265625,90.28125 48.28125,90.171875 48.1875,90.046875 C47.59375,89.640625 47.046875,89.28125 46.546875,88.96875 C46.453125,88.9375 46.359375,88.953125 46.265625,89.015625 C45.890625,90.046875 45.390625,91.234375 44.765625,92.578125 L44.765625,92.578125 L40.171875,92.578125 C40.015625,92.578125 39.875,92.5625 39.75,92.53125 L39.75,92.53125 L40.03125,92.859375 C40.28125,92.859375 40.53125,92.84375 40.78125,92.8125 L40.78125,92.8125 L43.640625,92.8125 L43.640625,94.828125 C43.640625,95.046875 43.625,95.25 43.59375,95.4375 L43.59375,95.4375 L39.65625,95.4375 C39.53125,95.4375 39.40625,95.421875 39.28125,95.390625 L39.28125,95.390625 L39.515625,95.71875 C39.984375,95.71875 40.25,95.703125 40.3125,95.671875 L40.3125,95.671875 L43.59375,95.671875 C43.40625,98.015625 41.953125,99.5625 39.234375,100.3125 C39.140625,100.375 39.15625,100.453125 39.28125,100.546875 Z M42.28125,91.6875 C42.34375,92.1875 42.6875,92.34375 43.3125,92.15625 C43.78125,91.96875 43.953125,91.546875 43.828125,90.890625 C43.453125,90.140625 42.640625,89.578125 41.390625,89.203125 C41.203125,89.265625 41.15625,89.34375 41.25,89.4375 C41.875,90.09375 42.21875,90.84375 42.28125,91.6875 Z M56.0625,100.171875 C56.90625,100.140625 57.40625,99.921875 57.5625,99.515625 C57.5625,99.421875 57.546875,99.25 57.515625,99 L57.515625,99 L57.515625,94.3125 L62.625,94.3125 C62.71875,94.28125 62.734375,94.1875 62.671875,94.03125 C62.421875,93.78125 61.953125,93.421875 61.265625,92.953125 L61.265625,92.953125 L61.125,92.953125 C60.78125,93.296875 60.484375,93.671875 60.234375,94.078125 L60.234375,94.078125 L57.515625,94.078125 L57.515625,90.9375 C57.703125,90.78125 57.796875,90.65625 57.796875,90.5625 L57.796875,90.5625 L61.5,90.5625 C61.59375,90.53125 61.609375,90.4375 61.546875,90.28125 C61.296875,90.03125 60.828125,89.671875 60.140625,89.203125 L60.140625,89.203125 L60,89.203125 C59.65625,89.546875 59.359375,89.921875 59.109375,90.328125 L59.109375,90.328125 L52.40625,90.328125 C52.28125,90.328125 52.15625,90.3125 52.03125,90.28125 L52.03125,90.28125 L52.265625,90.609375 C52.734375,90.609375 53,90.59375 53.0625,90.5625 L53.0625,90.5625 L56.109375,90.5625 L56.109375,94.078125 L51.5625,94.078125 C51.40625,94.078125 51.265625,94.0625 51.140625,94.03125 L51.140625,94.03125 L51.375,94.359375 C51.625,94.359375 51.890625,94.34375 52.171875,94.3125 L52.171875,94.3125 L56.109375,94.3125 L56.109375,98.90625 C55.828125,99 55.234375,99 54.328125,98.90625 C54.265625,98.90625 54.25,98.9375 54.28125,99 C55,99.125 55.53125,99.484375 55.875,100.078125 C55.90625,100.140625 55.96875,100.171875 56.0625,100.171875 Z M63.328125,95.015625 C65.828125,93.734375 67.84375,92 69.375,89.8125 C70.1875,92.125 71.546875,93.671875 73.453125,94.453125 C73.515625,94.515625 73.578125,94.484375 73.640625,94.359375 C73.734375,93.953125 74.0625,93.484375 74.625,92.953125 C74.65625,92.921875 74.671875,92.890625 74.671875,92.859375 C74.671875,92.828125 74.65625,92.796875 74.625,92.765625 C72.40625,92.546875 70.703125,91.546875 69.515625,89.765625 L69.515625,89.765625 L69.796875,89.625 C69.859375,89.625 69.890625,89.578125 69.890625,89.484375 C69.890625,89.421875 69.859375,89.375 69.796875,89.34375 C69.671875,89.34375 69.34375,89.265625 68.8125,89.109375 C68.28125,88.984375 67.96875,88.90625 67.875,88.875 C67.71875,88.84375 67.65625,88.859375 67.6875,88.921875 C66.5625,91.515625 65.0625,93.484375 63.1875,94.828125 C63.125,94.953125 63.171875,95.015625 63.328125,95.015625 Z M71.859375,94.453125 C71.953125,94.421875 72,94.34375 72,94.21875 C71.75,93.96875 71.296875,93.640625 70.640625,93.234375 C70.578125,93.203125 70.515625,93.203125 70.453125,93.234375 C70.359375,93.328125 70.21875,93.5 70.03125,93.75 C69.84375,93.96875 69.71875,94.109375 69.65625,94.171875 L69.65625,94.171875 L65.90625,94.171875 C65.78125,94.171875 65.65625,94.15625 65.53125,94.125 L65.53125,94.125 L65.765625,94.453125 L65.765625,94.453125 L71.859375,94.453125 Z M65.15625,100.453125 L71.484375,99.09375 C71.546875,99.1875 71.625,99.40625 71.71875,99.75 L71.71875,99.75 L71.8125,100.03125 C71.96875,100.40625 72.28125,100.515625 72.75,100.359375 C73.09375,100.171875 73.265625,99.828125 73.265625,99.328125 C72.921875,98.328125 71.90625,97.6875 70.21875,97.40625 C70.15625,97.40625 70.125,97.421875 70.125,97.453125 C70.09375,97.515625 70.109375,97.546875 70.171875,97.546875 C70.546875,97.828125 70.953125,98.296875 71.390625,98.953125 L71.390625,98.953125 L66.609375,98.953125 L68.859375,97.171875 L69.375,97.125 C69.4375,97.0625 69.453125,96.984375 69.421875,96.890625 C69.328125,96.828125 69.109375,96.734375 68.765625,96.609375 C68.640625,96.546875 68.546875,96.484375 68.484375,96.421875 L68.484375,96.421875 L74.015625,96.421875 C74.109375,96.390625 74.125,96.296875 74.0625,96.140625 C73.6875,95.828125 73.21875,95.46875 72.65625,95.0625 L72.65625,95.0625 L72.46875,95.0625 C72.1875,95.40625 71.90625,95.78125 71.625,96.1875 L71.625,96.1875 L64.3125,96.1875 C64.15625,96.1875 64.015625,96.171875 63.890625,96.140625 L63.890625,96.140625 L64.125,96.46875 C64.375,96.46875 64.640625,96.453125 64.921875,96.421875 L64.921875,96.421875 L67.40625,96.421875 C66.4375,97.953125 65.484375,98.796875 64.546875,98.953125 C64.453125,98.984375 64.421875,99 64.453125,99 C64.453125,99.0625 64.53125,99.296875 64.6875,99.703125 C64.84375,100.078125 64.9375,100.3125 64.96875,100.40625 C64.9375,100.4375 64.96875,100.453125 65.0625,100.453125 L65.0625,100.453125 L65.15625,100.453125 Z M81.5625,91.640625 C81.6875,92.078125 81.984375,92.234375 82.453125,92.109375 C82.890625,91.890625 83.078125,91.546875 83.015625,91.078125 C82.890625,90.421875 82.28125,89.890625 81.1875,89.484375 C81.09375,89.515625 81.046875,89.5625 81.046875,89.625 C81.390625,90.09375 81.5625,90.53125 81.5625,90.9375 C81.5625,91.03125 81.546875,91.125 81.515625,91.21875 C81.515625,91.4375 81.53125,91.578125 81.5625,91.640625 Z M77.15625,91.453125 C77.46875,91.796875 77.78125,91.84375 78.09375,91.59375 C78.4375,91.28125 78.53125,90.90625 78.375,90.46875 C78.09375,89.90625 77.4375,89.640625 76.40625,89.671875 C76.28125,89.734375 76.25,89.796875 76.3125,89.859375 C76.6875,90.140625 76.90625,90.53125 76.96875,91.03125 C77,91.21875 77.0625,91.359375 77.15625,91.453125 Z M78.09375,100.078125 C79.90625,99.296875 81.265625,98.453125 82.171875,97.546875 C82.953125,98.671875 83.828125,99.484375 84.796875,99.984375 C84.859375,100.015625 84.921875,100 84.984375,99.9375 C85.203125,99.375 85.6875,99.0625 86.4375,99 C86.46875,98.96875 86.453125,98.90625 86.390625,98.8125 C85.109375,98.4375 83.984375,97.6875 83.015625,96.5625 C83.796875,95.5 84.453125,93.78125 84.984375,91.40625 C85.203125,91.25 85.34375,91.140625 85.40625,91.078125 C85.4375,91.015625 85.4375,90.9375 85.40625,90.84375 C85.0625,90.6875 84.578125,90.484375 83.953125,90.234375 C83.859375,90.203125 83.796875,90.21875 83.765625,90.28125 C83.390625,92.71875 82.90625,94.515625 82.3125,95.671875 C81.25,94.140625 80.5625,92.375 80.25,90.375 C80.1875,90.34375 80.140625,90.34375 80.109375,90.375 C80.203125,92.84375 80.734375,94.96875 81.703125,96.75 C81.015625,97.78125 79.78125,98.78125 78,99.75 C77.90625,99.90625 77.9375,100.015625 78.09375,100.078125 Z M77.25,99.65625 C77.28125,99.75 77.359375,99.75 77.484375,99.65625 C77.578125,99.5 77.921875,99.09375 78.515625,98.4375 C79.328125,97.46875 79.8125,96.875 79.96875,96.65625 C80,96.625 80,96.578125 79.96875,96.515625 C79.9375,96.484375 79.90625,96.46875 79.875,96.46875 C79.65625,96.59375 79.109375,96.96875 78.234375,97.59375 L78.234375,97.59375 L78.234375,93.65625 C78.234375,93.65625 78.25125,93.63375 78.285,93.58875 L78.375,93.46875 C78.53125,93.34375 78.609375,93.25 78.609375,93.1875 C78.296875,92.90625 77.875,92.6875 77.34375,92.53125 C77.21875,92.53125 77.046875,92.6875 76.828125,93 L76.828125,93 L76.03125,93 L75.46875,92.953125 L75.703125,93.28125 C75.953125,93.28125 76.21875,93.265625 76.5,93.234375 L76.5,93.234375 L77.109375,93.234375 L77.109375,98.0625 C77.046875,98.125 76.953125,98.1875 76.828125,98.25 C76.671875,98.3125 76.578125,98.375 76.546875,98.4375 C76.484375,98.5 76.484375,98.5625 76.546875,98.625 C76.578125,98.71875 76.6875,98.875 76.875,99.09375 C77.0625,99.375 77.1875,99.5625 77.25,99.65625 Z M87.796875,97.125 C87.796875,97.21875 87.875,97.21875 88.03125,97.125 C89.40625,96.4375 90.546875,95.890625 91.453125,95.484375 C91.578125,95.359375 91.578125,95.265625 91.453125,95.203125 C90.953125,95.265625 90.0625,95.375 88.78125,95.53125 C89.875,94.40625 90.71875,93.4375 91.3125,92.625 C91.53125,92.5625 91.6875,92.5 91.78125,92.4375 C91.84375,92.40625 91.859375,92.34375 91.828125,92.25 C91.390625,91.9375 91.015625,91.671875 90.703125,91.453125 C90.671875,91.484375 90.609375,91.5 90.515625,91.5 C90.296875,92.0625 90.046875,92.578125 89.765625,93.046875 C89.046875,92.921875 88.578125,92.828125 88.359375,92.765625 C88.890625,92.140625 89.421875,91.375 89.953125,90.46875 C90.140625,90.40625 90.28125,90.34375 90.375,90.28125 C90.4375,90.25 90.453125,90.1875 90.421875,90.09375 C90.296875,90.0625 90.15625,90 90,89.90625 C89.5625,89.65625 89.28125,89.5 89.15625,89.4375 C89.125,89.4375 89.0625,89.453125 88.96875,89.484375 C88.46875,91.421875 87.921875,92.46875 87.328125,92.625 C87.265625,92.65625 87.234375,92.71875 87.234375,92.8125 C87.234375,92.875 87.28125,93.046875 87.375,93.328125 C87.4375,93.640625 87.484375,93.8125 87.515625,93.84375 C87.484375,93.90625 87.546875,93.9375 87.703125,93.9375 C87.703125,93.90625 87.71875,93.890625 87.75,93.890625 C88.34375,93.703125 88.96875,93.53125 89.625,93.375 C89,94.3125 88.234375,95.046875 87.328125,95.578125 C87.265625,95.609375 87.234375,95.703125 87.234375,95.859375 C87.265625,95.984375 87.328125,96.140625 87.421875,96.328125 C87.609375,96.765625 87.734375,97.03125 87.796875,97.125 Z M96.5625,100.125 C97.90625,100.125 98.625,99.84375 98.71875,99.28125 C98.71875,99.125 98.65625,99.015625 98.53125,98.953125 C98.46875,98.890625 98.421875,98.8125 98.390625,98.71875 C98.296875,98.5625 98.265625,98.34375 98.296875,98.0625 C98.296875,97.75 98.359375,97.375 98.484375,96.9375 C98.390625,96.8125 98.296875,96.796875 98.203125,96.890625 C97.890625,98.421875 97.140625,99.109375 95.953125,98.953125 L95.953125,98.953125 L94.078125,98.953125 C93.484375,98.953125 93.1875,98.75 93.1875,98.34375 L93.1875,98.34375 L93.1875,94.6875 L96,94.6875 L96,95.203125 C96.1875,95.796875 96.625,95.8125 97.3125,95.25 L97.3125,95.25 L97.21875,91.21875 C97.34375,91.15625 97.46875,91.046875 97.59375,90.890625 L97.59375,90.890625 L97.59375,90.75 C97.1875,90.4375 96.78125,90.171875 96.375,89.953125 C96.25,89.984375 96.1875,90 96.1875,90 C96,90.1875 95.84375,90.375 95.71875,90.5625 L95.71875,90.5625 L91.734375,90.5625 C91.546875,90.53125 91.4375,90.515625 91.40625,90.515625 L91.40625,90.515625 L91.59375,90.84375 L96,90.84375 L96,94.453125 L93.1875,94.453125 L93.1875,94.40625 C92.96875,94.28125 92.609375,94.109375 92.109375,93.890625 C92.015625,93.921875 91.984375,93.9375 92.015625,93.9375 L92.015625,93.9375 L92.0625,95.0625 L92.0625,99.234375 C92.0625,99.796875 92.6875,100.09375 93.9375,100.125 L93.9375,100.125 L96.5625,100.125 Z M88.125,100.03125 C88.65625,99.65625 89.4375,99.203125 90.46875,98.671875 C90.8125,98.453125 91.171875,98.234375 91.546875,98.015625 C91.609375,97.953125 91.59375,97.875 91.5,97.78125 C89.8125,98.15625 88.4375,98.390625 87.375,98.484375 C87.3125,98.609375 87.296875,98.671875 87.328125,98.671875 C87.359375,98.796875 87.484375,99.0625 87.703125,99.46875 C87.828125,99.71875 87.921875,99.90625 87.984375,100.03125 L87.984375,100.03125 L88.125,100.03125 Z M99.984375,100.3125 C101.890625,100.3125 103.6875,99.765625 105.375,98.671875 C106,98.890625 106.6875,99.234375 107.4375,99.703125 C107.71875,99.890625 107.921875,100.015625 108.046875,100.078125 C108.546875,100.265625 108.890625,100.1875 109.078125,99.84375 C109.203125,99.4375 109.0625,99.09375 108.65625,98.8125 C108.0625,98.40625 107.296875,98.125 106.359375,97.96875 C106.796875,97.59375 107.078125,97.34375 107.203125,97.21875 C107.359375,97.09375 107.515625,96.953125 107.671875,96.796875 C107.703125,96.765625 107.796875,96.75 107.953125,96.75 C108.078125,96.75 108.15625,96.734375 108.1875,96.703125 C108.25,96.609375 108.265625,96.53125 108.234375,96.46875 C108.109375,96.375 107.9375,96.28125 107.71875,96.1875 L107.71875,96.1875 L110.625,96.1875 C110.75,96.1875 110.78125,96.125 110.71875,96 C110.46875,95.71875 110.0625,95.40625 109.5,95.0625 L109.5,95.0625 L109.359375,95.0625 C109.203125,95.21875 108.953125,95.515625 108.609375,95.953125 L108.609375,95.953125 L104.34375,95.953125 C104.4375,95.828125 104.5625,95.640625 104.71875,95.390625 C104.90625,95.140625 105.046875,94.953125 105.140625,94.828125 L105.140625,94.828125 L105.5625,94.6875 C105.625,94.625 105.640625,94.546875 105.609375,94.453125 C105.390625,94.328125 105.140625,94.203125 104.859375,94.078125 L104.859375,94.078125 L107.90625,94.078125 L107.90625,94.171875 C108.09375,94.671875 108.546875,94.671875 109.265625,94.171875 L109.265625,94.171875 L109.125,92.203125 C109.34375,92.078125 109.46875,91.984375 109.5,91.921875 L109.5,91.921875 L109.5,91.734375 C108.96875,91.390625 108.53125,91.171875 108.1875,91.078125 C108.125,91.078125 108.078125,91.09375 108.046875,91.125 C108.03125,91.140625 108.013672,91.1582031 107.994141,91.1777344 L107.625,91.546875 L106.640625,91.546875 L106.640625,90.5625 C106.640625,90.5625 106.671875,90.53125 106.734375,90.46875 C106.828125,90.40625 106.890625,90.359375 106.921875,90.328125 C106.953125,90.296875 106.984375,90.25 107.015625,90.1875 L107.015625,90.1875 L110.390625,90.1875 C110.484375,90.1875 110.5,90.125 110.4375,90 C110.21875,89.71875 109.828125,89.40625 109.265625,89.0625 L109.265625,89.0625 L109.078125,89.0625 C109.015625,89.125 108.9375,89.21875 108.84375,89.34375 C108.5625,89.65625 108.40625,89.859375 108.375,89.953125 L108.375,89.953125 L99.9375,89.953125 C99.78125,89.953125 99.640625,89.9375 99.515625,89.90625 L99.515625,89.90625 L99.75,90.234375 C100,90.234375 100.265625,90.21875 100.546875,90.1875 L100.546875,90.1875 L103.171875,90.1875 L103.171875,91.546875 L102.09375,91.546875 C101.28125,91.234375 100.796875,91.078125 100.640625,91.078125 L100.640625,91.078125 L100.640625,92.0625 L100.5,94.453125 C100.46875,94.703125 100.671875,94.8125 101.109375,94.78125 C101.578125,94.6875 101.84375,94.53125 101.90625,94.3125 L101.90625,94.3125 L101.90625,94.078125 L104.015625,94.078125 C103.828125,94.484375 103.421875,95.109375 102.796875,95.953125 L102.796875,95.953125 L99.65625,95.953125 C99.53125,95.953125 99.40625,95.9375 99.28125,95.90625 L99.28125,95.90625 L99.515625,96.234375 C99.984375,96.234375 100.25,96.21875 100.3125,96.1875 L100.3125,96.1875 L102.609375,96.1875 C102.421875,96.4375 102.25,96.65625 102.09375,96.84375 C101.8125,97.1875 101.671875,97.375 101.671875,97.40625 C101.453125,98 101.796875,98.203125 102.703125,98.015625 C103.296875,98.109375 103.828125,98.21875 104.296875,98.34375 C102.953125,99.25 101.515625,99.828125 99.984375,100.078125 C99.890625,100.078125 99.84375,100.109375 99.84375,100.171875 C99.84375,100.234375 99.890625,100.28125 99.984375,100.3125 Z M105.515625,91.546875 L104.296875,91.546875 L104.296875,90.5625 C104.234375,90.5625 104.28125,90.515625 104.4375,90.421875 C104.46875,90.390625 104.515625,90.359375 104.578125,90.328125 C104.609375,90.296875 104.625,90.25 104.625,90.1875 L104.625,90.1875 L105.515625,90.1875 L105.515625,91.546875 Z M103.171875,93.796875 L101.90625,93.796875 L101.90625,91.921875 C101.90625,91.921875 101.9375,91.890625 102,91.828125 L102,91.828125 L103.171875,91.828125 L103.171875,93.796875 Z M107.90625,93.796875 L106.640625,93.796875 L106.640625,91.828125 L107.90625,91.828125 L107.90625,93.796875 Z M105.515625,93.796875 L104.296875,93.796875 L104.296875,91.828125 L105.515625,91.828125 L105.515625,93.796875 Z M104.90625,97.828125 L102.9375,97.828125 C103,97.765625 103.125,97.609375 103.3125,97.359375 C103.6875,96.859375 103.984375,96.46875 104.203125,96.1875 L104.203125,96.1875 L106.125,96.1875 C105.8125,96.78125 105.40625,97.328125 104.90625,97.828125 L104.90625,97.828125 Z" id="关于会议纪要" fill="#333333" fill-rule="nonzero"></path>
        </g>
    </g>
</svg>